Command : ./interpreter_t-rex_binary_haribo -P -b8192 -i f.cnf 
[0.000] This is T-REX interpreter, prototype version 04/2018.
[0.000] Reading problem encoding from file "f.cnf".
[0.031] Parsed head comment information.
[1.372] Processed problem encoding.
[2.160] Calculated possible fact changes of composite elements.
[2.335] Initialized instantiation procedure.
[2.335] 
[2.335] *************************************
[2.335] * * *   M a k e s p a n     0   * * *
[2.335] *************************************
[2.854] Instantiated 413,883 initial clauses.
[2.854] The encoding contains a total of 208,880 distinct variables.
[2.854] Attempting solve with solver <glucose4> ...
c 188 assumptions
[2.856] Executed solver; result: UNSAT.
[2.856] 
[2.856] *************************************
[2.856] * * *   M a k e s p a n     1   * * *
[2.856] *************************************
[3.854] Computed next depth properties: array size of 372.
[4.422] Instantiated 6,798 transitional clauses.
[6.123] Instantiated 861,285 universal clauses.
[6.123] Instantiated and added clauses for a total of 1,281,966 clauses.
[6.123] The encoding contains a total of 421,708 distinct variables.
[6.123] Attempting solve with solver <glucose4> ...
c 372 assumptions
[6.123] Executed solver; result: UNSAT.
[6.123] 
[6.123] *************************************
[6.123] * * *   M a k e s p a n     2   * * *
[6.123] *************************************
[8.012] Computed next depth properties: array size of 556.
[9.547] Instantiated 1,463,427 transitional clauses.
[12.704] Instantiated 6,942,378 universal clauses.
[12.704] Instantiated and added clauses for a total of 9,687,771 clauses.
[12.704] The encoding contains a total of 1,517,860 distinct variables.
[12.704] Attempting solve with solver <glucose4> ...
c 556 assumptions
[12.705] Executed solver; result: UNSAT.
[12.705] 
[12.705] *************************************
[12.705] * * *   M a k e s p a n     3   * * *
[12.705] *************************************
[15.520] Computed next depth properties: array size of 924.
[17.992] Instantiated 3,593,186 transitional clauses.
[21.753] Instantiated 1,744,266 universal clauses.
[21.753] Instantiated and added clauses for a total of 15,025,223 clauses.
[21.753] The encoding contains a total of 1,739,672 distinct variables.
[21.753] Attempting solve with solver <glucose4> ...
c 924 assumptions
[21.755] Executed solver; result: UNSAT.
[21.755] 
[21.755] *************************************
[21.755] * * *   M a k e s p a n     4   * * *
[21.755] *************************************
[25.869] Computed next depth properties: array size of 1292.
[28.407] Instantiated 12,472 transitional clauses.
[33.804] Instantiated 2,411,482 universal clauses.
[33.804] Instantiated and added clauses for a total of 17,449,177 clauses.
[33.804] The encoding contains a total of 2,109,525 distinct variables.
[33.804] Attempting solve with solver <glucose4> ...
c 1292 assumptions
[33.806] Executed solver; result: UNSAT.
[33.806] 
[33.806] *************************************
[33.806] * * *   M a k e s p a n     5   * * *
[33.806] *************************************
[39.663] Computed next depth properties: array size of 1660.
[44.041] Instantiated 2,859,558 transitional clauses.
[52.339] Instantiated 16,077,758 universal clauses.
[52.339] Instantiated and added clauses for a total of 36,386,493 clauses.
[52.339] The encoding contains a total of 4,282,408 distinct variables.
[52.339] Attempting solve with solver <glucose4> ...
c 1660 assumptions
c last restart ## conflicts  :  70 24043 
[61.786] Executed solver; result: SAT.
[61.786] Solver returned SAT; a solution has been found at makespan 5.
847
solution 200739 1
1396 66082 1415 66111 5 1402 143314 1422 143630 19 1399 104097 1418 104668 25 1432 1401 103650 1420 104870 31 1406 172404 1426 173008 34 1429 1398 65704 1417 67130 35 1439 1405 172197 1425 173415 45 1431 1396 65914 1415 67539 48 1434 1400 103856 1419 105483 58 1435 1404 143225 1424 144854 74 1437 1403 143030 1423 145057 77 1395 1622 1412 3072 79 1438 1406 172403 1426 174640 89 145684 91 1429 1398 65712 1417 68966 95 145892 99 1439 1405 172205 1425 175251 108 69597 111 1436 1402 143241 1422 146282 121 1431 1396 65927 1415 69987 128 1433 1399 104065 1418 107116 142 1429 1398 65725 1417 70394 148 1432 1401 103670 1420 107522 155 1438 1406 172414 1426 176068 166 71032 167 1431 1397 65730 1416 71210 174 1428 1394 1660 1411 4503 180 1427 1395 1472 1412 4704 191 1434 1399 104080 1418 108544 204 177318 211 177528 214 1439 1405 172225 1425 177699 222 1435 1404 143244 1424 148730 232 1437 1402 143259 1422 148934 240 1432 1401 103678 1420 109358 246 1407 24791 1413 27756 249 1408 40911 1414 44892 259 1430 1398 65731 1417 73658 265 1434 1399 104093 1418 110176 271 1432 1400 103894 1419 110379 277 1433 1399 104099 1418 110584 287 1431 1396 65949 1415 74475 292 1428 1394 1677 1411 6339 299 1427 1395 1490 1412 6540 310 1429 1398 65749 1417 75086 319 1432 1400 103896 1419 111399 326 1431 1396 65956 1415 75495 333 7204 341 1409 135981 1421 138121 355 1433 1401 103697 1420 112214 365 1434 1400 103906 1419 112419 372 112681 383 1433 1399 104113 1418 112828 390 138586 398 1429 1398 65754 1417 77126 405 152033 414 1432 1400 103910 1419 113643 420 1433 1399 104118 1418 113848 427 1432 1401 103711 1420 114050 433 1434 1400 103916 1419 114255 438 1438 1406 172430 1426 181780 452 1439 1405 172258 1425 181983 460 1431 1396 65968 1415 78759 464 1435 1403 143081 1423 153217 472 1429 1398 65772 1417 79166 479 1431 1397 65775 1416 79370 488 1430 1396 65980 1415 79575 497 1436 1402 143294 1422 154034 512 1435 1403 143094 1423 154237 516 1428 1394 1699 1411 10419 518 1429 1398 65777 1417 80390 529 1433 1401 103713 1420 116090 536 80878 537 1427 1395 1520 1412 10620 540 1436 1402 143299 1422 155258 554 1434 1399 104134 1418 116704 562 31675 566 31925 571 32130 576 32335 581 184908 595 32540 596 82920 601 32746 604 1432 1401 103730 1420 118334 613 1428 1394 1728 1411 11439 614 83747 625 118837 632 1434 1399 104151 1418 118948 636 1435 1404 143305 1424 156482 646 1437 1402 143321 1422 156686 655 1438 1406 172484 1426 186064 661 1435 1403 143118 1423 157093 670 1431 1396 66002 1415 85083 676 1429 1398 65805 1417 85286 685 1431 1396 66010 1415 85491 691 1429 1398 65807 1417 85694 701 1436 1402 143324 1422 157706 711 1435 1403 143125 1423 157909 715 1427 1395 1537 1412 12864 717 13180 726 1431 1397 65808 1416 86714 739 1439 1405 172291 1425 187899 754 1436 1404 143330 1424 158930 763 1437 1403 143132 1423 159133 766 1430 1396 66018 1415 87531 770 1432 1401 103744 1420 122006 780 1436 1402 143337 1422 159542 787 1429 1398 65818 1417 88142 791 159865 800 1431 1397 65821 1416 88550 806 189440 819 1434 1399 104171 1418 123232 823 189857 837 1438 1406 172518 1426 189940 840 56360 843 123966 854 1430 1398 65823 1417 89978 858 1431 1397 65830 1416 90182 865 1432 1400 103977 1419 124455 875 190880 884 161907 891 191295 903 1430 1398 65831 1417 91202 906 1433 1399 104184 1418 125272 912 162534 924 1428 1394 1757 1411 16743 927 192115 948 92360 949 1432 1401 103784 1420 126086 956 1439 1405 172331 1425 192387 966 1427 1395 1582 1412 17352 968 1435 1403 143157 1423 163621 985 1436 1402 143368 1422 163826 995 193347 1006 1435 1404 143370 1424 164234 1015 1437 1403 143168 1423 164437 1025 193964 1037 194171 1047 194376 1055 194581 1065 1434 1399 104197 1418 128536 1069 1438 1406 172549 1426 194632 1073 194992 1076 1439 1405 172348 1425 195039 1086 195402 1096 60525 1099 1432 1401 103802 1420 129350 1111 60968 1114 1438 1406 172554 1426 195856 1124 1434 1399 104216 1418 129760 1128 61378 1132 196427 1150 1439 1405 172357 1425 196467 1160 1438 1406 172562 1426 196672 1171 1439 1405 172359 1425 196875 1179 197249 1187 1432 1401 103811 1420 131186 1192 197454 1202 1434 1399 104226 1418 131596 1206 197660 1217 63013 1220 1438 1406 172569 1426 197896 1230 198277 1241 63227 1243 63435 1252 63640 1261 199094 1270 1432 1401 103820 1420 133022 1275 199302 1278 64049 1281 1434 1399 104238 1418 133432 1292 64461 1296 199916 1314 64667 1316 200328 1333 200534 1344 1432 1401 103833 1420 134654 1349 200739 1352 1434 1399 104248 1418 134860 1359 1436 1404 143373 1424 171782 1371 1432 1401 103842 1420 135266 1378 65485 1385 40704 1389 28367 52437 132608 
[62.440] Exiting.
