Command : ./interpreter_t-rex_binary_haribo -P -b8192 -i f.cnf 
[0.000] This is T-REX interpreter, prototype version 04/2018.
[0.000] Reading problem encoding from file "f.cnf".
[0.014] Parsed head comment information.
[0.393] Processed problem encoding.
[0.461] Calculated possible fact changes of composite elements.
[0.503] Initialized instantiation procedure.
[0.503] 
[0.503] *************************************
[0.503] * * *   M a k e s p a n     0   * * *
[0.503] *************************************
[0.647] Instantiated 101,798 initial clauses.
[0.647] The encoding contains a total of 51,302 distinct variables.
[0.647] Attempting solve with solver <glucose4> ...
c 101 assumptions
[0.648] Executed solver; result: UNSAT.
[0.648] 
[0.648] *************************************
[0.648] * * *   M a k e s p a n     1   * * *
[0.648] *************************************
[0.919] Computed next depth properties: array size of 201.
[1.028] Instantiated 100,500 transitional clauses.
[1.555] Instantiated 454,696 universal clauses.
[1.555] Instantiated and added clauses for a total of 656,994 clauses.
[1.555] The encoding contains a total of 205,021 distinct variables.
[1.555] Attempting solve with solver <glucose4> ...
c 201 assumptions
[1.558] Executed solver; result: UNSAT.
[1.558] 
[1.558] *************************************
[1.558] * * *   M a k e s p a n     2   * * *
[1.558] *************************************
[2.088] Computed next depth properties: array size of 401.
[2.471] Instantiated 300,000 transitional clauses.
[3.543] Instantiated 2,505,196 universal clauses.
[3.543] Instantiated and added clauses for a total of 3,462,190 clauses.
[3.543] The encoding contains a total of 409,323 distinct variables.
[3.543] Attempting solve with solver <glucose4> ...
c 401 assumptions
c last restart ## conflicts  :  0 422 
[3.545] Executed solver; result: SAT.
[3.545] Solver returned SAT; a solution has been found at makespan 2.
400
solution 86197 1
22120 2 46284 46010 22513 3 20429 46011 861 4 46375 46012 1464 5 46885 46013 1537 6 67134 46014 23292 7 67358 46015 1944 8 24221 46016 2135 9 48183 46017 2246 10 67564 46018 2363 11 9586 46019 24854 12 48887 46020 3017 13 67818 46021 25106 14 49324 46022 25758 15 49912 46023 3604 16 68505 46024 26167 17 68857 46025 26240 18 69355 46026 26520 19 69800 46027 4566 20 50316 46028 5091 21 70272 46029 27034 22 70899 46030 27534 23 71249 46031 28129 24 71333 46032 28420 25 22615 46033 28878 26 51625 46034 6099 27 36483 46035 6524 28 51678 46036 29142 29 51969 46037 6968 30 72349 46038 29737 31 72546 46039 30025 32 73275 46040 30303 33 73637 46041 30829 34 7918 46042 31207 35 73944 46043 7747 36 74150 46044 31638 37 52920 46045 8558 38 53323 46046 32241 39 53674 46047 8944 40 9546 46048 32696 41 53891 46049 9534 42 54044 46050 9927 43 39941 46051 10574 44 39058 46052 11061 45 54114 46053 11468 46 54512 46054 11802 47 76090 46055 33233 48 76804 46056 33799 49 77008 46057 12325 50 54954 46058 12802 51 77583 46059 12963 52 55686 46060 34738 53 77802 46061 13365 54 78228 46062 35179 55 78647 46063 35647 56 74465 46064 31500 57 56598 46065 7243 58 25297 46066 13884 59 56910 46067 36349 60 79077 46068 36774 61 79436 46069 36983 62 58123 46070 14717 63 58314 46071 37573 64 80070 46072 14912 65 57864 46073 15234 66 74553 46074 15442 67 80334 46075 38681 68 80843 46076 39273 69 80958 46077 38858 70 980 46078 39414 71 51375 46079 15711 72 81156 46080 16289 73 59510 46081 16641 74 81529 46082 40081 75 229 46083 40403 76 81770 46084 40590 77 60312 46085 23035 78 60713 46086 18016 79 60877 46087 40840 80 61516 46088 18460 81 39208 46089 41463 82 61903 46090 19004 83 62190 46091 19302 84 40518 46092 41900 85 62713 46093 19748 86 82943 46094 1858 87 63290 46095 42673 88 83522 46096 42897 89 63800 46097 20205 90 83843 46098 43485 91 64471 46099 20649 92 84250 46100 20730 93 84356 46101 29841 94 63283 46102 21032 95 84724 46103 44680 96 85005 46104 44978 97 85424 46105 45289 98 85589 46106 21871 99 66137 46107 22068 100 85900 46108 39504 101 86197 46109 
[3.589] Exiting.
