
Compact plan:
0: (up f0 f9)
1: (board f9 p0)
2: (up f9 f358)
3: (depart f358 p0)
4: (down f358 f2)
5: (board f2 p1)
6: (up f2 f125)
7: (depart f125 p1)
8: (down f125 f24)
9: (board f24 p2)
10: (up f24 f164)
11: (depart f164 p2)
12: (down f164 f30)
13: (board f30 p3)
14: (up f30 f269)
15: (depart f269 p3)
16: (down f269 f118)
17: (board f118 p4)
18: (up f118 f231)
19: (depart f231 p4)
20: (down f231 f77)
21: (board f77 p5)
22: (up f77 f198)
23: (depart f198 p5)
24: (down f198 f42)
25: (board f42 p6)
26: (up f42 f384)
27: (depart f384 p6)
28: (down f384 f324)
29: (board f324 p7)
30: (up f324 f364)
31: (depart f364 p7)
32: (down f364 f46)
33: (board f46 p8)
34: (up f46 f120)
35: (depart f120 p8)
36: (down f120 f11)
37: (board f11 p9)
38: (up f11 f379)
39: (depart f379 p9)
40: (down f379 f257)
41: (board f257 p10)
42: (down f257 f13)
43: (depart f13 p10)
44: (up f13 f157)
45: (board f157 p11)
46: (up f157 f391)
47: (depart f391 p11)
48: (down f391 f122)
49: (board f122 p12)
50: (up f122 f329)
51: (depart f329 p12)
52: (down f329 f284)
53: (board f284 p13)
54: (up f284 f329)
55: (depart f329 p13)
56: (down f329 f229)
57: (board f229 p14)
58: (down f229 f51)
59: (depart f51 p14)
60: (up f51 f197)
61: (board f197 p15)
62: (down f197 f11)
63: (depart f11 p15)
64: (up f11 f250)
65: (board f250 p16)
66: (down f250 f30)
67: (depart f30 p16)
68: (up f30 f309)
69: (board f309 p17)
70: (down f309 f235)
71: (depart f235 p17)
72: (down f235 f201)
73: (board f201 p18)
74: (down f201 f8)
75: (depart f8 p18)
76: (up f8 f354)
77: (board f354 p19)
78: (up f354 f388)
79: (depart f388 p19)
80: (down f388 f268)
81: (board f268 p20)
82: (down f268 f31)
83: (depart f31 p20)
84: (up f31 f65)
85: (board f65 p21)
86: (up f65 f256)
87: (depart f256 p21)
88: (up f256 f274)
89: (board f274 p22)
90: (down f274 f249)
91: (depart f249 p22)
92: (down f249 f78)
93: (board f78 p23)
94: (down f78 f7)
95: (depart f7 p23)
96: (up f7 f335)
97: (board f335 p24)
98: (down f335 f141)
99: (depart f141 p24)
100: (up f141 f327)
101: (board f327 p25)
102: (down f327 f313)
103: (depart f313 p25)
104: (down f313 f48)
105: (board f48 p26)
106: (up f48 f239)
107: (depart f239 p26)
108: (down f239 f62)
109: (board f62 p27)
110: (up f62 f334)
111: (depart f334 p27)
112: (down f334 f98)
113: (board f98 p28)
114: (up f98 f268)
115: (depart f268 p28)
116: (down f268 f82)
117: (board f82 p29)
118: (up f82 f296)
119: (depart f296 p29)
120: (down f296 f136)
121: (board f136 p30)
122: (down f136 f116)
123: (depart f116 p30)
124: (down f116 f107)
125: (board f107 p31)
126: (down f107 f39)
127: (depart f39 p31)
128: (up f39 f232)
129: (board f232 p32)
130: (up f232 f304)
131: (depart f304 p32)
132: (up f304 f316)
133: (board f316 p33)
134: (down f316 f258)
135: (depart f258 p33)
136: (down f258 f48)
137: (board f48 p34)
138: (up f48 f72)
139: (depart f72 p34)
140: (up f72 f213)
141: (board f213 p35)
142: (down f213 f112)
143: (depart f112 p35)
144: (up f112 f231)
145: (board f231 p36)
146: (up f231 f262)
147: (depart f262 p36)
148: (up f262 f340)
149: (board f340 p37)
150: (down f340 f147)
151: (depart f147 p37)
152: (up f147 f224)
153: (board f224 p38)
154: (up f224 f315)
155: (depart f315 p38)
156: (down f315 f277)
157: (board f277 p39)
158: (up f277 f340)
159: (depart f340 p39)
160: (down f340 f90)
161: (board f90 p40)
162: (up f90 f375)
163: (depart f375 p40)
164: (down f375 f123)
165: (board f123 p41)
166: (up f123 f145)
167: (depart f145 p41)
168: (up f145 f379)
169: (board f379 p42)
170: (down f379 f23)
171: (depart f23 p42)
172: (up f23 f88)
173: (board f88 p43)
174: (up f88 f367)
175: (depart f367 p43)
176: (down f367 f168)
177: (board f168 p44)
178: (down f168 f160)
179: (depart f160 p44)
180: (up f160 f233)
181: (board f233 p45)
182: (up f233 f272)
183: (depart f272 p45)
184: (down f272 f261)
185: (board f261 p46)
186: (down f261 f222)
187: (depart f222 p46)
188: (up f222 f285)
189: (board f285 p47)
190: (down f285 f232)
191: (depart f232 p47)
192: (down f232 f37)
193: (board f37 p48)
194: (up f37 f79)
195: (depart f79 p48)
196: (up f79 f256)
197: (board f256 p49)
198: (down f256 f188)
199: (depart f188 p49)
200: (down f188 f36)
201: (board f36 p50)
202: (up f36 f59)
203: (depart f59 p50)
204: (up f59 f397)
205: (board f397 p51)
206: (down f397 f176)
207: (depart f176 p51)
208: (up f176 f286)
209: (board f286 p52)
210: (down f286 f47)
211: (depart f47 p52)
212: (up f47 f279)
213: (board f279 p53)
214: (up f279 f343)
215: (depart f343 p53)
216: (down f343 f124)
217: (board f124 p54)
218: (up f124 f304)
219: (depart f304 p54)
220: (down f304 f52)
221: (board f52 p55)
222: (up f52 f254)
223: (depart f254 p55)
224: (up f254 f360)
225: (board f360 p56)
226: (down f360 f325)
227: (depart f325 p56)
228: (down f325 f233)
229: (board f233 p57)
230: (up f233 f267)
231: (depart f267 p57)
232: (down f267 f89)
233: (board f89 p58)
234: (up f89 f199)
235: (depart f199 p58)
236: (down f199 f176)
237: (board f176 p59)
238: (down f176 f34)
239: (depart f34 p59)
240: (up f34 f114)
241: (board f114 p60)
242: (down f114 f72)
243: (depart f72 p60)
244: (up f72 f127)
245: (board f127 p61)
246: (up f127 f255)
247: (depart f255 p61)
248: (down f255 f140)
249: (board f140 p62)
250: (down f140 f35)
251: (depart f35 p62)
252: (up f35 f64)
253: (board f64 p63)
254: (up f64 f192)
255: (depart f192 p63)
256: (down f192 f52)
257: (board f52 p64)
258: (down f52 f21)
259: (depart f21 p64)
260: (up f21 f314)
261: (board f314 p65)
262: (down f314 f183)
263: (depart f183 p65)
264: (down f183 f166)
265: (board f166 p66)
266: (up f166 f398)
267: (depart f398 p66)
268: (down f398 f94)
269: (board f94 p67)
270: (down f94 f58)
271: (depart f58 p67)
272: (up f58 f269)
273: (board f269 p68)
274: (down f269 f259)
275: (depart f259 p68)
276: (up f259 f397)
277: (board f397 p69)
278: (down f397 f372)
279: (depart f372 p69)
280: (down f372 f131)
281: (board f131 p70)
282: (up f131 f344)
283: (depart f344 p70)
284: (down f344 f320)
285: (board f320 p71)
286: (up f320 f335)
287: (depart f335 p71)
288: (up f335 f376)
289: (board f376 p72)
290: (down f376 f263)
291: (depart f263 p72)
292: (up f263 f360)
293: (board f360 p73)
294: (down f360 f265)
295: (depart f265 p73)
296: (up f265 f293)
297: (board f293 p74)
298: (down f293 f200)
299: (depart f200 p74)


