Barman2 01 T-REX -i {-P,-b8192}
Barman2 02 T-REX -i {-P,-b8192}
Barman2 03 T-REX -i {-P,-b8192}
Barman2 04 T-REX -i {-P,-b8192}
Barman2 05 T-REX -i {-P,-b8192}
Barman2 06 T-REX -i {-P,-b8192}
Barman2 07 T-REX -i {-P,-b8192}
Barman2 08 T-REX -i {-P,-b8192}
Barman2 09 T-REX -i {-P,-b8192}
Barman2 10 T-REX -i {-P,-b8192}
Barman2 11 T-REX -i {-P,-b8192}
Barman2 12 T-REX -i {-P,-b8192}
Barman2 13 T-REX -i {-P,-b8192}
Barman2 14 T-REX -i {-P,-b8192}
Barman2 15 T-REX -i {-P,-b8192}
Barman2 16 T-REX -i {-P,-b8192}
Barman2 17 T-REX -i {-P,-b8192}
Barman2 18 T-REX -i {-P,-b8192}
Barman2 19 T-REX -i {-P,-b8192}
Barman2 20 T-REX -i {-P,-b8192}
