Parking 01 T-REX -i {-P,-b8192,-e}
Parking 02 T-REX -i {-P,-b8192,-e}
Parking 03 T-REX -i {-P,-b8192,-e}
Parking 04 T-REX -i {-P,-b8192,-e}
Parking 05 T-REX -i {-P,-b8192,-e}
Parking 06 T-REX -i {-P,-b8192,-e}
Parking 07 T-REX -i {-P,-b8192,-e}
Parking 08 T-REX -i {-P,-b8192,-e}
Parking 09 T-REX -i {-P,-b8192,-e}
Parking 10 T-REX -i {-P,-b8192,-e}
Parking 11 T-REX -i {-P,-b8192,-e}
Parking 12 T-REX -i {-P,-b8192,-e}
Parking 13 T-REX -i {-P,-b8192,-e}
Parking 14 T-REX -i {-P,-b8192,-e}
Parking 15 T-REX -i {-P,-b8192,-e}
Parking 16 T-REX -i {-P,-b8192,-e}
Parking 17 T-REX -i {-P,-b8192,-e}
Parking 18 T-REX -i {-P,-b8192,-e}
Parking 19 T-REX -i {-P,-b8192,-e}
Parking 20 T-REX -i {-P,-b8192,-e}
