
Compact plan:
0: (up f0 f21)
1: (board f21 p0)
2: (up f21 f34)
3: (depart f34 p0)
4: (down f34 f3)
5: (board f3 p1)
6: (up f3 f29)
7: (depart f29 p1)
8: (down f29 f27)
9: (board f27 p2)
10: (down f27 f10)
11: (depart f10 p2)
12: (up f10 f30)
13: (board f30 p3)
14: (down f30 f21)
15: (depart f21 p3)
16: (down f21 f7)
17: (board f7 p4)
18: (up f7 f20)
19: (depart f20 p4)
20: (down f20 f9)
21: (board f9 p5)
22: (up f9 f20)
23: (depart f20 p5)
24: (up f20 f29)
25: (board f29 p6)
26: (down f29 f1)
27: (depart f1 p6)
28: (up f1 f10)
29: (board f10 p7)
30: (up f10 f26)
31: (depart f26 p7)
32: (up f26 f36)
33: (board f36 p8)
34: (down f36 f24)
35: (depart f24 p8)
36: (up f24 f28)
37: (board f28 p9)
38: (up f28 f29)
39: (depart f29 p9)
40: (up f29 f34)
41: (board f34 p10)
42: (down f34 f27)
43: (depart f27 p10)
44: (up f27 f31)
45: (board f31 p11)
46: (down f31 f26)
47: (depart f26 p11)
48: (down f26 f12)
49: (board f12 p12)
50: (down f12 f6)
51: (depart f6 p12)
52: (up f6 f7)
53: (board f7 p13)
54: (down f7 f5)
55: (depart f5 p13)
56: (down f5 f1)
57: (board f1 p14)
58: (up f1 f25)
59: (depart f25 p14)
60: (down f25 f4)
61: (board f4 p15)
62: (up f4 f36)
63: (depart f36 p15)
64: (down f36 f6)
65: (board f6 p16)
66: (up f6 f23)
67: (depart f23 p16)
68: (down f23 f5)
69: (board f5 p17)
70: (up f5 f33)
71: (depart f33 p17)
72: (up f33 f34)
73: (board f34 p18)
74: (down f34 f13)
75: (depart f13 p18)


