
Compact plan:
0: (up f0 f1)
1: (board f1 p0)
2: (up f1 f15)
3: (depart f15 p0)
4: (down f15 f14)
5: (board f14 p1)
6: (down f14 f3)
7: (depart f3 p1)
8: (board f3 p2)
9: (up f3 f12)
10: (depart f12 p2)
11: (down f12 f5)
12: (board f5 p3)
13: (down f5 f0)
14: (depart f0 p3)
15: (up f0 f3)
16: (board f3 p4)
17: (up f3 f8)
18: (depart f8 p4)
19: (down f8 f7)
20: (board f7 p5)
21: (down f7 f6)
22: (depart f6 p5)
23: (down f6 f0)
24: (board f0 p6)
25: (up f0 f14)
26: (depart f14 p6)
27: (down f14 f10)
28: (board f10 p7)
29: (up f10 f11)
30: (depart f11 p7)


