
Compact plan:
0: (up f0 f15)
1: (board f15 p0)
2: (down f15 f13)
3: (depart f13 p0)
4: (up f13 f44)
5: (board f44 p1)
6: (down f44 f31)
7: (depart f31 p1)
8: (board f31 p2)
9: (up f31 f34)
10: (depart f34 p2)
11: (down f34 f21)
12: (board f21 p3)
13: (down f21 f14)
14: (depart f14 p3)
15: (up f14 f29)
16: (board f29 p4)
17: (down f29 f14)
18: (depart f14 p4)
19: (up f14 f39)
20: (board f39 p5)
21: (down f39 f34)
22: (depart f34 p5)
23: (down f34 f18)
24: (board f18 p6)
25: (down f18 f14)
26: (depart f14 p6)
27: (board f14 p7)
28: (up f14 f21)
29: (depart f21 p7)
30: (up f21 f22)
31: (board f22 p8)
32: (up f22 f45)
33: (depart f45 p8)
34: (down f45 f20)
35: (board f20 p9)
36: (down f20 f14)
37: (depart f14 p9)
38: (down f14 f10)
39: (board f10 p10)
40: (up f10 f39)
41: (depart f39 p10)
42: (down f39 f38)
43: (board f38 p11)
44: (down f38 f9)
45: (depart f9 p11)
46: (up f9 f14)
47: (board f14 p12)
48: (up f14 f22)
49: (depart f22 p12)
50: (up f22 f40)
51: (board f40 p13)
52: (down f40 f28)
53: (depart f28 p13)
54: (down f28 f9)
55: (board f9 p14)
56: (up f9 f27)
57: (depart f27 p14)
58: (up f27 f29)
59: (board f29 p15)
60: (down f29 f24)
61: (depart f24 p15)
62: (up f24 f40)
63: (board f40 p16)
64: (down f40 f21)
65: (depart f21 p16)
66: (down f21 f4)
67: (board f4 p17)
68: (up f4 f20)
69: (depart f20 p17)
70: (down f20 f9)
71: (board f9 p18)
72: (up f9 f25)
73: (depart f25 p18)
74: (up f25 f28)
75: (board f28 p19)
76: (up f28 f39)
77: (depart f39 p19)
78: (board f39 p20)
79: (down f39 f22)
80: (depart f22 p20)
81: (up f22 f27)
82: (board f27 p21)
83: (down f27 f5)
84: (depart f5 p21)
85: (up f5 f30)
86: (board f30 p22)
87: (up f30 f36)
88: (depart f36 p22)


