
Compact plan:
0: (up f0 f3)
1: (board f3 p0)
2: (up f3 f6)
3: (depart f6 p0)
4: (down f6 f2)
5: (board f2 p1)
6: (down f2 f0)
7: (depart f0 p1)
8: (up f0 f6)
9: (board f6 p2)
10: (up f6 f10)
11: (depart f10 p2)
12: (up f10 f11)
13: (board f11 p3)
14: (down f11 f9)
15: (depart f9 p3)
16: (board f9 p4)
17: (down f9 f8)
18: (depart f8 p4)
19: (down f8 f2)
20: (board f2 p5)
21: (down f2 f1)
22: (depart f1 p5)


