
Compact plan:
0: (up f0 f30)
1: (board f30 p0)
2: (down f30 f7)
3: (depart f7 p0)
4: (up f7 f19)
5: (board f19 p1)
6: (down f19 f14)
7: (depart f14 p1)
8: (down f14 f0)
9: (board f0 p2)
10: (up f0 f3)
11: (depart f3 p2)
12: (up f3 f17)
13: (board f17 p3)
14: (down f17 f8)
15: (depart f8 p3)
16: (up f8 f25)
17: (board f25 p4)
18: (down f25 f5)
19: (depart f5 p4)
20: (down f5 f4)
21: (board f4 p5)
22: (up f4 f28)
23: (depart f28 p5)
24: (down f28 f3)
25: (board f3 p6)
26: (up f3 f31)
27: (depart f31 p6)
28: (down f31 f16)
29: (board f16 p7)
30: (up f16 f25)
31: (depart f25 p7)
32: (down f25 f4)
33: (board f4 p8)
34: (up f4 f14)
35: (depart f14 p8)
36: (down f14 f10)
37: (board f10 p9)
38: (up f10 f31)
39: (depart f31 p9)
40: (down f31 f8)
41: (board f8 p10)
42: (up f8 f31)
43: (depart f31 p10)
44: (down f31 f8)
45: (board f8 p11)
46: (up f8 f23)
47: (depart f23 p11)
48: (down f23 f10)
49: (board f10 p12)
50: (up f10 f15)
51: (depart f15 p12)
52: (up f15 f33)
53: (board f33 p13)
54: (down f33 f3)
55: (depart f3 p13)
56: (up f3 f25)
57: (board f25 p14)
58: (up f25 f26)
59: (depart f26 p14)
60: (down f26 f18)
61: (board f18 p15)
62: (up f18 f22)
63: (depart f22 p15)
64: (down f22 f7)
65: (board f7 p16)
66: (down f7 f3)
67: (depart f3 p16)


