
Compact plan:
0: (up f0 f45)
1: (board f45 p0)
2: (down f45 f11)
3: (depart f11 p0)
4: (up f11 f22)
5: (board f22 p1)
6: (up f22 f42)
7: (depart f42 p1)
8: (down f42 f20)
9: (board f20 p2)
10: (up f20 f22)
11: (depart f22 p2)
12: (up f22 f38)
13: (board f38 p3)
14: (down f38 f27)
15: (depart f27 p3)
16: (down f27 f25)
17: (board f25 p4)
18: (down f25 f19)
19: (depart f19 p4)
20: (up f19 f24)
21: (board f24 p5)
22: (down f24 f10)
23: (depart f10 p5)
24: (up f10 f29)
25: (board f29 p6)
26: (up f29 f32)
27: (depart f32 p6)
28: (down f32 f19)
29: (board f19 p7)
30: (up f19 f28)
31: (depart f28 p7)
32: (down f28 f13)
33: (board f13 p8)
34: (down f13 f0)
35: (depart f0 p8)
36: (up f0 f13)
37: (board f13 p9)
38: (up f13 f43)
39: (depart f43 p9)
40: (down f43 f39)
41: (board f39 p10)
42: (down f39 f28)
43: (depart f28 p10)
44: (down f28 f3)
45: (board f3 p11)
46: (up f3 f18)
47: (depart f18 p11)
48: (down f18 f12)
49: (board f12 p12)
50: (up f12 f27)
51: (depart f27 p12)
52: (up f27 f40)
53: (board f40 p13)
54: (down f40 f27)
55: (depart f27 p13)
56: (up f27 f49)
57: (board f49 p14)
58: (down f49 f38)
59: (depart f38 p14)
60: (down f38 f30)
61: (board f30 p15)
62: (up f30 f47)
63: (depart f47 p15)
64: (up f47 f49)
65: (board f49 p16)
66: (down f49 f2)
67: (depart f2 p16)
68: (up f2 f39)
69: (board f39 p17)
70: (down f39 f21)
71: (depart f21 p17)
72: (up f21 f27)
73: (board f27 p18)
74: (up f27 f30)
75: (depart f30 p18)
76: (down f30 f0)
77: (board f0 p19)
78: (up f0 f2)
79: (depart f2 p19)
80: (down f2 f1)
81: (board f1 p20)
82: (up f1 f24)
83: (depart f24 p20)
84: (down f24 f14)
85: (board f14 p21)
86: (up f14 f30)
87: (depart f30 p21)
88: (down f30 f8)
89: (board f8 p22)
90: (up f8 f33)
91: (depart f33 p22)
92: (down f33 f10)
93: (board f10 p23)
94: (up f10 f23)
95: (depart f23 p23)
96: (up f23 f34)
97: (board f34 p24)
98: (down f34 f25)
99: (depart f25 p24)


