
Compact plan:
0: (up f0 f8)
1: (board f8 p0)
2: (down f8 f5)
3: (depart f5 p0)
4: (up f5 f23)
5: (board f23 p1)
6: (down f23 f20)
7: (depart f20 p1)
8: (down f20 f16)
9: (board f16 p2)
10: (down f16 f7)
11: (depart f7 p2)
12: (down f7 f1)
13: (board f1 p3)
14: (up f1 f22)
15: (depart f22 p3)
16: (down f22 f13)
17: (board f13 p4)
18: (up f13 f19)
19: (depart f19 p4)
20: (down f19 f12)
21: (board f12 p5)
22: (down f12 f4)
23: (depart f4 p5)
24: (up f4 f5)
25: (board f5 p6)
26: (up f5 f11)
27: (depart f11 p6)
28: (up f11 f18)
29: (board f18 p7)
30: (down f18 f13)
31: (depart f13 p7)
32: (down f13 f4)
33: (board f4 p8)
34: (up f4 f18)
35: (depart f18 p8)
36: (down f18 f6)
37: (board f6 p9)
38: (up f6 f15)
39: (depart f15 p9)
40: (up f15 f22)
41: (board f22 p10)
42: (down f22 f5)
43: (depart f5 p10)
44: (down f5 f4)
45: (board f4 p11)
46: (up f4 f23)
47: (depart f23 p11)


