
Compact plan:
0: (up f0 f1)
1: (board f1 p0)
2: (up f1 f7)
3: (depart f7 p0)
4: (down f7 f6)
5: (board f6 p1)
6: (down f6 f3)
7: (depart f3 p1)
8: (board f3 p2)
9: (up f3 f4)
10: (depart f4 p2)
11: (up f4 f5)
12: (board f5 p3)
13: (down f5 f0)
14: (depart f0 p3)


