
Compact plan:
0: (up f0 f30)
1: (board f30 p0)
2: (up f30 f37)
3: (depart f37 p0)
4: (down f37 f35)
5: (board f35 p1)
6: (down f35 f28)
7: (depart f28 p1)
8: (down f28 f18)
9: (board f18 p2)
10: (up f18 f31)
11: (depart f31 p2)
12: (down f31 f13)
13: (board f13 p3)
14: (up f13 f14)
15: (depart f14 p3)
16: (up f14 f21)
17: (board f21 p4)
18: (up f21 f33)
19: (depart f33 p4)
20: (up f33 f36)
21: (board f36 p5)
22: (down f36 f30)
23: (depart f30 p5)
24: (up f30 f37)
25: (board f37 p6)
26: (down f37 f15)
27: (depart f15 p6)
28: (down f15 f12)
29: (board f12 p7)
30: (up f12 f25)
31: (depart f25 p7)
32: (down f25 f14)
33: (board f14 p8)
34: (down f14 f8)
35: (depart f8 p8)
36: (down f8 f2)
37: (board f2 p9)
38: (up f2 f29)
39: (depart f29 p9)
40: (down f29 f28)
41: (board f28 p10)
42: (down f28 f9)
43: (depart f9 p10)
44: (up f9 f16)
45: (board f16 p11)
46: (down f16 f5)
47: (depart f5 p11)
48: (up f5 f20)
49: (board f20 p12)
50: (up f20 f29)
51: (depart f29 p12)
52: (up f29 f35)
53: (board f35 p13)
54: (down f35 f13)
55: (depart f13 p13)
56: (down f13 f3)
57: (board f3 p14)
58: (up f3 f32)
59: (depart f32 p14)
60: (down f32 f22)
61: (board f22 p15)
62: (up f22 f34)
63: (depart f34 p15)
64: (down f34 f9)
65: (board f9 p16)
66: (up f9 f19)
67: (depart f19 p16)
68: (down f19 f2)
69: (board f2 p17)
70: (up f2 f27)
71: (depart f27 p17)
72: (down f27 f12)
73: (board f12 p18)
74: (up f12 f32)
75: (depart f32 p18)


