
Compact plan:
0: (up f0 f13)
1: (board f13 p0)
2: (up f13 f16)
3: (depart f16 p0)
4: (up f16 f27)
5: (board f27 p1)
6: (down f27 f25)
7: (depart f25 p1)
8: (down f25 f23)
9: (board f23 p2)
10: (up f23 f25)
11: (depart f25 p2)
12: (down f25 f16)
13: (board f16 p3)
14: (down f16 f12)
15: (depart f12 p3)
16: (down f12 f9)
17: (board f9 p4)
18: (down f9 f1)
19: (depart f1 p4)
20: (up f1 f2)
21: (board f2 p5)
22: (up f2 f7)
23: (depart f7 p5)
24: (up f7 f20)
25: (board f20 p6)
26: (down f20 f19)
27: (depart f19 p6)
28: (up f19 f23)
29: (board f23 p7)
30: (down f23 f16)
31: (depart f16 p7)
32: (down f16 f0)
33: (board f0 p8)
34: (up f0 f6)
35: (depart f6 p8)
36: (up f6 f22)
37: (board f22 p9)
38: (down f22 f16)
39: (depart f16 p9)
40: (down f16 f11)
41: (board f11 p10)
42: (down f11 f8)
43: (depart f8 p10)
44: (up f8 f27)
45: (board f27 p11)
46: (down f27 f9)
47: (depart f9 p11)
48: (down f9 f2)
49: (board f2 p12)
50: (up f2 f20)
51: (depart f20 p12)
52: (down f20 f2)
53: (board f2 p13)
54: (up f2 f13)
55: (depart f13 p13)
56: (down f13 f7)
57: (board f7 p14)
58: (up f7 f25)
59: (depart f25 p14)


