
Compact plan:
0: (board f0 p8)
1: (up f0 f27)
2: (board f27 p11)
3: (board f27 p1)
4: (down f27 f2)
5: (board f2 p13)
6: (board f2 p5)
7: (board f2 p12)
8: (up f2 f9)
9: (depart f9 p11)
10: (board f9 p4)
11: (up f9 f23)
12: (board f23 p2)
13: (board f23 p7)
14: (down f23 f22)
15: (board f22 p9)
16: (down f22 f13)
17: (depart f13 p13)
18: (board f13 p0)
19: (up f13 f16)
20: (depart f16 p0)
21: (depart f16 p9)
22: (up f16 f20)
23: (board f20 p6)
24: (depart f20 p12)
25: (down f20 f11)
26: (board f11 p10)
27: (down f11 f7)
28: (down f7 f6)
29: (depart f6 p8)
30: (up f6 f16)
31: (board f16 p3)
32: (depart f16 p7)
33: (up f16 f19)
34: (depart f19 p6)
35: (down f19 f12)
36: (depart f12 p3)
37: (down f12 f7)
38: (board f7 p14)
39: (depart f7 p5)
40: (up f7 f25)
41: (depart f25 p2)
42: (depart f25 p1)
43: (depart f25 p14)
44: (down f25 f1)
45: (depart f1 p4)
46: (up f1 f8)
47: (depart f8 p10)


