
Compact plan:
0: (up f0 f21)
1: (board f21 p0)
2: (down f21 f19)
3: (depart f19 p0)
4: (down f19 f14)
5: (board f14 p1)
6: (up f14 f27)
7: (depart f27 p1)
8: (down f27 f23)
9: (board f23 p2)
10: (down f23 f20)
11: (depart f20 p2)
12: (up f20 f21)
13: (board f21 p3)
14: (down f21 f16)
15: (depart f16 p3)
16: (up f16 f27)
17: (board f27 p4)
18: (down f27 f12)
19: (depart f12 p4)
20: (up f12 f19)
21: (board f19 p5)
22: (up f19 f26)
23: (depart f26 p5)
24: (down f26 f0)
25: (board f0 p6)
26: (up f0 f22)
27: (depart f22 p6)
28: (board f22 p7)
29: (down f22 f15)
30: (depart f15 p7)
31: (up f15 f20)
32: (board f20 p8)
33: (down f20 f15)
34: (depart f15 p8)
35: (up f15 f18)
36: (board f18 p9)
37: (down f18 f16)
38: (depart f16 p9)
39: (down f16 f8)
40: (board f8 p10)
41: (up f8 f21)
42: (depart f21 p10)
43: (down f21 f8)
44: (board f8 p11)
45: (up f8 f27)
46: (depart f27 p11)
47: (down f27 f12)
48: (board f12 p12)
49: (down f12 f10)
50: (depart f10 p12)
51: (up f10 f18)
52: (board f18 p13)
53: (down f18 f14)
54: (depart f14 p13)


