Gripper2 01 T-REX -i {-P,-b8192}
Gripper2 02 T-REX -i {-P,-b8192}
Gripper2 03 T-REX -i {-P,-b8192}
Gripper2 04 T-REX -i {-P,-b8192}
Gripper2 05 T-REX -i {-P,-b8192}
Gripper2 06 T-REX -i {-P,-b8192}
Gripper2 07 T-REX -i {-P,-b8192}
Gripper2 08 T-REX -i {-P,-b8192}
Gripper2 09 T-REX -i {-P,-b8192}
Gripper2 10 T-REX -i {-P,-b8192}
Gripper2 11 T-REX -i {-P,-b8192}
Gripper2 12 T-REX -i {-P,-b8192}
Gripper2 13 T-REX -i {-P,-b8192}
Gripper2 14 T-REX -i {-P,-b8192}
Gripper2 15 T-REX -i {-P,-b8192}
Gripper2 16 T-REX -i {-P,-b8192}
Gripper2 17 T-REX -i {-P,-b8192}
Gripper2 18 T-REX -i {-P,-b8192}
Gripper2 19 T-REX -i {-P,-b8192}
Gripper2 20 T-REX -i {-P,-b8192}
