htn_pb01      854     2517     2324     2100     0,58     0,00    0,03     0,62     0,00     0,00      100   174     87930      18270      18270 
htn_pb02      920     2577     2624     2130     0,75     0,00    0,03     0,79     0,00     0,00       94   163    139680      22260      22260 
htn_pb03      974     2808     2794     2272     0,80     0,00    0,04     0,84     0,00     0,00      120   210    148992      23744      23744 
htn_pb04      724     2055     1940     1664     0,51     0,00    0,04     0,55     0,00     0,00       90   157     69316      14404      14404 
htn_pb05      854     2517     2324     2100     0,58     0,00    0,03     0,61     0,00     0,00      106   185     87930      18270      18270 
htn_pb06      920     2697     2624     2130     0,73     0,00    0,04     0,77     0,00     0,00      112   196    139680      22260      22260 
htn_pb07      974     2808     2794     2272     0,80     0,00    0,04     0,84     0,00     0,00      114   199    148992      23744      23744 
htn_pb08     1028     2911     2964     2414     0,81     0,00    0,04     0,85     0,00     0,00      110   191    158304      25228      25228 
htn_pb09      724     2003     1940     1664     0,48     0,00    0,03     0,51     0,00     0,00       90   157     69316      14404      14404 
htn_pb10      854     2517     2324     2100     0,57     0,00    0,04     0,60     0,00     0,00      106   185     87930      18270      18270 
htn_pb11      920     2637     2624     2130     0,76     0,00    0,03     0,80     0,00     0,00       94   163    139680      22260      22260 
htn_pb12      974     2872     2794     2272     0,80     0,00    0,04     0,84     0,00     0,00      120   210    148992      23744      23744 
htn_pb13     1028     3047     2964     2414     0,85     0,00    0,04     0,89     0,00     0,00      122   213    158304      25228      25228 
htn_pb14      804     2298     2174     1960     0,55     0,00    0,03     0,58     0,00     0,00       98   171     82068      17052      17052 
htn_pb15      854     2517     2324     2100     0,58     0,00    0,04     0,62     0,00     0,00      100   174     87930      18270      18270 
htn_pb16      920     2697     2624     2130     0,80     0,00    0,04     0,83     0,00     0,00      106   185    139680      22260      22260 
htn_pb17      724     2055     1940     1664     0,52     0,00    0,03     0,56     0,00     0,00       90   157     69316      14404      14404 
htn_pb18      854     2517     2324     2100     0,63     0,00    0,04     0,67     0,00     0,00      100   174     87930      18270      18270 
htn_pb19      920     2697     2624     2130     0,79     0,00    0,03     0,82     0,00     0,00      100   174    139680      22260      22260 
htn_pb20      974     2744     2794     2272     0,78     0,00    0,04     0,81     0,00     0,00      114   199    148992      23744      23744 
