 pb01       58       79       54       80     0,03     0,00    0,01     0,04     0,00     0,00       23     9       100        100        100 
 pb02      102      153      104      174     0,04     0,00    0,01     0,05     0,00     0,00       54    13       196        196        196 
 pb03      134      317      190      416     0,06     0,00    0,01     0,07     0,00     0,00       48    11       784        608        608 
 pb04      470     3070     1786     4208     0,20     0,00    0,03     0,23     0,00     0,00      160    32     19320       9460       9460 
 pb05      640     5259     3557     6820     0,29     0,00    0,07     0,36     0,00     0,00      680    67     25725      13825      13825 
 pb06      706     6661     4313     8821     0,34     0,00    0,04     0,38     0,00     0,00      297    47     39894      18994      18994 
 pb07      988    14040     7196    20676     0,80     0,00    0,06     0,86     0,00     0,00      310    55    184960      54235      54235 
 pb08      658     5756     3591     7991     0,31     0,00    0,04     0,35     0,00     0,00      228    38     37380      17230      17230 
 pb09     1014     9128     4439    17053     0,70     0,00    0,15     0,85     0,00     0,00     1794   130    155665      55665      55665 
 pb10     1040    18366    14819    21588     0,53     0,00    0,09     0,62     0,00     0,00      483    94     56545      31211      31211 
 pb11     1730    48850    39394    57878     1,20     0,00    0,25     1,45     0,00     0,00      615   139    198478      86058      86058 
 pb12     2084    60689    46534    74940     1,80     0,00    0,28     2,08     0,00     0,00      714   138    363808     131004     131004 
 pb13     3342   143543   114419   173013     4,51     0,00    0,55     5,06     0,00     0,00     1360   200    891930     294060     294060 
 pb14     5506   303944   239470   367402     7,51     0,00    0,94     8,45     0,00     0,00     1325   231   2502180     709680     709680 
 pb15     6760   446323   368992   521775    10,95     0,00    2,15    13,10     0,00     0,00     8270   359   3011775     929815     929815 
 pb16     8860   740796   638667   840600    20,39     0,00   10,69    31,08     0,00     0,00     2817   373   4136775    1383215    1383215 
 pb17    10990  1136660   989252  1284520    47,35     0,00   62,39   109,74     0,00     0,00    35071   634   6733050    2070630    2070630 
 pb18     4172   221601   211788   229854     4,47     0,00    6,58    11,05     0,00     0,00    10899   378    317820     270260     270260 
 pb19     5878   373680   342195   404215     6,57     0,00   16,27    22,84     0,00     0,00    20810   548    966216     554166     554166 
 pb20     6748   482452   428111   536761     9,24     0,00    4,45    13,69     0,00     0,00     2520   366   1882360     810005     810005 
