Command : ./interpreter_t-rex_binary_haribo -P -b8192 -i f.cnf 
[0.000] This is T-REX interpreter, prototype version 04/2018.
[0.000] Reading problem encoding from file "f.cnf".
[0.001] Parsed head comment information.
[0.016] Processed problem encoding.
[0.017] Calculated possible fact changes of composite elements.
[0.018] Initialized instantiation procedure.
[0.018] 
[0.018] *************************************
[0.018] * * *   M a k e s p a n     0   * * *
[0.018] *************************************
[0.022] Instantiated 4,376 initial clauses.
[0.022] The encoding contains a total of 2,539 distinct variables.
[0.022] Attempting solve with solver <glucose4> ...
c 55 assumptions
[0.023] Executed solver; result: UNSAT.
[0.023] 
[0.023] *************************************
[0.023] * * *   M a k e s p a n     1   * * *
[0.023] *************************************
[0.029] Computed next depth properties: array size of 208.
[0.031] Instantiated 1,008 transitional clauses.
[0.042] Instantiated 8,826 universal clauses.
[0.042] Instantiated and added clauses for a total of 14,210 clauses.
[0.042] The encoding contains a total of 6,791 distinct variables.
[0.042] Attempting solve with solver <glucose4> ...
c 208 assumptions
[0.042] Executed solver; result: UNSAT.
[0.042] 
[0.042] *************************************
[0.042] * * *   M a k e s p a n     2   * * *
[0.042] *************************************
[0.059] Computed next depth properties: array size of 658.
[0.064] Instantiated 3,060 transitional clauses.
[0.092] Instantiated 37,212 universal clauses.
[0.092] Instantiated and added clauses for a total of 54,482 clauses.
[0.092] The encoding contains a total of 15,955 distinct variables.
[0.092] Attempting solve with solver <glucose4> ...
c 658 assumptions
c last restart ## conflicts  :  43 762 
[0.106] Executed solver; result: SAT.
[0.106] Solver returned SAT; a solution has been found at makespan 2.
657
solution 1230 1
2 112 418 419 114 773 416 110 956 1134 1135 1136 958 959 5 121 427 428 119 779 431 117 961 1036 1145 1037 963 964 7 127 435 436 124 783 439 125 961 1092 1147 1093 963 964 8 130 440 441 132 785 446 128 956 1042 1148 1043 958 959 10 136 450 451 138 789 448 134 956 1054 1150 1055 958 959 12 142 456 457 144 793 462 140 956 1050 1152 1051 958 959 14 148 464 465 150 797 470 146 956 1006 1154 1007 958 959 16 154 472 473 156 801 478 152 956 982 1156 983 958 959 18 160 480 481 162 805 486 158 956 1078 1158 1079 958 959 20 168 488 489 166 809 494 164 956 986 1160 987 958 959 22 172 496 497 174 813 502 170 956 998 1162 999 958 959 24 180 504 505 178 817 510 176 956 1126 1164 1127 958 959 27 185 517 518 187 823 513 183 961 1072 1167 1073 963 964 29 191 523 524 193 827 527 189 961 1088 1169 1089 963 964 30 194 530 531 198 829 528 195 956 1118 1170 1119 958 959 32 202 538 539 204 833 536 200 956 1030 1172 1031 958 959 34 208 544 545 210 838 837 206 956 1058 1174 1059 958 959 36 214 550 551 216 843 556 212 956 1026 1176 1027 958 959 38 222 560 561 220 847 558 218 956 1114 1178 1115 958 959 41 229 571 572 227 853 567 225 961 1024 1181 1025 963 964 42 234 574 575 232 855 580 230 956 1130 1182 1131 958 959 44 238 582 583 240 859 588 236 956 1140 1184 1141 958 959 46 244 592 593 246 863 590 242 956 1066 1186 1067 958 959 48 252 598 599 248 867 604 249 956 1038 1188 1039 958 959 50 258 606 607 256 871 612 254 956 1094 1190 1095 958 959 52 262 616 617 264 875 614 260 956 990 1192 991 958 959 54 270 622 623 268 879 628 266 956 966 1194 967 958 959 56 274 630 631 276 883 636 272 956 957 1196 960 958 959 58 282 640 641 280 887 638 278 956 1102 1198 1103 958 959 60 288 646 647 286 891 652 284 956 1014 1200 1015 958 959 62 294 656 657 292 895 654 290 956 1122 1202 1123 958 959 64 300 662 663 298 900 899 296 956 1062 1204 1063 958 959 67 305 671 672 307 907 675 303 961 1084 1207 1085 963 964 68 310 676 677 312 909 682 308 956 974 1208 975 958 959 70 318 684 685 316 913 690 314 956 970 1210 971 958 959 72 324 692 693 322 917 698 320 956 1002 1212 1003 958 959 74 328 702 703 330 921 700 326 956 1098 1214 1099 958 959 76 334 708 709 336 925 714 332 956 1074 1216 1075 958 959 78 342 716 717 338 929 722 339 956 1010 1218 1011 958 959 80 348 726 727 346 933 724 344 956 994 1220 995 958 959 82 352 734 735 354 937 732 350 956 1106 1222 1107 958 959 84 360 742 743 358 941 740 356 956 1110 1224 1111 958 959 86 364 748 749 366 945 754 362 956 1046 1226 1047 958 959 88 372 756 757 370 949 762 368 956 1018 1228 1019 958 959 90 376 764 765 378 953 770 374 956 978 1230 979 958 959 92 382 380 94 386 384 96 388 389 98 394 392 100 398 396 102 400 401 104 406 404 107 411 409 108 414 412 
[0.109] Exiting.
