Command : ./interpreter_t-rex_binary_haribo -P -b8192 -e -i f.cnf 
[0.000] This is T-REX interpreter, prototype version 04/2018.
[0.000] Reading problem encoding from file "f.cnf".
[0.001] Parsed head comment information.
[0.017] Processed problem encoding.
[0.017] Calculated possible fact changes of composite elements.
[0.019] Initialized instantiation procedure.
[0.019] 
[0.019] *************************************
[0.019] * * *   M a k e s p a n     0   * * *
[0.019] *************************************
[0.024] Instantiated 4,576 initial clauses.
[0.024] The encoding contains a total of 2,660 distinct variables.
[0.024] Attempting solve with solver <glucose4> ...
c 60 assumptions
[0.024] Executed solver; result: UNSAT.
[0.024] 
[0.024] *************************************
[0.024] * * *   M a k e s p a n     1   * * *
[0.024] *************************************
[0.030] Computed next depth properties: array size of 223.
[0.032] Instantiated 1,070 transitional clauses.
[0.044] 100.0% quadratic At-Most-One encodings, the rest being binary encoded.
[0.044] Instantiated 7,770 universal clauses.
[0.044] Instantiated and added clauses for a total of 13,416 clauses.
[0.044] The encoding contains a total of 4,716 distinct variables.
[0.044] Attempting solve with solver <glucose4> ...
c 223 assumptions
[0.044] Executed solver; result: UNSAT.
[0.044] 
[0.044] *************************************
[0.044] * * *   M a k e s p a n     2   * * *
[0.044] *************************************
[0.060] Computed next depth properties: array size of 673.
[0.065] Instantiated 3,410 transitional clauses.
[0.092] 100.0% quadratic At-Most-One encodings, the rest being binary encoded.
[0.092] Instantiated 24,825 universal clauses.
[0.092] Instantiated and added clauses for a total of 41,651 clauses.
[0.092] The encoding contains a total of 9,121 distinct variables.
[0.092] Attempting solve with solver <glucose4> ...
c 673 assumptions
c last restart ## conflicts  :  42 767 
[0.103] Executed solver; result: SAT.
[0.103] Solver returned SAT; a solution has been found at makespan 2.
672
solution 1260 1
3 125 449 450 123 809 453 121 991 1127 1128 1129 993 994 4 128 454 455 130 811 460 126 986 1048 1174 1049 988 989 7 135 467 468 137 817 463 133 991 1046 1177 1047 993 994 8 140 472 473 142 819 470 138 986 1154 1178 1155 988 989 11 149 483 484 147 825 479 145 991 1136 1181 1137 993 994 12 154 488 489 152 827 486 150 986 1096 1182 1097 988 989 14 158 494 495 160 831 500 156 986 1052 1184 1053 988 989 17 165 507 508 167 837 503 163 991 1110 1187 1111 993 994 18 170 510 511 172 839 516 168 986 1088 1188 1089 988 989 20 176 518 519 178 843 524 174 986 987 1190 990 988 989 23 183 529 530 185 849 533 181 991 1062 1193 1063 993 994 24 188 534 535 190 851 540 186 986 1150 1194 1151 988 989 26 196 542 543 194 855 548 192 986 1076 1196 1077 988 989 28 202 552 553 200 859 550 198 986 1162 1198 1163 988 989 30 208 558 559 206 863 564 204 986 1020 1200 1021 988 989 32 214 568 569 212 867 566 210 986 1138 1202 1139 988 989 34 220 576 577 218 871 574 216 986 1012 1204 1013 988 989 36 226 582 583 224 875 588 222 986 996 1206 997 988 989 38 228 592 593 232 879 590 229 986 1146 1208 1147 988 989 40 238 600 601 236 883 598 234 986 1072 1210 1073 988 989 43 243 609 610 245 889 613 241 991 1058 1213 1059 993 994 44 248 614 615 250 891 620 246 986 1000 1214 1001 988 989 46 256 622 623 252 895 628 253 986 1068 1216 1069 988 989 48 262 630 631 258 899 636 259 986 1008 1218 1009 988 989 50 268 640 641 266 903 638 264 986 1016 1220 1017 988 989 52 274 648 649 272 907 646 270 986 1104 1222 1105 988 989 54 280 654 655 278 911 660 276 986 1040 1224 1041 988 989 56 284 662 663 286 915 668 282 986 1170 1226 1171 988 989 58 290 670 671 292 919 676 288 986 1004 1228 1005 988 989 60 298 680 681 296 923 678 294 986 1084 1230 1085 988 989 62 304 686 687 302 927 692 300 986 1130 1232 1131 988 989 64 308 694 695 310 931 700 306 986 1024 1234 1025 988 989 66 316 704 705 314 935 702 312 986 1064 1236 1065 988 989 68 322 712 713 320 939 710 318 986 1116 1238 1117 988 989 70 324 720 721 328 943 718 325 986 1158 1240 1159 988 989 72 334 728 729 332 947 726 330 986 1036 1242 1037 988 989 74 340 734 735 338 951 740 336 986 1142 1244 1143 988 989 76 344 744 745 346 955 742 342 986 1120 1246 1121 988 989 78 350 750 751 352 959 756 348 986 1112 1248 1113 988 989 80 358 760 761 356 963 758 354 986 1032 1250 1033 988 989 82 364 768 769 362 967 766 360 986 1028 1252 1029 988 989 84 368 776 777 370 971 774 366 986 1100 1254 1101 988 989 86 376 784 785 374 975 782 372 986 1080 1256 1081 988 989 88 382 792 793 380 979 790 378 986 1166 1258 1167 988 989 90 388 800 801 386 983 798 384 986 1092 1260 1093 988 989 92 392 390 94 396 394 96 398 399 99 405 403 101 409 407 102 412 410 104 416 414 106 418 419 109 425 423 111 429 427 112 430 431 114 436 434 117 441 439 119 445 443 
[0.106] Exiting.
