
Compact plan:
0: (up f0 f8)
1: (board f8 p0)
2: (down f8 f5)
3: (depart f5 p0)
4: (up f5 f23)
5: (board f23 p1)
6: (up f23 f44)
7: (depart f44 p1)
8: (down f44 f16)
9: (board f16 p2)
10: (down f16 f7)
11: (depart f7 p2)
12: (down f7 f1)
13: (board f1 p3)
14: (up f1 f22)
15: (depart f22 p3)
16: (up f22 f37)
17: (board f37 p4)
18: (down f37 f19)
19: (depart f19 p4)
20: (up f19 f36)
21: (board f36 p5)
22: (down f36 f4)
23: (depart f4 p5)
24: (up f4 f29)
25: (board f29 p6)
26: (up f29 f35)
27: (depart f35 p6)
28: (down f35 f18)
29: (board f18 p7)
30: (down f18 f13)
31: (depart f13 p7)
32: (down f13 f4)
33: (board f4 p8)
34: (up f4 f18)
35: (depart f18 p8)
36: (down f18 f6)
37: (board f6 p9)
38: (up f6 f39)
39: (depart f39 p9)
40: (up f39 f46)
41: (board f46 p10)
42: (down f46 f29)
43: (depart f29 p10)
44: (down f29 f4)
45: (board f4 p11)
46: (up f4 f47)
47: (depart f47 p11)
48: (down f47 f18)
49: (board f18 p12)
50: (down f18 f13)
51: (depart f13 p12)
52: (up f13 f43)
53: (board f43 p13)
54: (down f43 f33)
55: (depart f33 p13)
56: (up f33 f35)
57: (board f35 p14)
58: (up f35 f44)
59: (depart f44 p14)
60: (down f44 f14)
61: (board f14 p15)
62: (up f14 f44)
63: (depart f44 p15)
64: (down f44 f17)
65: (board f17 p16)
66: (up f17 f37)
67: (depart f37 p16)
68: (down f37 f8)
69: (board f8 p17)
70: (up f8 f33)
71: (depart f33 p17)
72: (up f33 f44)
73: (board f44 p18)
74: (down f44 f26)
75: (depart f26 p18)
76: (down f26 f24)
77: (board f24 p19)
78: (down f24 f1)
79: (depart f1 p19)
80: (up f1 f45)
81: (board f45 p20)
82: (down f45 f12)
83: (depart f12 p20)
84: (down f12 f5)
85: (board f5 p21)
86: (up f5 f42)
87: (depart f42 p21)
88: (down f42 f16)
89: (board f16 p22)
90: (up f16 f39)
91: (depart f39 p22)
92: (down f39 f8)
93: (board f8 p23)
94: (up f8 f20)
95: (depart f20 p23)


