Command : ./interpreter_t-rex_binary_haribo -P -b8192 -i f.cnf 
[0.000] This is T-REX interpreter, prototype version 04/2018.
[0.000] Reading problem encoding from file "f.cnf".
[0.001] Parsed head comment information.
[0.023] Processed problem encoding.
[0.024] Calculated possible fact changes of composite elements.
[0.036] Initialized instantiation procedure.
[0.036] 
[0.036] *************************************
[0.036] * * *   M a k e s p a n     0   * * *
[0.036] *************************************
[0.054] Instantiated 14,565 initial clauses.
[0.054] The encoding contains a total of 8,525 distinct variables.
[0.054] Attempting solve with solver <glucose4> ...
c 276 assumptions
[0.054] Executed solver; result: UNSAT.
[0.054] 
[0.054] *************************************
[0.054] * * *   M a k e s p a n     1   * * *
[0.054] *************************************
[0.116] Computed next depth properties: array size of 1651.
[0.130] Instantiated 7,425 transitional clauses.
[0.199] Instantiated 74,509 universal clauses.
[0.199] Instantiated and added clauses for a total of 96,499 clauses.
[0.199] The encoding contains a total of 38,239 distinct variables.
[0.199] Attempting solve with solver <glucose4> ...
c 1651 assumptions
c last restart ## conflicts  :  0 2760 
[0.201] Executed solver; result: SAT.
[0.201] Solver returned SAT; a solution has been found at makespan 1.
1649
solution 2201 1
3 4 5 6 7 2 14 16 5 15 17 2 22 24 5 23 25 2 30 32 5 31 33 2 38 40 5 39 41 2 46 48 5 47 49 2 54 56 5 55 57 2 62 64 5 63 65 2 70 72 5 71 73 2 78 80 5 79 81 2 86 88 5 87 89 2 94 96 5 95 97 2 102 104 5 103 105 2 110 112 5 111 113 2 118 120 5 119 121 2 126 128 5 127 129 2 134 136 5 135 137 2 142 144 5 143 145 2 150 152 5 151 153 2 158 160 5 159 161 2 166 168 5 167 169 2 174 176 5 175 177 2 182 184 5 183 185 2 190 192 5 191 193 2 198 200 5 199 201 2 206 208 5 207 209 2 214 216 5 215 217 2 222 224 5 223 225 2 230 232 5 231 233 2 238 240 5 239 241 2 246 248 5 247 249 2 254 256 5 255 257 2 262 264 5 263 265 2 270 272 5 271 273 2 278 280 5 279 281 2 286 288 5 287 289 2 294 296 5 295 297 2 302 304 5 303 305 2 310 312 5 311 313 2 318 320 5 319 321 2 326 328 5 327 329 2 334 336 5 335 337 2 342 344 5 343 345 2 350 352 5 351 353 2 358 360 5 359 361 2 366 368 5 367 369 2 374 376 5 375 377 2 382 384 5 383 385 2 390 392 5 391 393 2 398 400 5 399 401 2 406 408 5 407 409 2 414 416 5 415 417 2 422 424 5 423 425 2 430 432 5 431 433 2 438 440 5 439 441 2 446 448 5 447 449 2 454 456 5 455 457 2 462 464 5 463 465 2 470 472 5 471 473 2 478 480 5 479 481 2 486 488 5 487 489 2 494 496 5 495 497 2 502 504 5 503 505 2 510 512 5 511 513 2 518 520 5 519 521 2 526 528 5 527 529 2 534 536 5 535 537 2 542 544 5 543 545 2 550 552 5 551 553 2 558 560 5 559 561 2 566 568 5 567 569 2 574 576 5 575 577 2 582 584 5 583 585 2 590 592 5 591 593 2 598 600 5 599 601 2 606 608 5 607 609 2 614 616 5 615 617 2 622 624 5 623 625 2 630 632 5 631 633 2 638 640 5 639 641 2 646 648 5 647 649 2 654 656 5 655 657 2 662 664 5 663 665 2 670 672 5 671 673 2 678 680 5 679 681 2 686 688 5 687 689 2 694 696 5 695 697 2 702 704 5 703 705 2 710 712 5 711 713 2 718 720 5 719 721 2 726 728 5 727 729 2 734 736 5 735 737 2 742 744 5 743 745 2 750 752 5 751 753 2 758 760 5 759 761 2 766 768 5 767 769 2 774 776 5 775 777 2 782 784 5 783 785 2 790 792 5 791 793 2 798 800 5 799 801 2 806 808 5 807 809 2 814 816 5 815 817 2 822 824 5 823 825 2 830 832 5 831 833 2 838 840 5 839 841 2 846 848 5 847 849 2 854 856 5 855 857 2 862 864 5 863 865 2 870 872 5 871 873 2 878 880 5 879 881 2 886 888 5 887 889 2 894 896 5 895 897 2 902 904 5 903 905 2 910 912 5 911 913 2 918 920 5 919 921 2 926 928 5 927 929 2 934 936 5 935 937 2 942 944 5 943 945 2 950 952 5 951 953 2 958 960 5 959 961 2 966 968 5 967 969 2 974 976 5 975 977 2 982 984 5 983 985 2 990 992 5 991 993 2 998 1000 5 999 1001 2 1006 1008 5 1007 1009 2 1014 1016 5 1015 1017 2 1022 1024 5 1023 1025 2 1030 1032 5 1031 1033 2 1038 1040 5 1039 1041 2 1046 1048 5 1047 1049 2 1054 1056 5 1055 1057 2 1062 1064 5 1063 1065 2 1070 1072 5 1071 1073 2 1078 1080 5 1079 1081 2 1086 1088 5 1087 1089 2 1094 1096 5 1095 1097 2 1102 1104 5 1103 1105 2 1110 1112 5 1111 1113 2 1118 1120 5 1119 1121 2 1126 1128 5 1127 1129 2 1134 1136 5 1135 1137 2 1142 1144 5 1143 1145 2 1150 1152 5 1151 1153 2 1158 1160 5 1159 1161 2 1166 1168 5 1167 1169 2 1174 1176 5 1175 1177 2 1182 1184 5 1183 1185 2 1190 1192 5 1191 1193 2 1198 1200 5 1199 1201 2 1206 1208 5 1207 1209 2 1214 1216 5 1215 1217 2 1222 1224 5 1223 1225 2 1230 1232 5 1231 1233 2 1238 1240 5 1239 1241 2 1246 1248 5 1247 1249 2 1254 1256 5 1255 1257 2 1262 1264 5 1263 1265 2 1270 1272 5 1271 1273 2 1278 1280 5 1279 1281 2 1286 1288 5 1287 1289 2 1294 1296 5 1295 1297 2 1302 1304 5 1303 1305 2 1310 1312 5 1311 1313 2 1318 1320 5 1319 1321 2 1326 1328 5 1327 1329 2 1334 1336 5 1335 1337 2 1342 1344 5 1343 1345 2 1350 1352 5 1351 1353 2 1358 1360 5 1359 1361 2 1366 1368 5 1367 1369 2 1374 1376 5 1375 1377 2 1382 1384 5 1383 1385 2 1390 1392 5 1391 1393 2 1398 1400 5 1399 1401 2 1406 1408 5 1407 1409 2 1414 1416 5 1415 1417 2 1422 1424 5 1423 1425 2 1430 1432 5 1431 1433 2 1438 1440 5 1439 1441 2 1446 1448 5 1447 1449 2 1454 1456 5 1455 1457 2 1462 1464 5 1463 1465 2 1470 1472 5 1471 1473 2 1478 1480 5 1479 1481 2 1486 1488 5 1487 1489 2 1494 1496 5 1495 1497 2 1502 1504 5 1503 1505 2 1510 1512 5 1511 1513 2 1518 1520 5 1519 1521 2 1526 1528 5 1527 1529 2 1534 1536 5 1535 1537 2 1542 1544 5 1543 1545 2 1550 1552 5 1551 1553 2 1558 1560 5 1559 1561 2 1566 1568 5 1567 1569 2 1574 1576 5 1575 1577 2 1582 1584 5 1583 1585 2 1590 1592 5 1591 1593 2 1598 1600 5 1599 1601 2 1606 1608 5 1607 1609 2 1614 1616 5 1615 1617 2 1622 1624 5 1623 1625 2 1630 1632 5 1631 1633 2 1638 1640 5 1639 1641 2 1646 1648 5 1647 1649 2 1654 1656 5 1655 1657 2 1662 1664 5 1663 1665 2 1670 1672 5 1671 1673 2 1678 1680 5 1679 1681 2 1686 1688 5 1687 1689 2 1694 1696 5 1695 1697 2 1702 1704 5 1703 1705 2 1710 1712 5 1711 1713 2 1718 1720 5 1719 1721 2 1726 1728 5 1727 1729 2 1734 1736 5 1735 1737 2 1742 1744 5 1743 1745 2 1750 1752 5 1751 1753 2 1758 1760 5 1759 1761 2 1766 1768 5 1767 1769 2 1774 1776 5 1775 1777 2 1782 1784 5 1783 1785 2 1790 1792 5 1791 1793 2 1798 1800 5 1799 1801 2 1806 1808 5 1807 1809 2 1814 1816 5 1815 1817 2 1822 1824 5 1823 1825 2 1830 1832 5 1831 1833 2 1838 1840 5 1839 1841 2 1846 1848 5 1847 1849 2 1854 1856 5 1855 1857 2 1862 1864 5 1863 1865 2 1870 1872 5 1871 1873 2 1878 1880 5 1879 1881 2 1886 1888 5 1887 1889 2 1894 1896 5 1895 1897 2 1902 1904 5 1903 1905 2 1910 1912 5 1911 1913 2 1918 1920 5 1919 1921 2 1926 1928 5 1927 1929 2 1934 1936 5 1935 1937 2 1942 1944 5 1943 1945 2 1950 1952 5 1951 1953 2 1958 1960 5 1959 1961 2 1966 1968 5 1967 1969 2 1974 1976 5 1975 1977 2 1982 1984 5 1983 1985 2 1990 1992 5 1991 1993 2 1998 2000 5 1999 2001 2 2006 2008 5 2007 2009 2 2014 2016 5 2015 2017 2 2022 2024 5 2023 2025 2 2030 2032 5 2031 2033 2 2038 2040 5 2039 2041 2 2046 2048 5 2047 2049 2 2054 2056 5 2055 2057 2 2062 2064 5 2063 2065 2 2070 2072 5 2071 2073 2 2078 2080 5 2079 2081 2 2086 2088 5 2087 2089 2 2094 2096 5 2095 2097 2 2102 2104 5 2103 2105 2 2110 2112 5 2111 2113 2 2118 2120 5 2119 2121 2 2126 2128 5 2127 2129 2 2134 2136 5 2135 2137 2 2142 2144 5 2143 2145 2 2150 2152 5 2151 2153 2 2158 2160 5 2159 2161 2 2166 2168 5 2167 2169 2 2174 2176 5 2175 2177 2 2182 2184 5 2183 2185 2 2190 2192 5 2191 2193 2 2198 2200 5 2199 2201 
[0.205] Exiting.
