
Compact plan:
0: (up f0 f5)
1: (board f5 p0)
2: (down f5 f0)
3: (depart f0 p0)
4: (up f0 f1)
5: (board f1 p1)
6: (up f1 f3)
7: (depart f3 p1)
8: (down f3 f0)
9: (board f0 p2)
10: (up f0 f5)
11: (depart f5 p2)


