
Compact plan:
0: (up f0 f7)
1: (board f7 p0)
2: (up f7 f10)
3: (depart f10 p0)
4: (down f10 f9)
5: (board f9 p1)
6: (down f9 f7)
7: (depart f7 p1)
8: (down f7 f5)
9: (board f5 p2)
10: (up f5 f7)
11: (depart f7 p2)
12: (up f7 f10)
13: (board f10 p3)
14: (down f10 f0)
15: (depart f0 p3)
16: (up f0 f9)
17: (board f9 p4)
18: (down f9 f1)
19: (depart f1 p4)
20: (up f1 f2)
21: (board f2 p5)
22: (up f2 f7)
23: (depart f7 p5)


