
Compact plan:
0: (up f0 f1)
1: (board f1 p0)
2: (up f1 f4)
3: (depart f4 p0)
4: (up f4 f9)
5: (board f9 p1)
6: (down f9 f5)
7: (depart f5 p1)
8: (down f5 f1)
9: (board f1 p2)
10: (up f1 f3)
11: (depart f3 p2)
12: (up f3 f10)
13: (board f10 p3)
14: (down f10 f2)
15: (depart f2 p3)
16: (down f2 f1)
17: (board f1 p4)
18: (up f1 f3)
19: (depart f3 p4)
20: (down f3 f2)
21: (board f2 p5)
22: (up f2 f5)
23: (depart f5 p5)
24: (up f5 f6)
25: (board f6 p6)
26: (up f6 f11)
27: (depart f11 p6)


