
Compact plan:
0: (up f0 f7)
1: (board f7 p0)
2: (down f7 f0)
3: (depart f0 p0)
4: (up f0 f4)
5: (board f4 p1)
6: (up f4 f6)
7: (depart f6 p1)
8: (up f6 f9)
9: (board f9 p2)
10: (down f9 f6)
11: (depart f6 p2)
12: (down f6 f2)
13: (board f2 p3)
14: (up f2 f7)
15: (depart f7 p3)
16: (down f7 f3)
17: (board f3 p4)
18: (down f3 f2)
19: (depart f2 p4)
20: (up f2 f11)
21: (board f11 p5)
22: (down f11 f7)
23: (depart f7 p5)


