Command : ./interpreter_t-rex_binary_haribo -P -b8192 -i f.cnf 
[0.000] This is T-REX interpreter, prototype version 04/2018.
[0.000] Reading problem encoding from file "f.cnf".
[0.001] Parsed head comment information.
[0.023] Processed problem encoding.
[0.024] Calculated possible fact changes of composite elements.
[0.026] Initialized instantiation procedure.
[0.026] 
[0.026] *************************************
[0.026] * * *   M a k e s p a n     0   * * *
[0.026] *************************************
[0.032] Instantiated 5,666 initial clauses.
[0.032] The encoding contains a total of 3,279 distinct variables.
[0.032] Attempting solve with solver <glucose4> ...
c 70 assumptions
[0.032] Executed solver; result: UNSAT.
[0.032] 
[0.032] *************************************
[0.032] * * *   M a k e s p a n     1   * * *
[0.032] *************************************
[0.042] Computed next depth properties: array size of 268.
[0.045] Instantiated 1,308 transitional clauses.
[0.063] Instantiated 11,276 universal clauses.
[0.063] Instantiated and added clauses for a total of 18,250 clauses.
[0.063] The encoding contains a total of 8,791 distinct variables.
[0.063] Attempting solve with solver <glucose4> ...
c 268 assumptions
[0.063] Executed solver; result: UNSAT.
[0.063] 
[0.063] *************************************
[0.063] * * *   M a k e s p a n     2   * * *
[0.063] *************************************
[0.089] Computed next depth properties: array size of 868.
[0.095] Instantiated 4,080 transitional clauses.
[0.137] Instantiated 49,442 universal clauses.
[0.137] Instantiated and added clauses for a total of 71,772 clauses.
[0.137] The encoding contains a total of 21,000 distinct variables.
[0.137] Attempting solve with solver <glucose4> ...
c 868 assumptions
c last restart ## conflicts  :  55 987 
[0.159] Executed solver; result: SAT.
[0.159] Solver returned SAT; a solution has been found at makespan 2.
867
solution 1620 1
2 142 536 537 144 1017 542 140 1256 1390 1391 1392 1258 1259 5 151 549 550 148 1023 545 149 1261 1352 1505 1353 1263 1264 7 157 557 558 154 1027 553 155 1261 1312 1507 1313 1263 1264 8 162 560 561 160 1029 566 158 1256 1424 1508 1425 1258 1259 11 167 571 572 169 1035 575 165 1261 1292 1511 1293 1263 1264 12 174 576 577 172 1037 582 170 1256 1464 1512 1465 1258 1259 15 181 587 588 179 1043 591 177 1261 1498 1515 1499 1263 1264 16 186 594 595 184 1045 592 182 1256 1338 1516 1339 1258 1259 18 192 600 601 188 1049 606 189 1256 1358 1518 1359 1258 1259 20 196 608 609 198 1053 614 194 1256 1342 1520 1343 1258 1259 22 202 616 617 204 1057 622 200 1256 1476 1522 1477 1258 1259 24 208 624 625 210 1061 630 206 1256 1396 1524 1397 1258 1259 27 214 635 636 217 1067 639 215 1261 1356 1527 1357 1263 1264 28 220 640 641 222 1069 646 218 1256 1444 1528 1445 1258 1259 30 228 650 651 224 1073 648 225 1256 1298 1530 1299 1258 1259 32 234 656 657 232 1077 662 230 1256 1452 1532 1453 1258 1259 34 240 666 667 238 1081 664 236 1256 1448 1534 1449 1258 1259 36 246 674 675 242 1085 672 243 1256 1456 1536 1457 1258 1259 38 252 680 681 250 1089 686 248 1256 1302 1538 1303 1258 1259 40 258 690 691 256 1093 688 254 1256 1306 1540 1307 1258 1259 42 264 698 699 262 1097 696 260 1256 1484 1542 1485 1258 1259 44 268 704 705 270 1101 710 266 1256 1420 1544 1421 1258 1259 46 276 712 713 274 1105 718 272 1256 1404 1546 1405 1258 1259 48 280 720 721 282 1109 726 278 1256 1488 1548 1489 1258 1259 50 284 728 729 288 1113 734 285 1256 1266 1550 1267 1258 1259 52 294 738 739 292 1117 736 290 1256 1400 1552 1401 1258 1259 54 300 746 747 296 1121 744 297 1256 1480 1554 1481 1258 1259 56 306 752 753 302 1125 758 303 1256 1286 1556 1287 1258 1259 58 312 762 763 310 1129 760 308 1256 1432 1558 1433 1258 1259 60 318 768 769 316 1133 774 314 1256 1257 1560 1260 1258 1259 62 324 776 777 322 1137 782 320 1256 1314 1562 1315 1258 1259 64 330 786 787 328 1141 784 326 1256 1472 1564 1473 1258 1259 66 334 792 793 336 1145 798 332 1256 1412 1566 1413 1258 1259 68 342 800 801 340 1149 806 338 1256 1322 1568 1323 1258 1259 70 346 810 811 348 1153 808 344 1256 1500 1570 1501 1258 1259 72 354 816 817 352 1157 822 350 1256 1468 1572 1469 1258 1259 74 360 824 825 358 1161 830 356 1256 1374 1574 1375 1258 1259 76 366 834 835 364 1165 832 362 1256 1318 1576 1319 1258 1259 78 370 842 843 372 1169 840 368 1256 1362 1578 1363 1258 1259 80 374 848 849 378 1173 854 375 1256 1460 1580 1461 1258 1259 82 382 858 859 384 1177 856 380 1256 1428 1582 1429 1258 1259 85 388 867 868 391 1183 871 389 1261 1328 1585 1329 1263 1264 87 397 877 878 394 1187 873 395 1261 1336 1587 1337 1263 1264 88 398 880 881 402 1189 886 399 1256 1366 1588 1367 1258 1259 90 404 888 889 408 1193 894 405 1256 1378 1590 1379 1258 1259 92 414 898 899 412 1197 896 410 1256 1330 1592 1331 1258 1259 94 420 904 905 418 1201 910 416 1256 1382 1594 1383 1258 1259 96 422 912 913 426 1205 918 423 1256 1270 1596 1271 1258 1259 98 430 922 923 432 1209 920 428 1256 1408 1598 1409 1258 1259 100 436 928 929 438 1213 934 434 1256 1440 1600 1441 1258 1259 102 444 938 939 440 1217 936 441 1256 1346 1602 1347 1258 1259 104 448 946 947 450 1221 944 446 1256 1278 1604 1279 1258 1259 106 456 954 955 454 1225 952 452 1256 1386 1606 1387 1258 1259 108 462 962 963 460 1229 960 458 1256 1370 1608 1371 1258 1259 110 468 968 969 466 1233 974 464 1256 1294 1610 1295 1258 1259 112 474 976 977 472 1237 982 470 1256 1436 1612 1437 1258 1259 114 478 986 987 480 1241 984 476 1256 1492 1614 1493 1258 1259 116 484 994 995 486 1245 992 482 1256 1282 1616 1283 1258 1259 118 490 1000 1001 492 1249 1006 488 1256 1274 1618 1275 1258 1259 120 498 1010 1011 496 1253 1008 494 1256 1416 1620 1417 1258 1259 122 502 500 124 506 504 126 510 508 128 514 512 131 519 517 132 522 520 134 526 524 136 528 529 138 534 532 
[0.162] Exiting.
