
Compact plan:
0: (up f0 f24)
1: (board f24 p0)
2: (down f24 f5)
3: (depart f5 p0)
4: (up f5 f23)
5: (board f23 p1)
6: (up f23 f28)
7: (depart f28 p1)
8: (down f28 f0)
9: (board f0 p2)
10: (up f0 f23)
11: (depart f23 p2)
12: (down f23 f17)
13: (board f17 p3)
14: (up f17 f22)
15: (depart f22 p3)
16: (down f22 f21)
17: (board f21 p4)
18: (down f21 f3)
19: (depart f3 p4)
20: (up f3 f20)
21: (board f20 p5)
22: (up f20 f29)
23: (depart f29 p5)
24: (down f29 f19)
25: (board f19 p6)
26: (down f19 f18)
27: (depart f18 p6)
28: (down f18 f13)
29: (board f13 p7)
30: (down f13 f4)
31: (depart f4 p7)
32: (down f4 f2)
33: (board f2 p8)
34: (up f2 f22)
35: (depart f22 p8)
36: (up f22 f23)
37: (board f23 p9)
38: (down f23 f14)
39: (depart f14 p9)
40: (down f14 f13)
41: (board f13 p10)
42: (up f13 f20)
43: (depart f20 p10)
44: (up f20 f31)
45: (board f31 p11)
46: (down f31 f18)
47: (depart f18 p11)
48: (down f18 f13)
49: (board f13 p12)
50: (down f13 f11)
51: (depart f11 p12)
52: (up f11 f17)
53: (board f17 p13)
54: (down f17 f3)
55: (depart f3 p13)
56: (up f3 f28)
57: (board f28 p14)
58: (up f28 f30)
59: (depart f30 p14)
60: (down f30 f28)
61: (board f28 p15)
62: (down f28 f1)
63: (depart f1 p15)


