
Compact plan:
0: (up f0 f13)
1: (board f13 p0)
2: (down f13 f0)
3: (depart f0 p0)
4: (up f0 f4)
5: (board f4 p1)
6: (up f4 f12)
7: (depart f12 p1)
8: (down f12 f3)
9: (board f3 p2)
10: (up f3 f24)
11: (depart f24 p2)
12: (down f24 f20)
13: (board f20 p3)
14: (down f20 f14)
15: (depart f14 p3)
16: (up f14 f19)
17: (board f19 p4)
18: (down f19 f9)
19: (depart f9 p4)
20: (up f9 f20)
21: (board f20 p5)
22: (up f20 f23)
23: (depart f23 p5)
24: (down f23 f1)
25: (board f1 p6)
26: (up f1 f2)
27: (depart f2 p6)
28: (up f2 f6)
29: (board f6 p7)
30: (up f6 f24)
31: (depart f24 p7)
32: (up f24 f25)
33: (board f25 p8)
34: (down f25 f15)
35: (depart f15 p8)
36: (up f15 f24)
37: (board f24 p9)
38: (down f24 f0)
39: (depart f0 p9)
40: (up f0 f25)
41: (board f25 p10)
42: (down f25 f8)
43: (depart f8 p10)
44: (up f8 f28)
45: (board f28 p11)
46: (down f28 f24)
47: (depart f24 p11)
48: (down f24 f23)
49: (board f23 p12)
50: (down f23 f21)
51: (depart f21 p12)
52: (down f21 f8)
53: (board f8 p13)
54: (up f8 f24)
55: (depart f24 p13)
56: (up f24 f27)
57: (board f27 p14)
58: (down f27 f13)
59: (depart f13 p14)


