 pb01       58       99       54      100     0,03     0,00    0,01     0,04     0,00     0,00       37    12
 pb02      102      175      104      196     0,04     0,00    0,01     0,05     0,00     0,00       90    18
 pb03      134      509      190      608     0,06     0,00    0,01     0,06     0,00     0,00       47    16
 pb04      470     8322     1786     9460     0,20     0,00    0,05     0,25     0,00     0,00     7992    64
 pb05      640    12264     3557    13825     0,26     0,00    0,13     0,39     0,00     0,00    24122    79
 pb06      706    16834     4313    18994     0,32     0,00    0,04     0,36     0,00     0,00     4397    60
 pb07      988    47599     7196    54235     0,77     0,00    0,21     0,98     0,00     0,00    45720    83
 pb08      658    14995     3591    17230     0,28     0,00    0,11     0,39     0,00     0,00    28681    51
 pb09     1014    47740     4439    55665     0,67     0,00    2,38     3,05     0,00     0,00   591365   223
 pb10     1040    27989    14819    31211     0,55     0,00    0,68     1,23     0,00     0,00   152744   189
 pb11     1730    77030    39394    86058     1,12     0,00    0,13     1,25     0,00     0,00    10843   205
 pb12     2084   116753    46534   131004     1,64     0,00    4,69     6,33     0,00     0,00   979253   327
 pb13     3342   264590   114419   294060     3,78     0,00    3,59     7,37     0,00     0,00   642503   382
 pb14     5506   646222   239470   709680     7,08     0,00   27,89    34,97     0,00     0,00  4854642   423
 pb15     6760   854363   368992   929815     9,96     0,00    9,35    19,31     0,00     0,00  1117547   522
 pb16     8860  1283411   638667  1383215    16,12     0,00  204,19   220,31     0,00     0,00 20397738   912
 pb17    10990  1922770   989252  2070630    54,17     0,00  295,01   349,18     0,00     0,00 32658936   692
 pb18     4172   262007   211788   270260     3,23     0,00   30,65    33,89     0,00     0,00  4535979   592
 pb19     5878   523631   342195   554166     6,29     0,00  159,68   165,97     0,00     0,00 17974061   861
 pb20     6748   755696   428111   810005     8,40     0,00  139,98   148,38     0,00     0,00 18249201   702
