
Compact plan:
0: (up f0 f51)
1: (board f51 p0)
2: (down f51 f8)
3: (depart f8 p0)
4: (up f8 f28)
5: (board f28 p1)
6: (down f28 f2)
7: (depart f2 p1)
8: (up f2 f41)
9: (board f41 p2)
10: (down f41 f30)
11: (depart f30 p2)
12: (board f30 p3)
13: (up f30 f46)
14: (depart f46 p3)
15: (down f46 f15)
16: (board f15 p4)
17: (down f15 f7)
18: (depart f7 p4)
19: (down f7 f2)
20: (board f2 p5)
21: (up f2 f51)
22: (depart f51 p5)
23: (up f51 f55)
24: (board f55 p6)
25: (down f55 f34)
26: (depart f34 p6)
27: (down f34 f10)
28: (board f10 p7)
29: (up f10 f22)
30: (depart f22 p7)
31: (down f22 f1)
32: (board f1 p8)
33: (up f1 f47)
34: (depart f47 p8)
35: (down f47 f44)
36: (board f44 p9)
37: (down f44 f16)
38: (depart f16 p9)
39: (up f16 f49)
40: (board f49 p10)
41: (down f49 f40)
42: (depart f40 p10)
43: (board f40 p11)
44: (down f40 f32)
45: (depart f32 p11)
46: (up f32 f49)
47: (board f49 p12)
48: (down f49 f43)
49: (depart f43 p12)
50: (up f43 f54)
51: (board f54 p13)
52: (down f54 f14)
53: (depart f14 p13)
54: (up f14 f31)
55: (board f31 p14)
56: (down f31 f11)
57: (depart f11 p14)
58: (up f11 f38)
59: (board f38 p15)
60: (down f38 f11)
61: (depart f11 p15)
62: (up f11 f19)
63: (board f19 p16)
64: (down f19 f10)
65: (depart f10 p16)
66: (up f10 f53)
67: (board f53 p17)
68: (down f53 f45)
69: (depart f45 p17)
70: (down f45 f41)
71: (board f41 p18)
72: (down f41 f27)
73: (depart f27 p18)
74: (up f27 f35)
75: (board f35 p19)
76: (up f35 f40)
77: (depart f40 p19)
78: (down f40 f34)
79: (board f34 p20)
80: (down f34 f21)
81: (depart f21 p20)
82: (down f21 f20)
83: (board f20 p21)
84: (down f20 f18)
85: (depart f18 p21)
86: (up f18 f55)
87: (board f55 p22)
88: (down f55 f30)
89: (depart f30 p22)
90: (up f30 f40)
91: (board f40 p23)
92: (down f40 f0)
93: (depart f0 p23)
94: (up f0 f5)
95: (board f5 p24)
96: (up f5 f12)
97: (depart f12 p24)
98: (down f12 f1)
99: (board f1 p25)
100: (up f1 f38)
101: (depart f38 p25)
102: (up f38 f53)
103: (board f53 p26)
104: (down f53 f25)
105: (depart f25 p26)
106: (down f25 f14)
107: (board f14 p27)
108: (up f14 f46)
109: (depart f46 p27)


