
Compact plan:
0: (up f0 f1)
1: (board f1 p0)
2: (down f1 f0)
3: (depart f0 p0)
4: (up f0 f4)
5: (board f4 p1)
6: (down f4 f0)
7: (depart f0 p1)
8: (up f0 f3)
9: (board f3 p2)
10: (down f3 f0)
11: (depart f0 p2)


