
Compact plan:
0: (up f0 f40)
1: (board f40 p0)
2: (down f40 f1)
3: (depart f1 p0)
4: (up f1 f29)
5: (board f29 p1)
6: (up f29 f34)
7: (depart f34 p1)
8: (down f34 f6)
9: (board f6 p2)
10: (up f6 f23)
11: (depart f23 p2)
12: (down f23 f5)
13: (board f5 p3)
14: (up f5 f20)
15: (depart f20 p3)
16: (up f20 f31)
17: (board f31 p4)
18: (down f31 f21)
19: (depart f21 p4)
20: (up f21 f30)
21: (board f30 p5)
22: (down f30 f28)
23: (depart f28 p5)
24: (up f28 f47)
25: (board f47 p6)
26: (down f47 f40)
27: (depart f40 p6)
28: (down f40 f1)
29: (board f1 p7)
30: (up f1 f30)
31: (depart f30 p7)
32: (up f30 f38)
33: (board f38 p8)
34: (down f38 f10)
35: (depart f10 p8)
36: (up f10 f43)
37: (board f43 p9)
38: (up f43 f44)
39: (depart f44 p9)
40: (down f44 f41)
41: (board f41 p10)
42: (down f41 f12)
43: (depart f12 p10)
44: (up f12 f15)
45: (board f15 p11)
46: (down f15 f6)
47: (depart f6 p11)
48: (up f6 f13)
49: (board f13 p12)
50: (down f13 f1)
51: (depart f1 p12)
52: (up f1 f17)
53: (board f17 p13)
54: (down f17 f7)
55: (depart f7 p13)
56: (up f7 f24)
57: (board f24 p14)
58: (up f24 f46)
59: (depart f46 p14)
60: (up f46 f48)
61: (board f48 p15)
62: (down f48 f27)
63: (depart f27 p15)
64: (down f27 f25)
65: (board f25 p16)
66: (up f25 f34)
67: (depart f34 p16)
68: (down f34 f33)
69: (board f33 p17)
70: (up f33 f48)
71: (depart f48 p17)
72: (down f48 f42)
73: (board f42 p18)
74: (down f42 f6)
75: (depart f6 p18)
76: (up f6 f31)
77: (board f31 p19)
78: (down f31 f13)
79: (depart f13 p19)
80: (up f13 f36)
81: (board f36 p20)
82: (down f36 f9)
83: (depart f9 p20)
84: (up f9 f12)
85: (board f12 p21)
86: (up f12 f36)
87: (depart f36 p21)
88: (down f36 f1)
89: (board f1 p22)
90: (up f1 f14)
91: (depart f14 p22)
92: (up f14 f16)
93: (board f16 p23)
94: (up f16 f40)
95: (depart f40 p23)
96: (down f40 f24)
97: (board f24 p24)
98: (down f24 f11)
99: (depart f11 p24)


