
Compact plan:
0: (up f0 f197)
1: (board f197 p0)
2: (up f197 f287)
3: (depart f287 p0)
4: (up f287 f630)
5: (board f630 p1)
6: (down f630 f133)
7: (depart f133 p1)
8: (up f133 f581)
9: (board f581 p2)
10: (down f581 f501)
11: (depart f501 p2)
12: (down f501 f254)
13: (board f254 p3)
14: (down f254 f58)
15: (depart f58 p3)
16: (up f58 f63)
17: (board f63 p4)
18: (up f63 f262)
19: (depart f262 p4)
20: (up f262 f596)
21: (board f596 p5)
22: (down f596 f402)
23: (depart f402 p5)
24: (down f402 f160)
25: (board f160 p6)
26: (up f160 f652)
27: (depart f652 p6)
28: (down f652 f596)
29: (board f596 p7)
30: (down f596 f476)
31: (depart f476 p7)
32: (down f476 f432)
33: (board f432 p8)
34: (down f432 f18)
35: (depart f18 p8)
36: (up f18 f469)
37: (board f469 p9)
38: (down f469 f362)
39: (depart f362 p9)
40: (up f362 f594)
41: (board f594 p10)
42: (down f594 f104)
43: (depart f104 p10)
44: (up f104 f116)
45: (board f116 p11)
46: (up f116 f433)
47: (depart f433 p11)
48: (up f433 f654)
49: (board f654 p12)
50: (down f654 f249)
51: (depart f249 p12)
52: (down f249 f218)
53: (board f218 p13)
54: (up f218 f521)
55: (depart f521 p13)
56: (down f521 f92)
57: (board f92 p14)
58: (up f92 f648)
59: (depart f648 p14)
60: (down f648 f25)
61: (board f25 p15)
62: (up f25 f111)
63: (depart f111 p15)
64: (down f111 f12)
65: (board f12 p16)
66: (up f12 f502)
67: (depart f502 p16)
68: (down f502 f48)
69: (board f48 p17)
70: (up f48 f282)
71: (depart f282 p17)
72: (down f282 f33)
73: (board f33 p18)
74: (up f33 f214)
75: (depart f214 p18)
76: (up f214 f350)
77: (board f350 p19)
78: (up f350 f351)
79: (depart f351 p19)
80: (down f351 f142)
81: (board f142 p20)
82: (up f142 f322)
83: (depart f322 p20)
84: (up f322 f412)
85: (board f412 p21)
86: (down f412 f107)
87: (depart f107 p21)
88: (up f107 f457)
89: (board f457 p22)
90: (down f457 f427)
91: (depart f427 p22)
92: (down f427 f413)
93: (board f413 p23)
94: (down f413 f410)
95: (depart f410 p23)
96: (down f410 f47)
97: (board f47 p24)
98: (up f47 f377)
99: (depart f377 p24)
100: (up f377 f626)
101: (board f626 p25)
102: (down f626 f278)
103: (depart f278 p25)
104: (up f278 f495)
105: (board f495 p26)
106: (down f495 f389)
107: (depart f389 p26)
108: (up f389 f592)
109: (board f592 p27)
110: (down f592 f209)
111: (depart f209 p27)
112: (up f209 f335)
113: (board f335 p28)
114: (down f335 f91)
115: (depart f91 p28)
116: (up f91 f309)
117: (board f309 p29)
118: (down f309 f213)
119: (depart f213 p29)
120: (up f213 f235)
121: (board f235 p30)
122: (down f235 f171)
123: (depart f171 p30)
124: (up f171 f686)
125: (board f686 p31)
126: (down f686 f280)
127: (depart f280 p31)
128: (down f280 f157)
129: (board f157 p32)
130: (up f157 f611)
131: (depart f611 p32)
132: (down f611 f356)
133: (board f356 p33)
134: (up f356 f530)
135: (depart f530 p33)
136: (up f530 f569)
137: (board f569 p34)
138: (down f569 f545)
139: (depart f545 p34)
140: (down f545 f336)
141: (board f336 p35)
142: (down f336 f75)
143: (depart f75 p35)
144: (up f75 f585)
145: (board f585 p36)
146: (down f585 f556)
147: (depart f556 p36)
148: (down f556 f118)
149: (board f118 p37)
150: (down f118 f66)
151: (depart f66 p37)
152: (up f66 f176)
153: (board f176 p38)
154: (up f176 f621)
155: (depart f621 p38)
156: (down f621 f463)
157: (board f463 p39)
158: (up f463 f467)
159: (depart f467 p39)
160: (up f467 f574)
161: (board f574 p40)
162: (up f574 f596)
163: (depart f596 p40)
164: (down f596 f248)
165: (board f248 p41)
166: (up f248 f545)
167: (depart f545 p41)
168: (down f545 f329)
169: (board f329 p42)
170: (up f329 f573)
171: (depart f573 p42)
172: (down f573 f35)
173: (board f35 p43)
174: (up f35 f37)
175: (depart f37 p43)
176: (up f37 f598)
177: (board f598 p44)
178: (down f598 f230)
179: (depart f230 p44)
180: (up f230 f522)
181: (board f522 p45)
182: (down f522 f466)
183: (depart f466 p45)
184: (down f466 f197)
185: (board f197 p46)
186: (up f197 f303)
187: (depart f303 p46)
188: (down f303 f166)
189: (board f166 p47)
190: (down f166 f42)
191: (depart f42 p47)
192: (up f42 f696)
193: (board f696 p48)
194: (down f696 f342)
195: (depart f342 p48)
196: (up f342 f699)
197: (board f699 p49)
198: (down f699 f621)
199: (depart f621 p49)
200: (down f621 f70)
201: (board f70 p50)
202: (up f70 f626)
203: (depart f626 p50)
204: (down f626 f59)
205: (board f59 p51)
206: (up f59 f564)
207: (depart f564 p51)
208: (down f564 f39)
209: (board f39 p52)
210: (up f39 f432)
211: (depart f432 p52)
212: (up f432 f611)
213: (board f611 p53)
214: (down f611 f17)
215: (depart f17 p53)
216: (up f17 f471)
217: (board f471 p54)
218: (down f471 f353)
219: (depart f353 p54)
220: (up f353 f563)
221: (board f563 p55)
222: (down f563 f141)
223: (depart f141 p55)
224: (up f141 f294)
225: (board f294 p56)
226: (up f294 f668)
227: (depart f668 p56)
228: (down f668 f517)
229: (board f517 p57)
230: (down f517 f489)
231: (depart f489 p57)
232: (down f489 f112)
233: (board f112 p58)
234: (up f112 f492)
235: (depart f492 p58)
236: (up f492 f612)
237: (board f612 p59)
238: (down f612 f148)
239: (depart f148 p59)
240: (up f148 f316)
241: (board f316 p60)
242: (up f316 f668)
243: (depart f668 p60)
244: (down f668 f507)
245: (board f507 p61)
246: (down f507 f300)
247: (depart f300 p61)
248: (down f300 f5)
249: (board f5 p62)
250: (up f5 f181)
251: (depart f181 p62)
252: (up f181 f381)
253: (board f381 p63)
254: (down f381 f270)
255: (depart f270 p63)
256: (up f270 f540)
257: (board f540 p64)
258: (down f540 f185)
259: (depart f185 p64)
260: (down f185 f96)
261: (board f96 p65)
262: (up f96 f589)
263: (depart f589 p65)
264: (up f589 f625)
265: (board f625 p66)
266: (down f625 f111)
267: (depart f111 p66)
268: (up f111 f169)
269: (board f169 p67)
270: (up f169 f508)
271: (depart f508 p67)
272: (down f508 f491)
273: (board f491 p68)
274: (down f491 f98)
275: (depart f98 p68)
276: (down f98 f79)
277: (board f79 p69)
278: (up f79 f127)
279: (depart f127 p69)
280: (up f127 f374)
281: (board f374 p70)
282: (down f374 f91)
283: (depart f91 p70)
284: (up f91 f573)
285: (board f573 p71)
286: (up f573 f575)
287: (depart f575 p71)
288: (down f575 f458)
289: (board f458 p72)
290: (down f458 f322)
291: (depart f322 p72)
292: (up f322 f340)
293: (board f340 p73)
294: (down f340 f198)
295: (depart f198 p73)
296: (down f198 f173)
297: (board f173 p74)
298: (down f173 f18)
299: (depart f18 p74)


