
Compact plan:
0: (up f0 f15)
1: (board f15 p0)
2: (up f15 f51)
3: (depart f51 p0)
4: (down f51 f42)
5: (board f42 p1)
6: (down f42 f2)
7: (depart f2 p1)
8: (down f2 f0)
9: (board f0 p2)
10: (up f0 f42)
11: (depart f42 p2)
12: (up f42 f58)
13: (board f58 p3)
14: (down f58 f47)
15: (depart f47 p3)
16: (down f47 f45)
17: (board f45 p4)
18: (down f45 f9)
19: (depart f9 p4)
20: (up f9 f44)
21: (board f44 p5)
22: (up f44 f50)
23: (depart f50 p5)
24: (down f50 f49)
25: (board f49 p6)
26: (down f49 f2)
27: (depart f2 p6)
28: (up f2 f39)
29: (board f39 p7)
30: (down f39 f18)
31: (depart f18 p7)
32: (up f18 f33)
33: (board f33 p8)
34: (down f33 f20)
35: (depart f20 p8)
36: (down f20 f13)
37: (board f13 p9)
38: (up f13 f43)
39: (depart f43 p9)
40: (up f43 f49)
41: (board f49 p10)
42: (down f49 f18)
43: (depart f18 p10)
44: (down f18 f13)
45: (board f13 p11)
46: (up f13 f28)
47: (depart f28 p11)
48: (up f28 f42)
49: (board f42 p12)
50: (down f42 f27)
51: (depart f27 p12)
52: (up f27 f40)
53: (board f40 p13)
54: (down f40 f27)
55: (depart f27 p13)
56: (down f27 f19)
57: (board f19 p14)
58: (up f19 f38)
59: (depart f38 p14)
60: (down f38 f30)
61: (board f30 p15)
62: (down f30 f27)
63: (depart f27 p15)
64: (up f27 f29)
65: (board f29 p16)
66: (down f29 f12)
67: (depart f12 p16)
68: (up f12 f29)
69: (board f29 p17)
70: (down f29 f21)
71: (depart f21 p17)
72: (up f21 f47)
73: (board f47 p18)
74: (down f47 f20)
75: (depart f20 p18)
76: (down f20 f0)
77: (board f0 p19)
78: (up f0 f32)
79: (depart f32 p19)
80: (down f32 f21)
81: (board f21 p20)
82: (up f21 f44)
83: (depart f44 p20)
84: (down f44 f14)
85: (board f14 p21)
86: (down f14 f10)
87: (depart f10 p21)
88: (up f10 f38)
89: (board f38 p22)
90: (up f38 f53)
91: (depart f53 p22)
92: (down f53 f20)
93: (board f20 p23)
94: (down f20 f3)
95: (depart f3 p23)
96: (up f3 f14)
97: (board f14 p24)
98: (up f14 f25)
99: (depart f25 p24)
100: (up f25 f46)
101: (board f46 p25)
102: (up f46 f55)
103: (depart f55 p25)
104: (down f55 f35)
105: (board f35 p26)
106: (up f35 f59)
107: (depart f59 p26)
108: (down f59 f16)
109: (board f16 p27)
110: (down f16 f9)
111: (depart f9 p27)
112: (up f9 f27)
113: (board f27 p28)
114: (up f27 f56)
115: (depart f56 p28)
116: (down f56 f36)
117: (board f36 p29)
118: (up f36 f38)
119: (depart f38 p29)


