
Compact plan:
0: (up f0 f8)
1: (board f8 p0)
2: (down f8 f5)
3: (depart f5 p0)
4: (up f5 f11)
5: (board f11 p1)
6: (down f11 f8)
7: (depart f8 p1)
8: (down f8 f4)
9: (board f4 p2)
10: (up f4 f7)
11: (depart f7 p2)
12: (down f7 f1)
13: (board f1 p3)
14: (up f1 f10)
15: (depart f10 p3)
16: (down f10 f1)
17: (board f1 p4)
18: (up f1 f7)
19: (depart f7 p4)
20: (down f7 f0)
21: (board f0 p5)
22: (up f0 f4)
23: (depart f4 p5)


