
Compact plan:
0: (up f0 f27)
1: (board f27 p0)
2: (down f27 f15)
3: (depart f15 p0)
4: (up f15 f30)
5: (board f30 p1)
6: (down f30 f2)
7: (depart f2 p1)
8: (down f2 f0)
9: (board f0 p2)
10: (up f0 f18)
11: (depart f18 p2)
12: (down f18 f10)
13: (board f10 p3)
14: (up f10 f35)
15: (depart f35 p3)
16: (down f35 f33)
17: (board f33 p4)
18: (down f33 f21)
19: (depart f21 p4)
20: (down f21 f20)
21: (board f20 p5)
22: (down f20 f2)
23: (depart f2 p5)
24: (down f2 f1)
25: (board f1 p6)
26: (up f1 f2)
27: (depart f2 p6)
28: (up f2 f3)
29: (board f3 p7)
30: (up f3 f18)
31: (depart f18 p7)
32: (up f18 f33)
33: (board f33 p8)
34: (down f33 f20)
35: (depart f20 p8)
36: (down f20 f13)
37: (board f13 p9)
38: (down f13 f7)
39: (depart f7 p9)
40: (down f7 f1)
41: (board f1 p10)
42: (up f1 f6)
43: (depart f6 p10)
44: (down f6 f1)
45: (board f1 p11)
46: (up f1 f4)
47: (depart f4 p11)
48: (up f4 f18)
49: (board f18 p12)
50: (down f18 f15)
51: (depart f15 p12)
52: (up f15 f16)
53: (board f16 p13)
54: (down f16 f15)
55: (depart f15 p13)
56: (down f15 f7)
57: (board f7 p14)
58: (up f7 f26)
59: (depart f26 p14)
60: (down f26 f6)
61: (board f6 p15)
62: (up f6 f15)
63: (depart f15 p15)
64: (down f15 f5)
65: (board f5 p16)
66: (down f5 f0)
67: (depart f0 p16)
68: (up f0 f17)
69: (board f17 p17)
70: (up f17 f21)
71: (depart f21 p17)


