
Compact plan:
0: (up f0 f35)
1: (board f35 p0)
2: (down f35 f5)
3: (depart f5 p0)
4: (down f5 f0)
5: (board f0 p1)
6: (up f0 f13)
7: (depart f13 p1)
8: (down f13 f9)
9: (board f9 p2)
10: (down f9 f6)
11: (depart f6 p2)
12: (up f6 f35)
13: (board f35 p3)
14: (down f35 f30)
15: (depart f30 p3)
16: (down f30 f27)
17: (board f27 p4)
18: (down f27 f26)
19: (depart f26 p4)
20: (down f26 f19)
21: (board f19 p5)
22: (down f19 f12)
23: (depart f12 p5)
24: (up f12 f28)
25: (board f28 p6)
26: (up f28 f36)
27: (depart f36 p6)
28: (down f36 f22)
29: (board f22 p7)
30: (down f22 f1)
31: (depart f1 p7)
32: (up f1 f20)
33: (board f20 p8)
34: (down f20 f1)
35: (depart f1 p8)
36: (up f1 f32)
37: (board f32 p9)
38: (down f32 f30)
39: (depart f30 p9)
40: (down f30 f22)
41: (board f22 p10)
42: (up f22 f35)
43: (depart f35 p10)
44: (up f35 f36)
45: (board f36 p11)
46: (up f36 f41)
47: (depart f41 p11)
48: (down f41 f40)
49: (board f40 p12)
50: (down f40 f10)
51: (depart f10 p12)
52: (down f10 f4)
53: (board f4 p13)
54: (down f4 f0)
55: (depart f0 p13)
56: (up f0 f41)
57: (board f41 p14)
58: (down f41 f35)
59: (depart f35 p14)
60: (down f35 f23)
61: (board f23 p15)
62: (up f23 f34)
63: (depart f34 p15)
64: (up f34 f40)
65: (board f40 p16)
66: (down f40 f21)
67: (depart f21 p16)
68: (down f21 f4)
69: (board f4 p17)
70: (up f4 f6)
71: (depart f6 p17)
72: (up f6 f27)
73: (board f27 p18)
74: (up f27 f39)
75: (depart f39 p18)
76: (down f39 f34)
77: (board f34 p19)
78: (down f34 f13)
79: (depart f13 p19)
80: (up f13 f23)
81: (board f23 p20)
82: (down f23 f12)
83: (depart f12 p20)


