
Compact plan:
0: (up f0 f49)
1: (board f49 p0)
2: (down f49 f32)
3: (depart f32 p0)
4: (down f32 f31)
5: (board f31 p1)
6: (down f31 f17)
7: (depart f17 p1)
8: (up f17 f50)
9: (board f50 p2)
10: (down f50 f30)
11: (depart f30 p2)
12: (down f30 f20)
13: (board f20 p3)
14: (up f20 f86)
15: (depart f86 p3)
16: (down f86 f81)
17: (board f81 p4)
18: (down f81 f76)
19: (depart f76 p4)
20: (down f76 f47)
21: (board f47 p5)
22: (down f47 f6)
23: (depart f6 p5)
24: (up f6 f37)
25: (board f37 p6)
26: (up f37 f73)
27: (depart f73 p6)
28: (up f73 f86)
29: (board f86 p7)
30: (down f86 f54)
31: (depart f54 p7)
32: (up f54 f93)
33: (board f93 p8)
34: (down f93 f64)
35: (depart f64 p8)
36: (up f64 f84)
37: (board f84 p9)
38: (down f84 f17)
39: (depart f17 p9)
40: (up f17 f55)
41: (board f55 p10)
42: (up f55 f58)
43: (depart f58 p10)
44: (down f58 f17)
45: (board f17 p11)
46: (up f17 f43)
47: (depart f43 p11)
48: (up f43 f47)
49: (board f47 p12)
50: (up f47 f87)
51: (depart f87 p12)
52: (down f87 f45)
53: (board f45 p13)
54: (up f45 f63)
55: (depart f63 p13)
56: (down f63 f36)
57: (board f36 p14)
58: (up f36 f75)
59: (depart f75 p14)
60: (down f75 f41)
61: (board f41 p15)
62: (down f41 f6)
63: (depart f6 p15)
64: (up f6 f22)
65: (board f22 p16)
66: (down f22 f5)
67: (depart f5 p16)
68: (up f5 f28)
69: (board f28 p17)
70: (down f28 f9)
71: (depart f9 p17)
72: (up f9 f76)
73: (board f76 p18)
74: (up f76 f89)
75: (depart f89 p18)
76: (down f89 f82)
77: (board f82 p19)
78: (up f82 f85)
79: (depart f85 p19)
80: (down f85 f46)
81: (board f46 p20)
82: (down f46 f27)
83: (depart f27 p20)
84: (down f27 f1)
85: (board f1 p21)
86: (up f1 f99)
87: (depart f99 p21)
88: (down f99 f48)
89: (board f48 p22)
90: (down f48 f4)
91: (depart f4 p22)
92: (up f4 f19)
93: (board f19 p23)
94: (up f19 f82)
95: (depart f82 p23)
96: (down f82 f53)
97: (board f53 p24)
98: (down f53 f39)
99: (depart f39 p24)
100: (up f39 f42)
101: (board f42 p25)
102: (down f42 f40)
103: (depart f40 p25)
104: (up f40 f76)
105: (board f76 p26)
106: (up f76 f91)
107: (depart f91 p26)
108: (down f91 f81)
109: (board f81 p27)
110: (down f81 f46)
111: (depart f46 p27)
112: (up f46 f62)
113: (board f62 p28)
114: (down f62 f54)
115: (depart f54 p28)
116: (down f54 f7)
117: (board f7 p29)
118: (up f7 f49)
119: (depart f49 p29)
120: (up f49 f90)
121: (board f90 p30)
122: (up f90 f95)
123: (depart f95 p30)
124: (down f95 f74)
125: (board f74 p31)
126: (down f74 f24)
127: (depart f24 p31)
128: (up f24 f84)
129: (board f84 p32)
130: (down f84 f28)
131: (depart f28 p32)
132: (up f28 f47)
133: (board f47 p33)
134: (up f47 f80)
135: (depart f80 p33)
136: (down f80 f74)
137: (board f74 p34)
138: (down f74 f61)
139: (depart f61 p34)
140: (down f61 f47)
141: (board f47 p35)
142: (up f47 f73)
143: (depart f73 p35)
144: (down f73 f16)
145: (board f16 p36)
146: (up f16 f58)
147: (depart f58 p36)
148: (up f58 f60)
149: (board f60 p37)
150: (up f60 f69)
151: (depart f69 p37)
152: (down f69 f64)
153: (board f64 p38)
154: (up f64 f67)
155: (depart f67 p38)
156: (down f67 f41)
157: (board f41 p39)
158: (up f41 f87)
159: (depart f87 p39)
160: (down f87 f38)
161: (board f38 p40)
162: (up f38 f93)
163: (depart f93 p40)
164: (down f93 f27)
165: (board f27 p41)
166: (up f27 f89)
167: (depart f89 p41)
168: (down f89 f39)
169: (board f39 p42)
170: (up f39 f86)
171: (depart f86 p42)
172: (down f86 f61)
173: (board f61 p43)
174: (down f61 f44)
175: (depart f44 p43)
176: (down f44 f27)
177: (board f27 p44)
178: (up f27 f50)
179: (depart f50 p44)
180: (down f50 f37)
181: (board f37 p45)
182: (up f37 f53)
183: (depart f53 p45)
184: (down f53 f18)
185: (board f18 p46)
186: (down f18 f8)
187: (depart f8 p46)
188: (up f8 f95)
189: (board f95 p47)
190: (down f95 f49)
191: (depart f49 p47)
192: (up f49 f56)
193: (board f56 p48)
194: (down f56 f19)
195: (depart f19 p48)
196: (up f19 f89)
197: (board f89 p49)
198: (down f89 f48)
199: (depart f48 p49)


