
Compact plan:
0: (unstack b2 b22)
1: (put-down b2)
2: (unstack b22 b30)
3: (put-down b22)
4: (unstack b30 b13)
5: (put-down b30)
6: (unstack b13 b26)
7: (put-down b13)
8: (unstack b26 b33)
9: (put-down b26)
10: (unstack b33 b15)
11: (put-down b33)
12: (unstack b15 b29)
13: (put-down b15)
14: (unstack b29 b32)
15: (put-down b29)
16: (unstack b32 b25)
17: (put-down b32)
18: (unstack b25 b12)
19: (put-down b25)
20: (unstack b12 b27)
21: (put-down b12)
22: (unstack b27 b28)
23: (put-down b27)
24: (unstack b28 b14)
25: (put-down b28)
26: (unstack b14 b31)
27: (put-down b14)
28: (pick-up b29)
29: (stack b29 b14)
30: (pick-up b26)
31: (stack b26 b29)
32: (unstack b31 b8)
33: (put-down b31)
34: (unstack b8 b6)
35: (stack b8 b26)
36: (pick-up b32)
37: (stack b32 b8)
38: (pick-up b13)
39: (stack b13 b32)
40: (pick-up b2)
41: (stack b2 b13)
42: (unstack b1 b35)
43: (stack b1 b2)
44: (unstack b24 b4)
45: (stack b24 b1)
46: (pick-up b30)
47: (stack b30 b24)
48: (unstack b7 b11)
49: (put-down b7)
50: (unstack b11 b21)
51: (put-down b11)
52: (unstack b21 b18)
53: (put-down b21)
54: (unstack b18 b5)
55: (stack b18 b21)
56: (unstack b4 b20)
57: (put-down b4)
58: (unstack b20 b10)
59: (put-down b20)
60: (unstack b10 b3)
61: (stack b10 b18)
62: (pick-up b20)
63: (stack b20 b10)
64: (unstack b3 b23)
65: (put-down b3)
66: (unstack b23 b34)
67: (put-down b23)
68: (unstack b34 b16)
69: (stack b34 b20)
70: (unstack b35 b9)
71: (put-down b35)
72: (pick-up b23)
73: (stack b23 b9)
74: (unstack b17 b19)
75: (stack b17 b23)
76: (pick-up b27)
77: (stack b27 b17)
78: (pick-up b12)
79: (stack b12 b27)
80: (pick-up b35)
81: (stack b35 b12)
82: (pick-up b15)
83: (stack b15 b35)
84: (pick-up b16)
85: (stack b16 b33)
86: (pick-up b28)
87: (stack b28 b16)
88: (pick-up b4)
89: (stack b4 b5)
90: (pick-up b3)
91: (stack b3 b4)
92: (pick-up b31)
93: (stack b31 b3)
94: (pick-up b19)
95: (stack b19 b31)
96: (pick-up b7)
97: (stack b7 b19)
98: (pick-up b11)
99: (stack b11 b7)
100: (pick-up b25)
101: (stack b25 b11)
102: (pick-up b22)
103: (stack b22 b25)


