
Compact plan:
0: (up f0 f8)
1: (board f8 p0)
2: (down f8 f1)
3: (depart f1 p0)
4: (up f1 f7)
5: (board f7 p1)
6: (up f7 f10)
7: (depart f10 p1)
8: (down f10 f2)
9: (board f2 p2)
10: (up f2 f7)
11: (depart f7 p2)
12: (up f7 f13)
13: (board f13 p3)
14: (down f13 f2)
15: (depart f2 p3)
16: (up f2 f9)
17: (board f9 p4)
18: (down f9 f5)
19: (depart f5 p4)
20: (up f5 f6)
21: (board f6 p5)
22: (down f6 f4)
23: (depart f4 p5)
24: (down f4 f1)
25: (board f1 p6)
26: (up f1 f5)
27: (depart f5 p6)


