
Compact plan:
0: (up f0 f8)
1: (board f8 p0)
2: (down f8 f5)
3: (depart f5 p0)
4: (up f5 f7)
5: (board f7 p1)
6: (up f7 f12)
7: (depart f12 p1)
8: (down f12 f0)
9: (board f0 p2)
10: (up f0 f7)
11: (depart f7 p2)
12: (down f7 f1)
13: (board f1 p3)
14: (up f1 f6)
15: (depart f6 p3)
16: (down f6 f5)
17: (board f5 p4)
18: (down f5 f3)
19: (depart f3 p4)
20: (up f3 f4)
21: (board f4 p5)
22: (up f4 f13)
23: (depart f13 p5)
24: (down f13 f3)
25: (board f3 p6)
26: (down f3 f2)
27: (depart f2 p6)
28: (up f2 f13)
29: (board f13 p7)
30: (down f13 f4)
31: (depart f4 p7)


