
Compact plan:
0: (up f0 f43)
1: (board f43 p0)
2: (down f43 f0)
3: (depart f0 p0)
4: (up f0 f4)
5: (board f4 p1)
6: (up f4 f42)
7: (depart f42 p1)
8: (down f42 f33)
9: (board f33 p2)
10: (up f33 f54)
11: (depart f54 p2)
12: (down f54 f50)
13: (board f50 p3)
14: (down f50 f14)
15: (depart f14 p3)
16: (up f14 f19)
17: (board f19 p4)
18: (up f19 f39)
19: (depart f39 p4)
20: (up f39 f50)
21: (board f50 p5)
22: (down f50 f23)
23: (depart f23 p5)
24: (up f23 f31)
25: (board f31 p6)
26: (down f31 f2)
27: (depart f2 p6)
28: (up f2 f6)
29: (board f6 p7)
30: (up f6 f54)
31: (depart f54 p7)
32: (down f54 f25)
33: (board f25 p8)
34: (down f25 f15)
35: (depart f15 p8)
36: (up f15 f24)
37: (board f24 p9)
38: (down f24 f0)
39: (depart f0 p9)
40: (up f0 f25)
41: (board f25 p10)
42: (down f25 f8)
43: (depart f8 p10)
44: (up f8 f28)
45: (board f28 p11)
46: (down f28 f24)
47: (depart f24 p11)
48: (up f24 f53)
49: (board f53 p12)
50: (down f53 f51)
51: (depart f51 p12)
52: (down f51 f38)
53: (board f38 p13)
54: (up f38 f54)
55: (depart f54 p13)
56: (down f54 f27)
57: (board f27 p14)
58: (up f27 f43)
59: (depart f43 p14)
60: (up f43 f54)
61: (board f54 p15)
62: (down f54 f3)
63: (depart f3 p15)
64: (up f3 f43)
65: (board f43 p16)
66: (up f43 f58)
67: (depart f58 p16)
68: (down f58 f37)
69: (board f37 p17)
70: (down f37 f9)
71: (depart f9 p17)
72: (up f9 f53)
73: (board f53 p18)
74: (down f53 f27)
75: (depart f27 p18)
76: (down f27 f23)
77: (board f23 p19)
78: (down f23 f4)
79: (depart f4 p19)
80: (up f4 f6)
81: (board f6 p20)
82: (down f6 f5)
83: (depart f5 p20)
84: (up f5 f20)
85: (board f20 p21)
86: (up f20 f30)
87: (depart f30 p21)
88: (down f30 f7)
89: (board f7 p22)
90: (up f7 f26)
91: (depart f26 p22)
92: (down f26 f24)
93: (board f24 p23)
94: (up f24 f32)
95: (depart f32 p23)
96: (up f32 f33)
97: (board f33 p24)
98: (up f33 f40)
99: (depart f40 p24)
100: (down f40 f25)
101: (board f25 p25)
102: (up f25 f50)
103: (depart f50 p25)
104: (down f50 f49)
105: (board f49 p26)
106: (down f49 f45)
107: (depart f45 p26)
108: (down f45 f14)
109: (board f14 p27)
110: (up f14 f42)
111: (depart f42 p27)
112: (down f42 f28)
113: (board f28 p28)
114: (up f28 f53)
115: (depart f53 p28)
116: (down f53 f28)
117: (board f28 p29)
118: (up f28 f55)
119: (depart f55 p29)


