
Compact plan:
0: (unstack b14 b10)
1: (put-down b14)
2: (unstack b10 b12)
3: (put-down b10)
4: (unstack b12 b19)
5: (put-down b12)
6: (unstack b19 b5)
7: (put-down b19)
8: (unstack b5 b6)
9: (put-down b5)
10: (pick-up b6)
11: (stack b6 b5)
12: (unstack b13 b11)
13: (put-down b13)
14: (unstack b11 b15)
15: (put-down b11)
16: (unstack b15 b4)
17: (put-down b15)
18: (unstack b4 b17)
19: (put-down b4)
20: (unstack b17 b9)
21: (put-down b17)
22: (unstack b8 b3)
23: (put-down b8)
24: (unstack b9 b1)
25: (stack b9 b8)
26: (pick-up b14)
27: (stack b14 b9)
28: (pick-up b17)
29: (stack b17 b14)
30: (pick-up b10)
31: (stack b10 b17)
32: (pick-up b12)
33: (stack b12 b10)
34: (pick-up b4)
35: (stack b4 b12)
36: (pick-up b13)
37: (stack b13 b4)
38: (unstack b1 b7)
39: (put-down b1)
40: (unstack b7 b2)
41: (put-down b7)
42: (unstack b2 b18)
43: (put-down b2)
44: (unstack b18 b16)
45: (put-down b18)
46: (pick-up b16)
47: (stack b16 b1)
48: (unstack b6 b5)
49: (put-down b6)
50: (pick-up b5)
51: (stack b5 b16)
52: (pick-up b6)
53: (stack b6 b5)
54: (pick-up b2)
55: (stack b2 b6)
56: (pick-up b15)
57: (stack b15 b2)
58: (pick-up b3)
59: (stack b3 b15)
60: (pick-up b11)
61: (stack b11 b3)
62: (pick-up b19)
63: (stack b19 b11)
64: (pick-up b7)
65: (stack b7 b19)
66: (pick-up b18)
67: (stack b18 b7)


