
Compact plan:
0: (up f0 f51)
1: (board f51 p0)
2: (up f51 f64)
3: (depart f64 p0)
4: (down f64 f7)
5: (board f7 p1)
6: (up f7 f95)
7: (depart f95 p1)
8: (down f95 f47)
9: (board f47 p2)
10: (down f47 f2)
11: (depart f2 p2)
12: (up f2 f25)
13: (board f25 p3)
14: (up f25 f91)
15: (depart f91 p3)
16: (down f91 f49)
17: (board f49 p4)
18: (up f49 f165)
19: (depart f165 p4)
20: (down f165 f121)
21: (board f121 p5)
22: (up f121 f127)
23: (depart f127 p5)
24: (down f127 f85)
25: (board f85 p6)
26: (down f85 f19)
27: (depart f19 p6)
28: (up f19 f95)
29: (board f95 p7)
30: (up f95 f142)
31: (depart f142 p7)
32: (down f142 f41)
33: (board f41 p8)
34: (up f41 f73)
35: (depart f73 p8)
36: (down f73 f30)
37: (board f30 p9)
38: (up f30 f49)
39: (depart f49 p9)
40: (down f49 f11)
41: (board f11 p10)
42: (up f11 f76)
43: (depart f76 p10)
44: (down f76 f50)
45: (board f50 p11)
46: (up f50 f51)
47: (depart f51 p11)
48: (up f51 f189)
49: (board f189 p12)
50: (down f189 f114)
51: (depart f114 p12)
52: (down f114 f38)
53: (board f38 p13)
54: (up f38 f191)
55: (depart f191 p13)
56: (down f191 f151)
57: (board f151 p14)
58: (down f151 f84)
59: (depart f84 p14)
60: (up f84 f193)
61: (board f193 p15)
62: (down f193 f167)
63: (depart f167 p15)
64: (up f167 f197)
65: (board f197 p16)
66: (down f197 f161)
67: (depart f161 p16)
68: (down f161 f72)
69: (board f72 p17)
70: (up f72 f91)
71: (depart f91 p17)
72: (up f91 f130)
73: (board f130 p18)
74: (down f130 f8)
75: (depart f8 p18)
76: (up f8 f46)
77: (board f46 p19)
78: (up f46 f55)
79: (depart f55 p19)
80: (up f55 f197)
81: (board f197 p20)
82: (down f197 f171)
83: (depart f171 p20)
84: (down f171 f163)
85: (board f163 p21)
86: (up f163 f195)
87: (depart f195 p21)
88: (down f195 f19)
89: (board f19 p22)
90: (up f19 f138)
91: (depart f138 p22)
92: (down f138 f102)
93: (board f102 p23)
94: (down f102 f22)
95: (depart f22 p23)
96: (up f22 f115)
97: (board f115 p24)
98: (down f115 f108)
99: (depart f108 p24)
100: (down f108 f45)
101: (board f45 p25)
102: (down f45 f7)
103: (depart f7 p25)
104: (up f7 f161)
105: (board f161 p26)
106: (down f161 f12)
107: (depart f12 p26)
108: (up f12 f16)
109: (board f16 p27)
110: (up f16 f107)
111: (depart f107 p27)
112: (down f107 f80)
113: (board f80 p28)
114: (down f80 f5)
115: (depart f5 p28)
116: (up f5 f137)
117: (board f137 p29)
118: (down f137 f18)
119: (depart f18 p29)
120: (up f18 f112)
121: (board f112 p30)
122: (up f112 f122)
123: (depart f122 p30)
124: (down f122 f48)
125: (board f48 p31)
126: (up f48 f78)
127: (depart f78 p31)
128: (up f78 f152)
129: (board f152 p32)
130: (up f152 f191)
131: (depart f191 p32)
132: (down f191 f122)
133: (board f122 p33)
134: (down f122 f27)
135: (depart f27 p33)
136: (up f27 f192)
137: (board f192 p34)
138: (down f192 f133)
139: (depart f133 p34)
140: (up f133 f181)
141: (board f181 p35)
142: (down f181 f123)
143: (depart f123 p35)
144: (up f123 f129)
145: (board f129 p36)
146: (down f129 f121)
147: (depart f121 p36)
148: (down f121 f18)
149: (board f18 p37)
150: (up f18 f158)
151: (depart f158 p37)
152: (down f158 f118)
153: (board f118 p38)
154: (down f118 f42)
155: (depart f42 p38)
156: (up f42 f63)
157: (board f63 p39)
158: (up f63 f104)
159: (depart f104 p39)
160: (up f104 f142)
161: (board f142 p40)
162: (up f142 f185)
163: (depart f185 p40)
164: (down f185 f134)
165: (board f134 p41)
166: (up f134 f174)
167: (depart f174 p41)
168: (down f174 f140)
169: (board f140 p42)
170: (down f140 f62)
171: (depart f62 p42)
172: (up f62 f184)
173: (board f184 p43)
174: (up f184 f188)
175: (depart f188 p43)
176: (down f188 f38)
177: (board f38 p44)
178: (down f38 f37)
179: (depart f37 p44)
180: (down f37 f24)
181: (board f24 p45)
182: (up f24 f47)
183: (depart f47 p45)
184: (up f47 f50)
185: (board f50 p46)
186: (up f50 f178)
187: (depart f178 p46)
188: (up f178 f198)
189: (board f198 p47)
190: (down f198 f86)
191: (depart f86 p47)
192: (down f86 f58)
193: (board f58 p48)
194: (up f58 f146)
195: (depart f146 p48)
196: (up f146 f180)
197: (board f180 p49)
198: (down f180 f77)
199: (depart f77 p49)


