
Compact plan:
0: (up f0 f15)
1: (board f15 p0)
2: (up f15 f39)
3: (depart f39 p0)
4: (down f39 f18)
5: (board f18 p1)
6: (down f18 f2)
7: (depart f2 p1)
8: (up f2 f36)
9: (board f36 p2)
10: (down f36 f30)
11: (depart f30 p2)
12: (down f30 f22)
13: (board f22 p3)
14: (down f22 f11)
15: (depart f11 p3)
16: (up f11 f45)
17: (board f45 p4)
18: (down f45 f33)
19: (depart f33 p4)
20: (down f33 f32)
21: (board f32 p5)
22: (up f32 f38)
23: (depart f38 p5)
24: (down f38 f13)
25: (board f13 p6)
26: (up f13 f38)
27: (depart f38 p6)
28: (down f38 f3)
29: (board f3 p7)
30: (up f3 f30)
31: (depart f30 p7)
32: (up f30 f45)
33: (board f45 p8)
34: (down f45 f44)
35: (depart f44 p8)
36: (down f44 f25)
37: (board f25 p9)
38: (down f25 f7)
39: (depart f7 p9)
40: (down f7 f1)
41: (board f1 p10)
42: (up f1 f42)
43: (depart f42 p10)
44: (down f42 f1)
45: (board f1 p11)
46: (up f1 f28)
47: (depart f28 p11)
48: (up f28 f42)
49: (board f42 p12)
50: (down f42 f27)
51: (depart f27 p12)
52: (up f27 f40)
53: (board f40 p13)
54: (down f40 f39)
55: (depart f39 p13)
56: (down f39 f7)
57: (board f7 p14)
58: (up f7 f26)
59: (depart f26 p14)
60: (up f26 f30)
61: (board f30 p15)
62: (up f30 f39)
63: (depart f39 p15)
64: (down f39 f17)
65: (board f17 p16)
66: (down f17 f0)
67: (depart f0 p16)
68: (up f0 f41)
69: (board f41 p17)
70: (down f41 f21)
71: (depart f21 p17)
72: (up f21 f47)
73: (board f47 p18)
74: (down f47 f32)
75: (depart f32 p18)
76: (down f32 f0)
77: (board f0 p19)
78: (up f0 f44)
79: (depart f44 p19)
80: (down f44 f33)
81: (board f33 p20)
82: (down f33 f32)
83: (depart f32 p20)
84: (down f32 f2)
85: (board f2 p21)
86: (up f2 f46)
87: (depart f46 p21)
88: (down f46 f38)
89: (board f38 p22)
90: (down f38 f5)
91: (depart f5 p22)
92: (up f5 f44)
93: (board f44 p23)
94: (down f44 f3)
95: (depart f3 p23)


