
Compact plan:
0: (up f0 f7)
1: (board f7 p0)
2: (down f7 f2)
3: (depart f2 p0)
4: (board f2 p1)
5: (up f2 f4)
6: (depart f4 p1)
7: (up f4 f6)
8: (board f6 p2)
9: (down f6 f3)
10: (depart f3 p2)
11: (up f3 f5)
12: (board f5 p3)
13: (down f5 f1)
14: (depart f1 p3)


