
Compact plan:
0: (up f0 f15)
1: (board f15 p0)
2: (up f15 f46)
3: (depart f46 p0)
4: (down f46 f9)
5: (board f9 p1)
6: (up f9 f19)
7: (depart f19 p1)
8: (down f19 f1)
9: (board f1 p2)
10: (up f1 f31)
11: (depart f31 p2)
12: (down f31 f10)
13: (board f10 p3)
14: (up f10 f44)
15: (depart f44 p3)
16: (down f44 f1)
17: (board f1 p4)
18: (up f1 f45)
19: (depart f45 p4)
20: (down f45 f2)
21: (board f2 p5)
22: (up f2 f19)
23: (depart f19 p5)
24: (up f19 f34)
25: (board f34 p6)
26: (down f34 f11)
27: (depart f11 p6)
28: (up f11 f27)
29: (board f27 p7)
30: (down f27 f14)
31: (depart f14 p7)
32: (up f14 f52)
33: (board f52 p8)
34: (down f52 f50)
35: (depart f50 p8)
36: (down f50 f44)
37: (board f44 p9)
38: (down f44 f16)
39: (depart f16 p9)
40: (down f16 f3)
41: (board f3 p10)
42: (down f3 f0)
43: (depart f0 p10)
44: (up f0 f47)
45: (board f47 p11)
46: (down f47 f37)
47: (depart f37 p11)
48: (down f37 f30)
49: (board f30 p12)
50: (down f30 f26)
51: (depart f26 p12)
52: (up f26 f54)
53: (board f54 p13)
54: (down f54 f27)
55: (depart f27 p13)
56: (up f27 f43)
57: (board f43 p14)
58: (up f43 f47)
59: (depart f47 p14)
60: (down f47 f33)
61: (board f33 p15)
62: (up f33 f42)
63: (depart f42 p15)
64: (down f42 f38)
65: (board f38 p16)
66: (down f38 f26)
67: (depart f26 p16)
68: (up f26 f45)
69: (board f45 p17)
70: (down f45 f23)
71: (depart f23 p17)
72: (down f23 f1)
73: (board f1 p18)
74: (down f1 f0)
75: (depart f0 p18)
76: (up f0 f51)
77: (board f51 p19)
78: (down f51 f2)
79: (depart f2 p19)
80: (up f2 f29)
81: (board f29 p20)
82: (up f29 f53)
83: (depart f53 p20)
84: (down f53 f5)
85: (board f5 p21)
86: (up f5 f7)
87: (depart f7 p21)
88: (up f7 f48)
89: (board f48 p22)
90: (down f48 f17)
91: (depart f17 p22)
92: (down f17 f6)
93: (board f6 p23)
94: (up f6 f44)
95: (depart f44 p23)
96: (up f44 f51)
97: (board f51 p24)
98: (down f51 f50)
99: (depart f50 p24)
100: (down f50 f45)
101: (board f45 p25)
102: (up f45 f54)
103: (depart f54 p25)
104: (down f54 f35)
105: (board f35 p26)
106: (up f35 f36)
107: (depart f36 p26)
108: (board f36 p27)
109: (down f36 f9)
110: (depart f9 p27)


