Childsnack 01 T-REX -i {-P,-b8192}
Childsnack 02 T-REX -i {-P,-b8192}
Childsnack 03 T-REX -i {-P,-b8192}
Childsnack 04 T-REX -i {-P,-b8192}
Childsnack 05 T-REX -i {-P,-b8192}
Childsnack 06 T-REX -i {-P,-b8192}
Childsnack 07 T-REX -i {-P,-b8192}
Childsnack 08 T-REX -i {-P,-b8192}
Childsnack 09 T-REX -i {-P,-b8192}
Childsnack 10 T-REX -i {-P,-b8192}
Childsnack 11 T-REX -i {-P,-b8192}
Childsnack 12 T-REX -i {-P,-b8192}
Childsnack 13 T-REX -i {-P,-b8192}
Childsnack 14 T-REX -i {-P,-b8192}
Childsnack 15 T-REX -i {-P,-b8192}
Childsnack 16 T-REX -i {-P,-b8192}
Childsnack 17 T-REX -i {-P,-b8192}
Childsnack 18 T-REX -i {-P,-b8192}
Childsnack 19 T-REX -i {-P,-b8192}
Childsnack 20 T-REX -i {-P,-b8192}
