
Compact plan:
0: (up f0 f19)
1: (board f19 p0)
2: (down f19 f0)
3: (depart f0 p0)
4: (up f0 f4)
5: (board f4 p1)
6: (up f4 f18)
7: (depart f18 p1)
8: (down f18 f9)
9: (board f9 p2)
10: (down f9 f6)
11: (depart f6 p2)
12: (up f6 f14)
13: (board f14 p3)
14: (down f14 f7)
15: (depart f7 p3)
16: (up f7 f15)
17: (board f15 p4)
18: (down f15 f2)
19: (depart f2 p4)
20: (up f2 f11)
21: (board f11 p5)
22: (down f11 f7)
23: (depart f7 p5)
24: (down f7 f2)
25: (board f2 p6)
26: (up f2 f18)
27: (depart f18 p6)
28: (down f18 f6)
29: (board f6 p7)
30: (down f6 f1)
31: (depart f1 p7)
32: (up f1 f15)
33: (board f15 p8)
34: (down f15 f12)
35: (depart f12 p8)
36: (down f12 f0)
37: (board f0 p9)
38: (up f0 f1)
39: (depart f1 p9)
40: (up f1 f8)
41: (board f8 p10)
42: (up f8 f16)
43: (depart f16 p10)
44: (down f16 f0)
45: (board f0 p11)
46: (up f0 f17)
47: (depart f17 p11)


