
Compact plan:
0: (unstack b27 b11)
1: (put-down b27)
2: (unstack b11 b29)
3: (put-down b11)
4: (unstack b2 b14)
5: (put-down b2)
6: (unstack b14 b20)
7: (put-down b14)
8: (unstack b20 b28)
9: (put-down b20)
10: (unstack b29 b8)
11: (stack b29 b20)
12: (pick-up b27)
13: (stack b27 b29)
14: (pick-up b2)
15: (stack b2 b27)
16: (pick-up b5)
17: (stack b5 b2)
18: (unstack b8 b9)
19: (put-down b8)
20: (unstack b9 b16)
21: (put-down b9)
22: (unstack b16 b1)
23: (put-down b16)
24: (pick-up b1)
25: (stack b1 b16)
26: (unstack b12 b23)
27: (put-down b12)
28: (unstack b23 b13)
29: (put-down b23)
30: (unstack b13 b25)
31: (stack b13 b1)
32: (pick-up b14)
33: (stack b14 b13)
34: (pick-up b8)
35: (stack b8 b14)
36: (pick-up b9)
37: (stack b9 b8)
38: (unstack b28 b26)
39: (put-down b28)
40: (unstack b26 b24)
41: (put-down b26)
42: (unstack b24 b3)
43: (put-down b24)
44: (unstack b3 b10)
45: (put-down b3)
46: (pick-up b10)
47: (stack b10 b28)
48: (unstack b25 b15)
49: (put-down b25)
50: (unstack b15 b6)
51: (put-down b15)
52: (unstack b6 b4)
53: (put-down b6)
54: (unstack b4 b17)
55: (put-down b4)
56: (unstack b17 b22)
57: (stack b17 b4)
58: (pick-up b15)
59: (stack b15 b17)
60: (pick-up b6)
61: (stack b6 b15)
62: (pick-up b18)
63: (stack b18 b6)
64: (pick-up b19)
65: (stack b19 b18)
66: (pick-up b11)
67: (stack b11 b19)
68: (pick-up b24)
69: (stack b24 b12)
70: (unstack b7 b21)
71: (put-down b7)
72: (pick-up b21)
73: (stack b21 b24)
74: (pick-up b25)
75: (stack b25 b21)
76: (pick-up b23)
77: (stack b23 b26)
78: (pick-up b22)
79: (stack b22 b23)


