htn_pb01       88       97       63       88     0,04     0,00    0,01     0,05     0,00     0,00       33    20       282        106        106 
htn_pb02       98      101       70       96     0,04     0,00    0,01     0,05     0,00     0,00       33    20       250        108        108 
htn_pb03      136      149       94      141     0,05     0,00    0,01     0,06     0,00     0,00       34    16       816        221        207 
htn_pb04      154      216      151      205     0,05     0,00    0,01     0,07     0,00     0,00       87    52       816        272        263 
htn_pb05      272      556      342      724     0,09     0,00    0,02     0,11     0,00     0,00      123    83      4520        894        894 
htn_pb06      274      690      374     1057     0,12     0,00    0,02     0,14     0,00     0,00      106    71     10208       1528       1507 
htn_pb07      312     1006      547     1730     0,16     0,00    0,02     0,18     0,00     0,00      140    92     18352       2208       2181 
htn_pb08      440     1378      697     2503     0,21     0,00    0,03     0,24     0,00     0,00      281   188     30704       2934       2934 
htn_pb09      864     4463     1867     9950     0,82     0,00    0,04     0,86     0,00     0,00      376   206    207552      11195      11117 
htn_pb10     1108     9291     4012    21710     1,76     0,00    0,10     1,86     0,00     0,00      683   398    518728      25885      25820 
htn_pb11     1390    13673     6012    32400     2,83     0,00    0,08     2,91     0,00     0,00      522   275    977202      36381      36103 
htn_pb12     1472    13378     4010    35998     2,86     0,00    0,07     2,94     0,00     0,00      500   298    987800      41158      40900 
htn_pb13     1382    11775     4353    29672     2,80     0,00    0,10     2,90     0,00     0,00     1136   601    938048      34082      33665 
htn_pb14     1788    17684     5019    49792     4,03     0,00    0,10     4,13     0,00     0,00      692   389   1676350      54675      54527 
htn_pb15     1912    20226     7288    53081     4,81     0,00    0,11     4,92     0,00     0,00      843   428   2005888      60028      59068 
htn_pb16     2048    26187     9854    67990     5,73     0,00    0,13     5,86     0,00     0,00      849   434   2418600      78490      77846 
htn_pb17     2234    30476     9742    84710     7,31     0,00    0,13     7,44     0,00     0,00      882   413   3354050      94839      94471 
htn_pb18     2610    36441    10530   104526     9,41     0,00    0,19     9,60     0,00     0,00     1334   597   4473200     114282     114282 
htn_pb19     3376    58607    14869   177131    18,35     0,00    0,31    18,66     0,00     0,00     2621   990   9467568     194204     193236 
htn_pb20     3530    65690    14597   205377    21,42     0,00    0,36    21,79     0,00     0,00     2596  1084  11389068     222747     221302 
htn_pb21     4218    76739    17361   238870    26,99     0,00    0,23    27,22     0,00     0,00     2384   919  14528088     256719     254912 
htn_pb22     3962    88011    19610   277748    32,89     0,00    0,56    33,45     0,00     0,00     5476  1817  17857188     297196     296576 
htn_pb23     6574   173336    32810   568850    73,75     0,00    1,33    75,08     0,00     0,00     8143  2099  46980192     601153     597543 
