Command : ./interpreter_t-rex_binary_haribo -P -b8192 -i f.cnf 
[0.000] This is T-REX interpreter, prototype version 04/2018.
[0.000] Reading problem encoding from file "f.cnf".
[0.001] Parsed head comment information.
[0.015] Processed problem encoding.
[0.015] Calculated possible fact changes of composite elements.
[0.017] Initialized instantiation procedure.
[0.017] 
[0.017] *************************************
[0.017] * * *   M a k e s p a n     0   * * *
[0.017] *************************************
[0.021] Instantiated 4,591 initial clauses.
[0.021] The encoding contains a total of 2,669 distinct variables.
[0.021] Attempting solve with solver <glucose4> ...
c 60 assumptions
[0.021] Executed solver; result: UNSAT.
[0.021] 
[0.021] *************************************
[0.021] * * *   M a k e s p a n     1   * * *
[0.021] *************************************
[0.027] Computed next depth properties: array size of 223.
[0.029] Instantiated 1,068 transitional clauses.
[0.041] Instantiated 9,606 universal clauses.
[0.041] Instantiated and added clauses for a total of 15,265 clauses.
[0.041] The encoding contains a total of 7,176 distinct variables.
[0.041] Attempting solve with solver <glucose4> ...
c 223 assumptions
[0.041] Executed solver; result: UNSAT.
[0.041] 
[0.041] *************************************
[0.041] * * *   M a k e s p a n     2   * * *
[0.041] *************************************
[0.057] Computed next depth properties: array size of 673.
[0.062] Instantiated 3,060 transitional clauses.
[0.089] Instantiated 37,462 universal clauses.
[0.089] Instantiated and added clauses for a total of 55,787 clauses.
[0.089] The encoding contains a total of 16,355 distinct variables.
[0.089] Attempting solve with solver <glucose4> ...
c 673 assumptions
c last restart ## conflicts  :  52 799 
[0.107] Executed solver; result: SAT.
[0.107] Solver returned SAT; a solution has been found at makespan 2.
672
solution 1260 1
2 124 448 449 122 803 446 120 986 1036 1037 1038 988 989 5 129 459 460 131 809 455 127 991 1116 1175 1117 993 994 7 135 467 468 137 813 463 133 991 1064 1177 1065 993 994 9 143 475 476 141 817 471 139 991 1140 1179 1141 993 994 11 149 481 482 147 821 485 145 991 1092 1181 1093 993 994 12 152 486 487 154 823 492 150 986 1082 1182 1083 988 989 14 158 496 497 160 827 494 156 986 1020 1184 1021 988 989 16 164 502 503 166 831 508 162 986 1032 1186 1033 988 989 18 172 512 513 170 835 510 168 986 1066 1188 1067 988 989 20 178 518 519 176 840 839 174 986 1074 1190 1075 988 989 22 182 526 527 184 845 524 180 986 1130 1192 1131 988 989 25 188 537 538 191 851 533 189 991 1124 1195 1125 993 994 26 196 540 541 192 853 546 193 986 1098 1196 1099 988 989 28 202 548 549 200 857 554 198 986 1054 1198 1055 988 989 30 208 556 557 206 861 562 204 986 1004 1200 1005 988 989 32 214 564 565 212 865 570 210 986 1042 1202 1043 988 989 34 220 574 575 218 869 572 216 986 1158 1204 1159 988 989 36 222 582 583 226 873 580 223 986 1094 1206 1095 988 989 38 232 588 589 230 878 877 228 986 1126 1208 1127 988 989 40 236 596 597 238 883 594 234 986 1028 1210 1029 988 989 42 242 602 603 244 887 608 240 986 1086 1212 1087 988 989 44 250 610 611 248 891 616 246 986 1150 1214 1151 988 989 46 254 618 619 256 895 624 252 986 1000 1216 1001 988 989 48 262 626 627 260 899 632 258 986 1058 1218 1059 988 989 50 266 636 637 268 903 634 264 986 1024 1220 1025 988 989 52 274 644 645 272 907 642 270 986 1146 1222 1147 988 989 54 280 650 651 278 911 656 276 986 1046 1224 1047 988 989 56 284 660 661 286 915 658 282 986 1050 1226 1051 988 989 58 292 666 667 290 919 672 288 986 1008 1228 1009 988 989 60 298 674 675 296 923 680 294 986 1170 1230 1171 988 989 62 304 682 683 302 927 688 300 986 987 1232 990 988 989 65 311 693 694 309 933 697 307 991 1072 1235 1073 993 994 66 314 698 699 316 935 704 312 986 1012 1236 1013 988 989 68 320 708 709 322 939 706 318 986 1166 1238 1167 988 989 70 326 714 715 328 943 720 324 986 996 1240 997 988 989 72 330 724 725 334 947 722 331 986 1154 1242 1155 988 989 74 338 730 731 340 951 736 336 986 1118 1244 1119 988 989 76 344 740 741 346 955 738 342 986 1162 1246 1163 988 989 78 350 748 749 352 959 746 348 986 1106 1248 1107 988 989 80 356 754 755 358 963 760 354 986 1016 1250 1017 988 989 82 364 762 763 362 967 768 360 986 1110 1252 1111 988 989 84 370 770 771 368 971 776 366 986 1134 1254 1135 988 989 86 376 780 781 374 975 778 372 986 1142 1256 1143 988 989 88 382 786 787 378 979 792 379 986 1078 1258 1079 988 989 90 388 794 795 386 983 800 384 986 1102 1260 1103 988 989 92 392 390 94 396 394 97 401 399 98 404 402 100 408 406 102 412 410 104 416 414 106 420 418 108 424 422 110 428 426 112 432 430 114 436 434 116 440 438 118 444 442 
[0.109] Exiting.
