
Compact plan:
0: (up f0 f9)
1: (board f9 p0)
2: (up f9 f40)
3: (depart f40 p0)
4: (down f40 f38)
5: (board f38 p1)
6: (down f38 f34)
7: (depart f34 p1)
8: (down f34 f9)
9: (board f9 p2)
10: (up f9 f18)
11: (depart f18 p2)
12: (up f18 f26)
13: (board f26 p3)
14: (down f26 f16)
15: (depart f16 p3)
16: (up f16 f29)
17: (board f29 p4)
18: (down f29 f7)
19: (depart f7 p4)
20: (up f7 f12)
21: (board f12 p5)
22: (up f12 f33)
23: (depart f33 p5)
24: (down f33 f25)
25: (board f25 p6)
26: (up f25 f34)
27: (depart f34 p6)
28: (up f34 f40)
29: (board f40 p7)
30: (down f40 f6)
31: (depart f6 p7)
32: (down f6 f1)
33: (board f1 p8)
34: (up f1 f25)
35: (depart f25 p8)
36: (down f25 f24)
37: (board f24 p9)
38: (up f24 f38)
39: (depart f38 p9)
40: (up f38 f45)
41: (board f45 p10)
42: (down f45 f10)
43: (depart f10 p10)
44: (up f10 f14)
45: (board f14 p11)
46: (up f14 f45)
47: (depart f45 p11)
48: (down f45 f15)
49: (board f15 p12)
50: (up f15 f26)
51: (depart f26 p12)
52: (up f26 f40)
53: (board f40 p13)
54: (up f40 f45)
55: (depart f45 p13)
56: (down f45 f1)
57: (board f1 p14)
58: (up f1 f14)
59: (depart f14 p14)
60: (down f14 f3)
61: (board f3 p15)
62: (up f3 f41)
63: (depart f41 p15)
64: (down f41 f6)
65: (board f6 p16)
66: (up f6 f31)
67: (depart f31 p16)
68: (up f31 f45)
69: (board f45 p17)
70: (down f45 f25)
71: (depart f25 p17)
72: (down f25 f11)
73: (board f11 p18)
74: (up f11 f15)
75: (depart f15 p18)
76: (down f15 f2)
77: (board f2 p19)
78: (up f2 f18)
79: (depart f18 p19)
80: (up f18 f21)
81: (board f21 p20)
82: (up f21 f30)
83: (depart f30 p20)
84: (up f30 f38)
85: (board f38 p21)
86: (down f38 f9)
87: (depart f9 p21)
88: (up f9 f24)
89: (board f24 p22)
90: (up f24 f44)
91: (depart f44 p22)


