
Compact plan:
0: (up f0 f17)
1: (board f17 p0)
2: (up f17 f191)
3: (depart f191 p0)
4: (down f191 f19)
5: (board f19 p1)
6: (up f19 f139)
7: (depart f139 p1)
8: (down f139 f1)
9: (board f1 p2)
10: (up f1 f160)
11: (depart f160 p2)
12: (down f160 f94)
13: (board f94 p3)
14: (down f94 f90)
15: (depart f90 p3)
16: (down f90 f76)
17: (board f76 p4)
18: (up f76 f112)
19: (depart f112 p4)
20: (up f112 f151)
21: (board f151 p5)
22: (down f151 f32)
23: (depart f32 p5)
24: (up f32 f57)
25: (board f57 p6)
26: (up f57 f130)
27: (depart f130 p6)
28: (up f130 f168)
29: (board f168 p7)
30: (down f168 f91)
31: (depart f91 p7)
32: (down f91 f47)
33: (board f47 p8)
34: (up f47 f188)
35: (depart f188 p8)
36: (down f188 f44)
37: (board f44 p9)
38: (up f44 f95)
39: (depart f95 p9)
40: (up f95 f169)
41: (board f169 p10)
42: (down f169 f156)
43: (depart f156 p10)
44: (up f156 f199)
45: (board f199 p11)
46: (down f199 f192)
47: (depart f192 p11)
48: (down f192 f168)
49: (board f168 p12)
50: (down f168 f108)
51: (depart f108 p12)
52: (up f108 f144)
53: (board f144 p13)
54: (up f144 f183)
55: (depart f183 p13)
56: (up f183 f185)
57: (board f185 p14)
58: (up f185 f193)
59: (depart f193 p14)
60: (down f193 f13)
61: (board f13 p15)
62: (up f13 f175)
63: (depart f175 p15)
64: (down f175 f156)
65: (board f156 p16)
66: (down f156 f74)
67: (depart f74 p16)
68: (up f74 f89)
69: (board f89 p17)
70: (down f89 f65)
71: (depart f65 p17)
72: (up f65 f167)
73: (board f167 p18)
74: (down f167 f52)
75: (depart f52 p18)
76: (up f52 f85)
77: (board f85 p19)
78: (down f85 f29)
79: (depart f29 p19)
80: (down f29 f10)
81: (board f10 p20)
82: (up f10 f60)
83: (depart f60 p20)
84: (up f60 f112)
85: (board f112 p21)
86: (down f112 f43)
87: (depart f43 p21)
88: (up f43 f120)
89: (board f120 p22)
90: (down f120 f48)
91: (depart f48 p22)
92: (up f48 f190)
93: (board f190 p23)
94: (down f190 f136)
95: (depart f136 p23)
96: (down f136 f49)
97: (board f49 p24)
98: (up f49 f148)
99: (depart f148 p24)
100: (up f148 f161)
101: (board f161 p25)
102: (down f161 f83)
103: (depart f83 p25)
104: (up f83 f125)
105: (board f125 p26)
106: (up f125 f143)
107: (depart f143 p26)
108: (down f143 f69)
109: (board f69 p27)
110: (up f69 f194)
111: (depart f194 p27)
112: (down f194 f61)
113: (board f61 p28)
114: (up f61 f119)
115: (depart f119 p28)
116: (up f119 f124)
117: (board f124 p29)
118: (up f124 f147)
119: (depart f147 p29)
120: (down f147 f55)
121: (board f55 p30)
122: (down f55 f24)
123: (depart f24 p30)
124: (up f24 f98)
125: (board f98 p31)
126: (down f98 f2)
127: (depart f2 p31)
128: (up f2 f72)
129: (board f72 p32)
130: (up f72 f122)
131: (depart f122 p32)
132: (down f122 f109)
133: (board f109 p33)
134: (down f109 f102)
135: (depart f102 p33)
136: (down f102 f66)
137: (board f66 p34)
138: (down f66 f0)
139: (depart f0 p34)
140: (up f0 f117)
141: (board f117 p35)
142: (down f117 f11)
143: (depart f11 p35)
144: (up f11 f13)
145: (board f13 p36)
146: (up f13 f129)
147: (depart f129 p36)
148: (up f129 f187)
149: (board f187 p37)
150: (up f187 f188)
151: (depart f188 p37)
152: (down f188 f93)
153: (board f93 p38)
154: (up f93 f168)
155: (depart f168 p38)
156: (down f168 f37)
157: (board f37 p39)
158: (up f37 f47)
159: (depart f47 p39)
160: (up f47 f134)
161: (board f134 p40)
162: (down f134 f6)
163: (depart f6 p40)
164: (up f6 f102)
165: (board f102 p41)
166: (down f102 f75)
167: (depart f75 p41)
168: (up f75 f144)
169: (board f144 p42)
170: (down f144 f99)
171: (depart f99 p42)
172: (up f99 f140)
173: (board f140 p43)
174: (down f140 f110)
175: (depart f110 p43)
176: (up f110 f196)
177: (board f196 p44)
178: (down f196 f84)
179: (depart f84 p44)
180: (up f84 f188)
181: (board f188 p45)
182: (down f188 f64)
183: (depart f64 p45)
184: (up f64 f97)
185: (board f97 p46)
186: (down f97 f52)
187: (depart f52 p46)
188: (up f52 f80)
189: (board f80 p47)
190: (down f80 f23)
191: (depart f23 p47)
192: (up f23 f160)
193: (board f160 p48)
194: (down f160 f74)
195: (depart f74 p48)
196: (up f74 f126)
197: (board f126 p49)
198: (down f126 f43)
199: (depart f43 p49)
200: (down f43 f13)
201: (board f13 p50)
202: (up f13 f88)
203: (depart f88 p50)
204: (down f88 f79)
205: (board f79 p51)
206: (up f79 f124)
207: (depart f124 p51)
208: (down f124 f87)
209: (board f87 p52)
210: (up f87 f119)
211: (depart f119 p52)
212: (up f119 f144)
213: (board f144 p53)
214: (up f144 f156)
215: (depart f156 p53)
216: (down f156 f85)
217: (board f85 p54)
218: (down f85 f13)
219: (depart f13 p54)
220: (up f13 f95)
221: (board f95 p55)
222: (up f95 f186)
223: (depart f186 p55)
224: (down f186 f45)
225: (board f45 p56)
226: (up f45 f86)
227: (depart f86 p56)
228: (up f86 f132)
229: (board f132 p57)
230: (down f132 f87)
231: (depart f87 p57)
232: (up f87 f117)
233: (board f117 p58)
234: (down f117 f83)
235: (depart f83 p58)
236: (up f83 f179)
237: (board f179 p59)
238: (down f179 f54)
239: (depart f54 p59)
240: (up f54 f133)
241: (board f133 p60)
242: (down f133 f44)
243: (depart f44 p60)
244: (up f44 f72)
245: (board f72 p61)
246: (down f72 f43)
247: (depart f43 p61)
248: (up f43 f100)
249: (board f100 p62)
250: (down f100 f57)
251: (depart f57 p62)
252: (down f57 f14)
253: (board f14 p63)
254: (up f14 f164)
255: (depart f164 p63)
256: (down f164 f22)
257: (board f22 p64)
258: (up f22 f90)
259: (depart f90 p64)
260: (down f90 f22)
261: (board f22 p65)
262: (up f22 f67)
263: (depart f67 p65)
264: (up f67 f91)
265: (board f91 p66)
266: (down f91 f40)
267: (depart f40 p66)
268: (down f40 f11)
269: (board f11 p67)
270: (up f11 f66)
271: (depart f66 p67)
272: (up f66 f191)
273: (board f191 p68)
274: (down f191 f7)
275: (depart f7 p68)
276: (up f7 f102)
277: (board f102 p69)
278: (up f102 f120)
279: (depart f120 p69)
280: (up f120 f185)
281: (board f185 p70)
282: (down f185 f55)
283: (depart f55 p70)
284: (down f55 f13)
285: (board f13 p71)
286: (down f13 f11)
287: (depart f11 p71)
288: (up f11 f172)
289: (board f172 p72)
290: (down f172 f42)
291: (depart f42 p72)
292: (up f42 f174)
293: (board f174 p73)
294: (up f174 f194)
295: (depart f194 p73)
296: (down f194 f175)
297: (board f175 p74)
298: (down f175 f145)
299: (depart f145 p74)
300: (down f145 f112)
301: (board f112 p75)
302: (up f112 f153)
303: (depart f153 p75)
304: (down f153 f109)
305: (board f109 p76)
306: (down f109 f58)
307: (depart f58 p76)
308: (up f58 f77)
309: (board f77 p77)
310: (down f77 f64)
311: (depart f64 p77)
312: (down f64 f12)
313: (board f12 p78)
314: (up f12 f121)
315: (depart f121 p78)
316: (up f121 f190)
317: (board f190 p79)
318: (down f190 f107)
319: (depart f107 p79)
320: (up f107 f124)
321: (board f124 p80)
322: (down f124 f76)
323: (depart f76 p80)
324: (up f76 f184)
325: (board f184 p81)
326: (down f184 f113)
327: (depart f113 p81)
328: (down f113 f84)
329: (board f84 p82)
330: (up f84 f182)
331: (depart f182 p82)
332: (down f182 f129)
333: (board f129 p83)
334: (down f129 f42)
335: (depart f42 p83)
336: (up f42 f159)
337: (board f159 p84)
338: (down f159 f41)
339: (depart f41 p84)
340: (up f41 f124)
341: (board f124 p85)
342: (down f124 f2)
343: (depart f2 p85)
344: (up f2 f133)
345: (board f133 p86)
346: (up f133 f192)
347: (depart f192 p86)
348: (down f192 f46)
349: (board f46 p87)
350: (up f46 f152)
351: (depart f152 p87)
352: (down f152 f12)
353: (board f12 p88)
354: (up f12 f102)
355: (depart f102 p88)
356: (up f102 f103)
357: (board f103 p89)
358: (up f103 f157)
359: (depart f157 p89)
360: (down f157 f102)
361: (board f102 p90)
362: (up f102 f131)
363: (depart f131 p90)
364: (up f131 f157)
365: (board f157 p91)
366: (down f157 f114)
367: (depart f114 p91)
368: (down f114 f111)
369: (board f111 p92)
370: (down f111 f9)
371: (depart f9 p92)
372: (up f9 f191)
373: (board f191 p93)
374: (down f191 f161)
375: (depart f161 p93)
376: (down f161 f60)
377: (board f60 p94)
378: (up f60 f149)
379: (depart f149 p94)
380: (down f149 f146)
381: (board f146 p95)
382: (down f146 f36)
383: (depart f36 p95)
384: (up f36 f42)
385: (board f42 p96)
386: (up f42 f62)
387: (depart f62 p96)
388: (up f62 f185)
389: (board f185 p97)
390: (down f185 f147)
391: (depart f147 p97)
392: (down f147 f108)
393: (board f108 p98)
394: (up f108 f172)
395: (depart f172 p98)
396: (up f172 f184)
397: (board f184 p99)
398: (down f184 f134)
399: (depart f134 p99)


