Command : ./interpreter_t-rex_binary_haribo -P -b8192 -i f.cnf 
[0.000] This is T-REX interpreter, prototype version 04/2018.
[0.000] Reading problem encoding from file "f.cnf".
[0.001] Parsed head comment information.
[0.021] Processed problem encoding.
[0.022] Calculated possible fact changes of composite elements.
[0.025] Initialized instantiation procedure.
[0.025] 
[0.025] *************************************
[0.025] * * *   M a k e s p a n     0   * * *
[0.025] *************************************
[0.031] Instantiated 5,681 initial clauses.
[0.031] The encoding contains a total of 3,289 distinct variables.
[0.031] Attempting solve with solver <glucose4> ...
c 70 assumptions
[0.031] Executed solver; result: UNSAT.
[0.031] 
[0.031] *************************************
[0.031] * * *   M a k e s p a n     1   * * *
[0.031] *************************************
[0.041] Computed next depth properties: array size of 268.
[0.044] Instantiated 1,308 transitional clauses.
[0.062] Instantiated 11,286 universal clauses.
[0.062] Instantiated and added clauses for a total of 18,275 clauses.
[0.062] The encoding contains a total of 8,801 distinct variables.
[0.062] Attempting solve with solver <glucose4> ...
c 268 assumptions
[0.063] Executed solver; result: UNSAT.
[0.063] 
[0.063] *************************************
[0.063] * * *   M a k e s p a n     2   * * *
[0.063] *************************************
[0.089] Computed next depth properties: array size of 868.
[0.094] Instantiated 4,080 transitional clauses.
[0.136] Instantiated 49,452 universal clauses.
[0.136] Instantiated and added clauses for a total of 71,807 clauses.
[0.136] The encoding contains a total of 21,010 distinct variables.
[0.136] Attempting solve with solver <glucose4> ...
c 868 assumptions
c last restart ## conflicts  :  52 994 
[0.157] Executed solver; result: SAT.
[0.157] Solver returned SAT; a solution has been found at makespan 2.
867
solution 1620 1
2 144 538 539 142 1017 536 140 1256 1322 1323 1324 1258 1259 5 151 549 550 149 1023 545 147 1261 1490 1505 1491 1263 1264 7 155 555 556 157 1027 559 153 1261 1410 1507 1411 1263 1264 8 158 560 561 162 1029 566 159 1256 1404 1508 1405 1258 1259 11 166 571 572 169 1035 575 167 1261 1288 1511 1289 1263 1264 12 174 578 579 172 1037 576 170 1256 1384 1512 1385 1258 1259 14 178 584 585 180 1041 590 176 1256 1310 1514 1311 1258 1259 16 184 592 593 186 1045 598 182 1256 1318 1516 1319 1258 1259 18 192 600 601 190 1049 606 188 1256 1302 1518 1303 1258 1259 20 198 610 611 194 1053 608 195 1256 1344 1520 1345 1258 1259 22 204 616 617 202 1057 622 200 1256 1400 1522 1401 1258 1259 24 210 626 627 208 1061 624 206 1256 1436 1524 1437 1258 1259 26 212 632 633 216 1065 638 213 1256 1496 1526 1497 1258 1259 28 220 642 643 222 1069 640 218 1256 1476 1528 1477 1258 1259 30 224 648 649 228 1073 654 225 1256 1388 1530 1389 1258 1259 32 234 658 659 232 1077 656 230 1256 1468 1532 1469 1258 1259 34 240 664 665 238 1081 670 236 1256 1440 1534 1441 1258 1259 36 244 674 675 246 1085 672 242 1256 1298 1536 1299 1258 1259 38 248 682 683 252 1089 680 249 1256 1340 1538 1341 1258 1259 40 256 688 689 258 1093 694 254 1256 1364 1540 1365 1258 1259 42 262 696 697 264 1097 702 260 1256 1420 1542 1421 1258 1259 44 270 706 707 266 1101 704 267 1256 1282 1544 1283 1258 1259 46 272 712 713 276 1105 718 273 1256 1278 1546 1279 1258 1259 48 280 720 721 282 1109 726 278 1256 1274 1548 1275 1258 1259 50 288 730 731 286 1113 728 284 1256 1396 1550 1397 1258 1259 53 295 741 742 293 1119 737 291 1261 1382 1553 1383 1263 1264 54 296 746 747 300 1121 744 297 1256 1424 1554 1425 1258 1259 56 304 752 753 306 1125 758 302 1256 1306 1556 1307 1258 1259 58 312 762 763 310 1129 760 308 1256 1460 1558 1461 1258 1259 60 318 770 771 314 1133 768 315 1256 1328 1560 1329 1258 1259 62 324 776 777 322 1137 782 320 1256 1336 1562 1337 1258 1259 64 326 784 785 330 1141 790 327 1256 1392 1564 1393 1258 1259 66 336 794 795 334 1145 792 332 1256 1432 1566 1433 1258 1259 68 338 800 801 342 1149 806 339 1256 1480 1568 1481 1258 1259 70 348 810 811 346 1153 808 344 1256 1448 1570 1449 1258 1259 72 354 818 819 352 1157 816 350 1256 1314 1572 1315 1258 1259 74 358 826 827 360 1161 824 356 1256 1294 1574 1295 1258 1259 76 366 832 833 364 1165 838 362 1256 1368 1576 1369 1258 1259 78 372 842 843 370 1169 840 368 1256 1416 1578 1417 1258 1259 80 374 848 849 378 1173 854 375 1256 1360 1580 1361 1258 1259 82 384 856 857 382 1177 862 380 1256 1492 1582 1493 1258 1259 84 390 864 865 388 1181 870 386 1256 1266 1584 1267 1258 1259 87 395 877 878 397 1187 873 393 1261 1378 1587 1379 1263 1264 88 400 880 881 402 1189 886 398 1256 1464 1588 1465 1258 1259 90 406 888 889 408 1193 894 404 1256 1348 1590 1349 1258 1259 92 412 896 897 414 1197 902 410 1256 1452 1592 1453 1258 1259 94 418 906 907 420 1201 904 416 1256 1444 1594 1445 1258 1259 96 424 912 913 426 1205 918 422 1256 1270 1596 1271 1258 1259 98 432 922 923 430 1209 920 428 1256 1484 1598 1485 1258 1259 100 438 930 931 436 1213 928 434 1256 1290 1600 1291 1258 1259 102 442 936 937 444 1217 942 440 1256 1257 1602 1260 1258 1259 104 448 944 945 450 1221 950 446 1256 1472 1604 1473 1258 1259 106 456 954 955 454 1225 952 452 1256 1352 1606 1353 1258 1259 108 460 960 961 462 1229 966 458 1256 1412 1608 1413 1258 1259 110 466 970 971 468 1233 968 464 1256 1372 1610 1373 1258 1259 112 474 978 979 472 1237 976 470 1256 1332 1612 1333 1258 1259 114 478 984 985 480 1241 990 476 1256 1428 1614 1429 1258 1259 116 484 994 995 486 1245 992 482 1256 1456 1616 1457 1258 1259 118 490 1000 1001 492 1249 1006 488 1256 1500 1618 1501 1258 1259 120 496 1008 1009 498 1253 1014 494 1256 1356 1620 1357 1258 1259 122 502 500 124 506 504 127 511 509 128 514 512 130 518 516 133 523 521 134 526 524 137 531 529 138 534 532 
[0.159] Exiting.
