
Compact plan:
0: (up f0 f15)
1: (board f15 p0)
2: (up f15 f31)
3: (depart f31 p0)
4: (down f31 f14)
5: (board f14 p1)
6: (up f14 f22)
7: (depart f22 p1)
8: (up f22 f40)
9: (board f40 p2)
10: (down f40 f26)
11: (depart f26 p2)
12: (up f26 f38)
13: (board f38 p3)
14: (up f38 f43)
15: (depart f43 p3)
16: (down f43 f21)
17: (board f21 p4)
18: (up f21 f37)
19: (depart f37 p4)
20: (down f37 f8)
21: (board f8 p5)
22: (up f8 f10)
23: (depart f10 p5)
24: (up f10 f17)
25: (board f17 p6)
26: (up f17 f30)
27: (depart f30 p6)
28: (up f30 f43)
29: (board f43 p7)
30: (down f43 f26)
31: (depart f26 p7)
32: (up f26 f41)
33: (board f41 p8)
34: (down f41 f16)
35: (depart f16 p8)
36: (down f16 f5)
37: (board f5 p9)
38: (up f5 f43)
39: (depart f43 p9)
40: (down f43 f41)
41: (board f41 p10)
42: (down f41 f38)
43: (depart f38 p10)
44: (down f38 f17)
45: (board f17 p11)
46: (down f17 f4)
47: (depart f4 p11)
48: (up f4 f18)
49: (board f18 p12)
50: (up f18 f27)
51: (depart f27 p12)
52: (down f27 f20)
53: (board f20 p13)
54: (up f20 f35)
55: (depart f35 p13)
56: (board f35 p14)
57: (down f35 f34)
58: (depart f34 p14)
59: (down f34 f6)
60: (board f6 p15)
61: (up f6 f27)
62: (depart f27 p15)
63: (down f27 f21)
64: (board f21 p16)
65: (down f21 f20)
66: (depart f20 p16)
67: (down f20 f5)
68: (board f5 p17)
69: (up f5 f37)
70: (depart f37 p17)
71: (down f37 f23)
72: (board f23 p18)
73: (down f23 f20)
74: (depart f20 p18)
75: (down f20 f12)
76: (board f12 p19)
77: (down f12 f0)
78: (depart f0 p19)
79: (up f0 f33)
80: (board f33 p20)
81: (down f33 f20)
82: (depart f20 p20)
83: (up f20 f30)
84: (board f30 p21)
85: (down f30 f6)
86: (depart f6 p21)


