
Compact plan:
0: (up f0 f40)
1: (board f40 p0)
2: (up f40 f555)
3: (depart f555 p0)
4: (down f555 f21)
5: (board f21 p1)
6: (up f21 f230)
7: (depart f230 p1)
8: (up f230 f310)
9: (board f310 p2)
10: (up f310 f598)
11: (depart f598 p2)
12: (down f598 f572)
13: (board f572 p3)
14: (down f572 f135)
15: (depart f135 p3)
16: (up f135 f525)
17: (board f525 p4)
18: (down f525 f490)
19: (depart f490 p4)
20: (down f490 f278)
21: (board f278 p5)
22: (down f278 f244)
23: (depart f244 p5)
24: (up f244 f351)
25: (board f351 p6)
26: (down f351 f331)
27: (depart f331 p6)
28: (up f331 f564)
29: (board f564 p7)
30: (down f564 f150)
31: (depart f150 p7)
32: (down f150 f10)
33: (board f10 p8)
34: (up f10 f19)
35: (depart f19 p8)
36: (up f19 f342)
37: (board f342 p9)
38: (down f342 f274)
39: (depart f274 p9)
40: (down f274 f246)
41: (board f246 p10)
42: (down f246 f50)
43: (depart f50 p10)
44: (up f50 f320)
45: (board f320 p11)
46: (up f320 f402)
47: (depart f402 p11)
48: (down f402 f77)
49: (board f77 p12)
50: (up f77 f162)
51: (depart f162 p12)
52: (down f162 f92)
53: (board f92 p13)
54: (up f92 f472)
55: (depart f472 p13)
56: (down f472 f208)
57: (board f208 p14)
58: (up f208 f211)
59: (depart f211 p14)
60: (up f211 f473)
61: (board f473 p15)
62: (down f473 f79)
63: (depart f79 p15)
64: (up f79 f331)
65: (board f331 p16)
66: (down f331 f111)
67: (depart f111 p16)
68: (up f111 f357)
69: (board f357 p17)
70: (up f357 f443)
71: (depart f443 p17)
72: (down f443 f233)
73: (board f233 p18)
74: (up f233 f418)
75: (depart f418 p18)
76: (down f418 f38)
77: (board f38 p19)
78: (up f38 f301)
79: (depart f301 p19)
80: (down f301 f54)
81: (board f54 p20)
82: (down f54 f33)
83: (depart f33 p20)
84: (up f33 f242)
85: (board f242 p21)
86: (down f242 f196)
87: (depart f196 p21)
88: (down f196 f19)
89: (board f19 p22)
90: (up f19 f568)
91: (depart f568 p22)
92: (down f568 f534)
93: (board f534 p23)
94: (down f534 f166)
95: (depart f166 p23)
96: (up f166 f464)
97: (board f464 p24)
98: (down f464 f10)
99: (depart f10 p24)
100: (up f10 f319)
101: (board f319 p25)
102: (down f319 f280)
103: (depart f280 p25)
104: (down f280 f247)
105: (board f247 p26)
106: (up f247 f344)
107: (depart f344 p26)
108: (down f344 f307)
109: (board f307 p27)
110: (down f307 f23)
111: (depart f23 p27)
112: (up f23 f292)
113: (board f292 p28)
114: (down f292 f129)
115: (depart f129 p28)
116: (up f129 f554)
117: (board f554 p29)
118: (down f554 f487)
119: (depart f487 p29)
120: (down f487 f185)
121: (board f185 p30)
122: (up f185 f561)
123: (depart f561 p30)
124: (down f561 f514)
125: (board f514 p31)
126: (down f514 f301)
127: (depart f301 p31)
128: (up f301 f493)
129: (board f493 p32)
130: (down f493 f352)
131: (depart f352 p32)
132: (down f352 f57)
133: (board f57 p33)
134: (up f57 f378)
135: (depart f378 p33)
136: (down f378 f18)
137: (board f18 p34)
138: (up f18 f84)
139: (depart f84 p34)
140: (up f84 f230)
141: (board f230 p35)
142: (up f230 f435)
143: (depart f435 p35)
144: (down f435 f151)
145: (board f151 p36)
146: (down f151 f88)
147: (depart f88 p36)
148: (up f88 f314)
149: (board f314 p37)
150: (up f314 f576)
151: (depart f576 p37)
152: (down f576 f30)
153: (board f30 p38)
154: (up f30 f43)
155: (depart f43 p38)
156: (up f43 f537)
157: (board f537 p39)
158: (down f537 f333)
159: (depart f333 p39)
160: (down f333 f303)
161: (board f303 p40)
162: (down f303 f255)
163: (depart f255 p40)
164: (up f255 f435)
165: (board f435 p41)
166: (up f435 f460)
167: (depart f460 p41)
168: (down f460 f305)
169: (board f305 p42)
170: (down f305 f39)
171: (depart f39 p42)
172: (up f39 f346)
173: (board f346 p43)
174: (up f346 f398)
175: (depart f398 p43)
176: (up f398 f542)
177: (board f542 p44)
178: (up f542 f546)
179: (depart f546 p44)
180: (down f546 f173)
181: (board f173 p45)
182: (up f173 f435)
183: (depart f435 p45)
184: (down f435 f219)
185: (board f219 p46)
186: (up f219 f518)
187: (depart f518 p46)
188: (down f518 f468)
189: (board f468 p47)
190: (down f468 f376)
191: (depart f376 p47)
192: (down f376 f176)
193: (board f176 p48)
194: (up f176 f230)
195: (depart f230 p48)
196: (up f230 f247)
197: (board f247 p49)
198: (down f247 f194)
199: (depart f194 p49)
200: (up f194 f363)
201: (board f363 p50)
202: (down f363 f77)
203: (depart f77 p50)
204: (up f77 f294)
205: (board f294 p51)
206: (down f294 f25)
207: (depart f25 p51)
208: (up f25 f526)
209: (board f526 p52)
210: (down f526 f16)
211: (depart f16 p52)
212: (up f16 f238)
213: (board f238 p53)
214: (down f238 f223)
215: (depart f223 p53)
216: (up f223 f240)
217: (board f240 p54)
218: (down f240 f178)
219: (depart f178 p54)
220: (up f178 f500)
221: (board f500 p55)
222: (down f500 f207)
223: (depart f207 p55)
224: (down f207 f146)
225: (board f146 p56)
226: (up f146 f442)
227: (depart f442 p56)
228: (down f442 f90)
229: (board f90 p57)
230: (down f90 f58)
231: (depart f58 p57)
232: (up f58 f259)
233: (board f259 p58)
234: (down f259 f57)
235: (depart f57 p58)
236: (up f57 f399)
237: (board f399 p59)
238: (down f399 f233)
239: (depart f233 p59)
240: (up f233 f512)
241: (board f512 p60)
242: (down f512 f471)
243: (depart f471 p60)
244: (down f471 f97)
245: (board f97 p61)
246: (up f97 f340)
247: (depart f340 p61)
248: (down f340 f112)
249: (board f112 p62)
250: (up f112 f384)
251: (depart f384 p62)
252: (down f384 f217)
253: (board f217 p63)
254: (down f217 f170)
255: (depart f170 p63)
256: (down f170 f69)
257: (board f69 p64)
258: (up f69 f405)
259: (depart f405 p64)
260: (down f405 f153)
261: (board f153 p65)
262: (up f153 f199)
263: (depart f199 p65)
264: (up f199 f267)
265: (board f267 p66)
266: (down f267 f95)
267: (depart f95 p66)
268: (up f95 f140)
269: (board f140 p67)
270: (up f140 f543)
271: (depart f543 p67)
272: (down f543 f500)
273: (board f500 p68)
274: (down f500 f188)
275: (depart f188 p68)
276: (down f188 f121)
277: (board f121 p69)
278: (up f121 f207)
279: (depart f207 p69)
280: (down f207 f9)
281: (board f9 p70)
282: (up f9 f226)
283: (depart f226 p70)
284: (up f226 f435)
285: (board f435 p71)
286: (up f435 f520)
287: (depart f520 p71)
288: (up f520 f583)
289: (board f583 p72)
290: (down f583 f346)
291: (depart f346 p72)
292: (down f346 f60)
293: (board f60 p73)
294: (up f60 f90)
295: (depart f90 p73)
296: (up f90 f581)
297: (board f581 p74)
298: (down f581 f550)
299: (depart f550 p74)


