Command : ./interpreter_t-rex_binary_haribo -P -b8192 -e -i f.cnf 
[0.001] This is T-REX interpreter, prototype version 04/2018.
[0.001] Reading problem encoding from file "f.cnf".
[0.001] Parsed head comment information.
[2.328] Processed problem encoding.
[2.712] Calculated possible fact changes of composite elements.
[2.714] Initialized instantiation procedure.
[2.714] 
[2.714] *************************************
[2.714] * * *   M a k e s p a n     0   * * *
[2.714] *************************************
[2.715] Instantiated 2,447 initial clauses.
[2.715] The encoding contains a total of 2,286 distinct variables.
[2.715] Attempting solve with solver <glucose4> ...
c 2 assumptions
[2.716] Executed solver; result: UNSAT.
[2.716] 
[2.716] *************************************
[2.716] * * *   M a k e s p a n     1   * * *
[2.716] *************************************
[2.754] Computed next depth properties: array size of 8.
[3.347] Instantiated 85,804 transitional clauses.
[3.351] 100.0% quadratic At-Most-One encodings, the rest being binary encoded.
[3.351] Instantiated 20,980 universal clauses.
[3.351] Instantiated and added clauses for a total of 109,231 clauses.
[3.351] The encoding contains a total of 4,943 distinct variables.
[3.351] Attempting solve with solver <glucose4> ...
c 8 assumptions
[3.360] Executed solver; result: UNSAT.
[3.360] 
[3.360] *************************************
[3.360] * * *   M a k e s p a n     2   * * *
[3.360] *************************************
[3.399] Computed next depth properties: array size of 14.
[3.989] Instantiated 86,123 transitional clauses.
[3.994] 100.0% quadratic At-Most-One encodings, the rest being binary encoded.
[3.994] Instantiated 31,775 universal clauses.
[3.994] Instantiated and added clauses for a total of 227,129 clauses.
[3.994] The encoding contains a total of 7,871 distinct variables.
[3.994] Attempting solve with solver <glucose4> ...
c 14 assumptions
[8.104] Executed solver; result: UNSAT.
[8.105] 
[8.105] *************************************
[8.105] * * *   M a k e s p a n     3   * * *
[8.105] *************************************
[8.147] Computed next depth properties: array size of 20.
[8.747] Instantiated 86,653 transitional clauses.
[8.753] 100.0% quadratic At-Most-One encodings, the rest being binary encoded.
[8.753] Instantiated 42,570 universal clauses.
[8.753] Instantiated and added clauses for a total of 356,352 clauses.
[8.753] The encoding contains a total of 11,070 distinct variables.
[8.753] Attempting solve with solver <glucose4> ...
c 20 assumptions
[11.838] Executed solver; result: UNSAT.
[11.838] 
[11.838] *************************************
[11.838] * * *   M a k e s p a n     4   * * *
[11.838] *************************************
[11.882] Computed next depth properties: array size of 26.
[12.483] Instantiated 87,183 transitional clauses.
[12.490] 100.0% quadratic At-Most-One encodings, the rest being binary encoded.
[12.490] Instantiated 53,365 universal clauses.
[12.490] Instantiated and added clauses for a total of 496,900 clauses.
[12.490] The encoding contains a total of 14,540 distinct variables.
[12.490] Attempting solve with solver <glucose4> ...
c 26 assumptions
c |       23         0      434 |   14357   487295 32814540 |     2     6204      162     3792 |  1.252 % |
[19.046] Executed solver; result: UNSAT.
[19.046] 
[19.046] *************************************
[19.046] * * *   M a k e s p a n     5   * * *
[19.046] *************************************
[19.090] Computed next depth properties: array size of 32.
[19.694] Instantiated 87,713 transitional clauses.
[19.705] 100.0% quadratic At-Most-One encodings, the rest being binary encoded.
[19.705] Instantiated 64,160 universal clauses.
[19.705] Instantiated and added clauses for a total of 648,773 clauses.
[19.705] The encoding contains a total of 18,281 distinct variables.
[19.705] Attempting solve with solver <glucose4> ...
c 32 assumptions
c |      108        72      185 |   18093   638866 41083007 |     3    11201      296     8793 |  1.023 % |
c |      124       117      241 |   18093   638866 41083007 |     4    13802      432    16192 |  1.023 % |
c |      150       152      266 |   18093   638866 41083007 |     5    13908      442    26086 |  1.023 % |
c |      200       174      250 |   18093   638866 41083007 |     5    23908      456    26086 |  1.023 % |
c |      258       197      232 |   18093   638866 41083007 |     6    21457      464    38537 |  1.023 % |
c |      370       210      189 |   18093   638866 41083007 |     7    16436      476    53558 |  1.023 % |
c |      511       220      156 |   18093   638866 41083007 |     7    26436      488    53558 |  1.023 % |
c |      696       222      129 |   18093   638866 41083007 |     8    18820      492    71174 |  1.023 % |
c |      877       224      114 |   18093   638866 41083007 |     8    28820      494    71174 |  1.023 % |
c |     1072       225      102 |   18093   638866 41083007 |     8    38820      496    71174 |  1.023 % |
[66.217] Executed solver; result: UNSAT.
[66.217] 
[66.217] *************************************
[66.217] * * *   M a k e s p a n     6   * * *
[66.217] *************************************
[66.261] Computed next depth properties: array size of 38.
[66.878] Instantiated 88,243 transitional clauses.
[66.889] 100.0% quadratic At-Most-One encodings, the rest being binary encoded.
[66.889] Instantiated 74,955 universal clauses.
[66.889] Instantiated and added clauses for a total of 811,971 clauses.
[66.889] The encoding contains a total of 22,293 distinct variables.
[66.889] Attempting solve with solver <glucose4> ...
c 38 assumptions
c |     1177       295      101 |   22102   801437 49375038 |     9    28549      552    91381 |  0.852 % |
c |     1182       323      109 |   22102   801437 49375038 |     9    38549      630    91381 |  0.852 % |
c |     1182       341      118 |   22102   801437 49375038 |    10    25780      694   114150 |  0.852 % |
c |     1190       375      126 |   22102   801437 49375038 |    10    35780      728   114150 |  0.852 % |
c |     1199       415      133 |   22101   801437 49375038 |    10    45779      744   114150 |  0.857 % |
c |     1214       453      140 |   22101   801437 49375038 |    11    30391      764   139538 |  0.857 % |
c |     1243       471      144 |   22100   801437 49375038 |    11    40390      782   139538 |  0.861 % |
c |     1280       482      148 |   22100   801437 49375038 |    11    50390      790   139538 |  0.861 % |
c |     1298       512      154 |   22100   801437 49375038 |    12    32401      792   167527 |  0.861 % |
c |     1304       515      161 |   22098   801437 49375038 |    12    42399      810   167527 |  0.870 % |
c |     1315       527      167 |   22098   801437 49375038 |    12    52399      824   167527 |  0.870 % |
c |     1330       543      172 |   22098   801437 49375038 |    13    31807      832   198119 |  0.870 % |
c |     1336       559      179 |   22098   801437 49375038 |    13    41807      832   198119 |  0.870 % |
c |     1344       568      186 |   22098   801437 49375038 |    13    51807      834   198119 |  0.870 % |
c |     1356       583      191 |   22098   801437 49375038 |    13    61807      840   198119 |  0.870 % |
c |     1368       591      197 |   22098   801437 49375038 |    14    38613      840   231313 |  0.870 % |
c |     1382       603      202 |   22098   801437 49375038 |    14    48613      848   231313 |  0.870 % |
c |     1393       618      208 |   22098   801437 49375038 |    14    58613      850   231313 |  0.870 % |
c |     1401       631      214 |   22098   801437 49375038 |    14    68613      852   231313 |  0.870 % |
c |     1421       643      218 |   22098   801437 49375038 |    15    42819      858   267107 |  0.870 % |
c |     1436       652      222 |   22098   801437 49375038 |    15    52819      876   267107 |  0.870 % |
c |     1450       661      227 |   22098   801437 49375038 |    15    62819      880   267107 |  0.870 % |
c |     1477       675      230 |   22098   801437 49375038 |    15    72819      886   267107 |  0.870 % |
c |     1498       679      233 |   22098   801437 49375038 |    16    44427      892   305499 |  0.870 % |
c |     1515       693      237 |   22098   801437 49375038 |    16    54427      894   305499 |  0.870 % |
c |     1566       708      236 |   22098   801437 49375038 |    16    64427      902   305499 |  0.870 % |
c |     1617       721      235 |   22098   801437 49375038 |    16    74427      910   305499 |  0.870 % |
c |     1717       734      227 |   22098   801437 49375038 |    17    43424      922   346502 |  0.870 % |
c |     1757       749      227 |   22098   801437 49375038 |    17    53424      930   346502 |  0.870 % |
c |     1828       760      224 |   22098   801437 49375038 |    17    63424      930   346502 |  0.870 % |
c |     1868       768      224 |   22098   801437 49375038 |    17    73424      932   346502 |  0.870 % |
c |     1995       774      215 |   22098   801437 49375038 |    17    83424      938   346502 |  0.870 % |
c |     2063       787      213 |   22098   801437 49375038 |    18    49817      940   390109 |  0.870 % |
c |     2140       792      210 |   22098   801437 49375038 |    18    59817      948   390109 |  0.870 % |
c |     2224       807      206 |   22098   801437 49375038 |    18    69817      950   390109 |  0.870 % |
c |     2321       811      202 |   22098   801437 49375038 |    18    79817      952   390109 |  0.870 % |
c |     2471       814      194 |   22098   801437 49375038 |    18    89817      954   390109 |  0.870 % |
c |     2571       819      190 |   22098   801437 49375038 |    19    53609      956   436317 |  0.870 % |
c |     2657       823      188 |   22098   801437 49375038 |    19    63609      960   436317 |  0.870 % |
c |     2761       824      184 |   22098   801437 49375038 |    19    73609      962   436317 |  0.870 % |
c |     2886       832      180 |   22098   801437 49375038 |    19    83609      964   436317 |  0.870 % |
c |     3059       832      173 |   22098   801437 49375038 |    19    93609      976   436317 |  0.870 % |
c |     3160       837      170 |   22098   801437 49375038 |    20    54809      976   485117 |  0.870 % |
c |     3192       846      172 |   22098   801437 49375038 |    20    64809      982   485117 |  0.870 % |
c |     3284       850      170 |   22098   801437 49375038 |    20    74809      984   485117 |  0.870 % |
c |     3382       853      168 |   22098   801437 49375038 |    20    84809      986   485117 |  0.870 % |
c |     3508       854      165 |   22098   801437 49375038 |    20    94809      988   485117 |  0.870 % |
c |     3645       855      161 |   22098   801437 49375038 |    21    53409      990   536517 |  0.870 % |
c |     3726       860      161 |   22098   801437 49375038 |    21    63409      990   536517 |  0.870 % |
c |     3801       863      160 |   22098   801437 49375038 |    21    73409     1008   536517 |  0.870 % |
c |     3896       863      159 |   22098   801437 49375038 |    21    83409     1008   536517 |  0.870 % |
c |     4017       863      156 |   22098   801437 49375038 |    21    93409     1010   536517 |  0.870 % |
c |     4168       863      153 |   22098   801437 49375038 |    21   103409     1012   536517 |  0.870 % |
c |     4276       863      152 |   22098   801437 49375038 |    22    59409     1022   590517 |  0.870 % |
c |     4312       866      153 |   22098   801437 49375038 |    22    69409     1022   590517 |  0.870 % |
c |     4387       867      152 |   22098   801437 49375038 |    22    79409     1028   590517 |  0.870 % |
c |     4482       871      151 |   22098   801437 49375038 |    22    89409     1028   590517 |  0.870 % |
c |     4631       871      148 |   22098   801437 49375038 |    22    99409     1028   590517 |  0.870 % |
c |     4784       871      146 |   22098   801437 49375038 |    22   109409     1030   590517 |  0.870 % |
c |     4861       875      146 |   22098   801437 49375038 |    23    62809     1030   647117 |  0.870 % |
c |     4895       880      147 |   22098   801437 49375038 |    23    72809     1030   647117 |  0.870 % |
c |     4970       883      146 |   22098   801437 49375038 |    23    82809     1030   647117 |  0.870 % |
c |     5087       884      145 |   22098   801437 49375038 |    23    92809     1030   647117 |  0.870 % |
c |     5235       887      143 |   22098   801437 49375038 |    23   102809     1030   647117 |  0.870 % |
c |     5374       889      141 |   22098   801437 49375038 |    23   112809     1034   647117 |  0.870 % |
c |     5476       891      140 |   22098   801437 49375038 |    24    63608     1036   706318 |  0.870 % |
c |     5506       892      141 |   22098   801437 49375038 |    24    73608     1038   706318 |  0.870 % |
c |     5522       897      143 |   22098   801437 49375038 |    24    83608     1040   706318 |  0.870 % |
c |     5592       900      143 |   22098   801437 49375038 |    24    93608     1040   706318 |  0.870 % |
Interrupt signal (15) received.
