
Compact plan:
0: (up f0 f15)
1: (board f15 p0)
2: (up f15 f31)
3: (depart f31 p0)
4: (down f31 f2)
5: (board f2 p1)
6: (up f2 f20)
7: (depart f20 p1)
8: (up f20 f22)
9: (board f22 p2)
10: (up f22 f38)
11: (depart f38 p2)
12: (down f38 f27)
13: (board f27 p3)
14: (down f27 f5)
15: (depart f5 p3)
16: (up f5 f9)
17: (board f9 p4)
18: (up f9 f24)
19: (depart f24 p4)
20: (up f24 f30)
21: (board f30 p5)
22: (down f30 f29)
23: (depart f29 p5)
24: (down f29 f22)
25: (board f22 p6)
26: (down f22 f19)
27: (depart f19 p6)
28: (up f19 f38)
29: (board f38 p7)
30: (down f38 f13)
31: (depart f13 p7)
32: (up f13 f20)
33: (board f20 p8)
34: (up f20 f33)
35: (depart f33 p8)
36: (down f33 f23)
37: (board f23 p9)
38: (down f23 f9)
39: (depart f9 p9)
40: (up f9 f18)
41: (board f18 p10)
42: (up f18 f33)
43: (depart f33 p10)
44: (down f33 f28)
45: (board f28 p11)
46: (down f28 f2)
47: (depart f2 p11)
48: (up f2 f27)
49: (board f27 p12)
50: (down f27 f0)
51: (depart f0 p12)
52: (up f0 f7)
53: (board f7 p13)
54: (up f7 f39)
55: (depart f39 p13)
56: (down f39 f18)
57: (board f18 p14)
58: (up f18 f30)
59: (depart f30 p14)
60: (down f30 f7)
61: (board f7 p15)
62: (up f7 f9)
63: (depart f9 p15)
64: (up f9 f32)
65: (board f32 p16)
66: (down f32 f9)
67: (depart f9 p16)
68: (up f9 f21)
69: (board f21 p17)
70: (down f21 f7)
71: (depart f7 p17)
72: (down f7 f0)
73: (board f0 p18)
74: (up f0 f12)
75: (depart f12 p18)
76: (down f12 f1)
77: (board f1 p19)
78: (up f1 f24)
79: (depart f24 p19)


