
Compact plan:
0: (up f0 f15)
1: (board f15 p0)
2: (down f15 f9)
3: (depart f9 p0)
4: (up f9 f14)
5: (board f14 p1)
6: (down f14 f0)
7: (depart f0 p1)
8: (up f0 f18)
9: (board f18 p2)
10: (down f18 f4)
11: (depart f4 p2)
12: (up f4 f16)
13: (board f16 p3)
14: (up f16 f21)
15: (depart f21 p3)
16: (board f21 p4)
17: (down f21 f15)
18: (depart f15 p4)
19: (down f15 f8)
20: (board f8 p5)
21: (up f8 f10)
22: (depart f10 p5)
23: (up f10 f17)
24: (board f17 p6)
25: (down f17 f8)
26: (depart f8 p6)
27: (up f8 f21)
28: (board f21 p7)
29: (down f21 f4)
30: (depart f4 p7)
31: (up f4 f19)
32: (board f19 p8)
33: (down f19 f16)
34: (depart f16 p8)
35: (down f16 f5)
36: (board f5 p9)
37: (up f5 f21)
38: (depart f21 p9)
39: (down f21 f19)
40: (board f19 p10)
41: (down f19 f16)
42: (depart f16 p10)


