
Compact plan:
0: (up f0 f375)
1: (board f375 p0)
2: (down f375 f132)
3: (depart f132 p0)
4: (board f132 p1)
5: (up f132 f264)
6: (depart f264 p1)
7: (up f264 f563)
8: (board f563 p2)
9: (down f563 f253)
10: (depart f253 p2)
11: (up f253 f407)
12: (board f407 p3)
13: (up f407 f410)
14: (depart f410 p3)
15: (down f410 f1)
16: (board f1 p4)
17: (up f1 f393)
18: (depart f393 p4)
19: (down f393 f316)
20: (board f316 p5)
21: (down f316 f244)
22: (depart f244 p5)
23: (down f244 f68)
24: (board f68 p6)
25: (up f68 f453)
26: (depart f453 p6)
27: (down f453 f101)
28: (board f101 p7)
29: (up f101 f125)
30: (depart f125 p7)
31: (down f125 f2)
32: (board f2 p8)
33: (up f2 f247)
34: (depart f247 p8)
35: (up f247 f455)
36: (board f455 p9)
37: (up f455 f581)
38: (depart f581 p9)
39: (down f581 f568)
40: (board f568 p10)
41: (down f568 f342)
42: (depart f342 p10)
43: (down f342 f150)
44: (board f150 p11)
45: (down f150 f14)
46: (depart f14 p11)
47: (up f14 f100)
48: (board f100 p12)
49: (down f100 f68)
50: (depart f68 p12)
51: (down f68 f10)
52: (board f10 p13)
53: (up f10 f399)
54: (depart f399 p13)
55: (down f399 f86)
56: (board f86 p14)
57: (up f86 f135)
58: (depart f135 p14)
59: (up f135 f162)
60: (board f162 p15)
61: (down f162 f15)
62: (depart f15 p15)
63: (up f15 f437)
64: (board f437 p16)
65: (up f437 f548)
66: (depart f548 p16)
67: (down f548 f208)
68: (board f208 p17)
69: (up f208 f284)
70: (depart f284 p17)
71: (up f284 f414)
72: (board f414 p18)
73: (up f414 f467)
74: (depart f467 p18)
75: (down f467 f130)
76: (board f130 p19)
77: (up f130 f257)
78: (depart f257 p19)
79: (up f257 f522)
80: (board f522 p20)
81: (up f522 f563)
82: (depart f563 p20)
83: (down f563 f421)
84: (board f421 p21)
85: (down f421 f283)
86: (depart f283 p21)
87: (down f283 f135)
88: (board f135 p22)
89: (down f135 f43)
90: (depart f43 p22)
91: (up f43 f442)
92: (board f442 p23)
93: (down f442 f243)
94: (depart f243 p23)
95: (down f243 f17)
96: (board f17 p24)
97: (up f17 f169)
98: (depart f169 p24)
99: (down f169 f137)
100: (board f137 p25)
101: (up f137 f412)
102: (depart f412 p25)
103: (down f412 f55)
104: (board f55 p26)
105: (up f55 f241)
106: (depart f241 p26)
107: (down f241 f162)
108: (board f162 p27)
109: (up f162 f373)
110: (depart f373 p27)
111: (down f373 f369)
112: (board f369 p28)
113: (up f369 f495)
114: (depart f495 p28)
115: (down f495 f447)
116: (board f447 p29)
117: (up f447 f598)
118: (depart f598 p29)
119: (down f598 f278)
120: (board f278 p30)
121: (down f278 f66)
122: (depart f66 p30)
123: (down f66 f25)
124: (board f25 p31)
125: (up f25 f498)
126: (depart f498 p31)
127: (down f498 f135)
128: (board f135 p32)
129: (down f135 f52)
130: (depart f52 p32)
131: (up f52 f105)
132: (board f105 p33)
133: (up f105 f588)
134: (depart f588 p33)
135: (down f588 f148)
136: (board f148 p34)
137: (down f148 f137)
138: (depart f137 p34)
139: (up f137 f171)
140: (board f171 p35)
141: (up f171 f197)
142: (depart f197 p35)
143: (up f197 f278)
144: (board f278 p36)
145: (down f278 f90)
146: (depart f90 p36)
147: (up f90 f442)
148: (board f442 p37)
149: (down f442 f283)
150: (depart f283 p37)
151: (down f283 f107)
152: (board f107 p38)
153: (up f107 f377)
154: (depart f377 p38)
155: (down f377 f366)
156: (board f366 p39)
157: (down f366 f123)
158: (depart f123 p39)
159: (up f123 f473)
160: (board f473 p40)
161: (down f473 f366)
162: (depart f366 p40)
163: (down f366 f276)
164: (board f276 p41)
165: (up f276 f444)
166: (depart f444 p41)
167: (down f444 f298)
168: (board f298 p42)
169: (down f298 f281)
170: (depart f281 p42)
171: (down f281 f240)
172: (board f240 p43)
173: (up f240 f538)
174: (depart f538 p43)
175: (down f538 f82)
176: (board f82 p44)
177: (up f82 f90)
178: (depart f90 p44)
179: (up f90 f255)
180: (board f255 p45)
181: (up f255 f434)
182: (depart f434 p45)
183: (down f434 f48)
184: (board f48 p46)
185: (up f48 f267)
186: (depart f267 p46)
187: (up f267 f370)
188: (board f370 p47)
189: (up f370 f561)
190: (depart f561 p47)
191: (down f561 f495)
192: (board f495 p48)
193: (down f495 f16)
194: (depart f16 p48)
195: (up f16 f47)
196: (board f47 p49)
197: (up f47 f404)
198: (depart f404 p49)


