Command : ./interpreter_t-rex_binary_haribo -P -b8192 -e -i f.cnf 
[0.000] This is T-REX interpreter, prototype version 04/2018.
[0.000] Reading problem encoding from file "f.cnf".
[0.001] Parsed head comment information.
[0.017] Processed problem encoding.
[0.017] Calculated possible fact changes of composite elements.
[0.019] Initialized instantiation procedure.
[0.019] 
[0.019] *************************************
[0.019] * * *   M a k e s p a n     0   * * *
[0.019] *************************************
[0.023] Instantiated 4,606 initial clauses.
[0.023] The encoding contains a total of 2,680 distinct variables.
[0.023] Attempting solve with solver <glucose4> ...
c 60 assumptions
[0.024] Executed solver; result: UNSAT.
[0.024] 
[0.024] *************************************
[0.024] * * *   M a k e s p a n     1   * * *
[0.024] *************************************
[0.030] Computed next depth properties: array size of 223.
[0.032] Instantiated 1,070 transitional clauses.
[0.044] 100.0% quadratic At-Most-One encodings, the rest being binary encoded.
[0.044] Instantiated 7,790 universal clauses.
[0.044] Instantiated and added clauses for a total of 13,466 clauses.
[0.044] The encoding contains a total of 4,736 distinct variables.
[0.044] Attempting solve with solver <glucose4> ...
c 223 assumptions
[0.044] Executed solver; result: UNSAT.
[0.044] 
[0.044] *************************************
[0.044] * * *   M a k e s p a n     2   * * *
[0.044] *************************************
[0.060] Computed next depth properties: array size of 673.
[0.065] Instantiated 3,410 transitional clauses.
[0.093] 100.0% quadratic At-Most-One encodings, the rest being binary encoded.
[0.093] Instantiated 24,845 universal clauses.
[0.093] Instantiated and added clauses for a total of 41,721 clauses.
[0.093] The encoding contains a total of 9,141 distinct variables.
[0.093] Attempting solve with solver <glucose4> ...
c 673 assumptions
c last restart ## conflicts  :  42 772 
[0.104] Executed solver; result: SAT.
[0.104] Solver returned SAT; a solution has been found at makespan 2.
672
solution 1260 1
3 125 451 452 123 787 447 121 991 1127 1128 1129 993 994 4 130 454 455 128 789 460 126 986 1088 1174 1089 988 989 7 135 467 468 137 795 463 133 991 1102 1177 1103 993 994 9 141 473 474 143 799 477 139 991 1172 1179 1173 993 994 10 146 478 479 148 801 484 144 986 1052 1180 1053 988 989 13 153 489 490 155 807 493 151 991 1002 1183 1003 993 994 14 158 494 495 160 809 500 156 986 1076 1184 1077 988 989 17 167 505 506 165 815 509 163 991 1042 1187 1043 993 994 18 172 510 511 170 818 817 168 986 1048 1188 1049 988 989 20 176 516 517 178 824 823 174 986 1072 1190 1073 988 989 23 183 525 526 185 831 529 181 991 1034 1193 1035 993 994 24 188 530 531 190 833 536 186 986 1064 1194 1065 988 989 27 197 541 542 195 841 840 193 991 1082 1197 1083 993 994 29 201 549 550 203 845 545 199 991 1114 1199 1115 993 994 31 206 555 556 209 849 559 207 991 1026 1201 1027 993 994 32 210 560 561 214 851 566 211 986 1068 1202 1069 988 989 34 220 570 571 218 855 568 216 986 1158 1204 1159 988 989 36 226 576 577 224 860 859 222 986 1146 1206 1147 988 989 38 232 582 583 230 865 588 228 986 1020 1208 1021 988 989 40 236 590 591 238 869 596 234 986 1116 1210 1117 988 989 43 245 601 602 243 877 876 241 991 1106 1213 1107 993 994 44 248 604 605 250 879 610 246 986 1166 1214 1167 988 989 46 256 612 613 254 883 618 252 986 1138 1216 1139 988 989 48 260 622 623 262 887 620 258 986 1142 1218 1143 988 989 50 268 628 629 266 891 634 264 986 987 1220 990 988 989 52 274 638 639 272 895 636 270 986 1060 1222 1061 988 989 54 280 646 647 278 899 644 276 986 1130 1224 1131 988 989 56 284 652 653 286 904 903 282 986 1120 1226 1121 988 989 58 292 658 659 290 909 664 288 986 1154 1228 1155 988 989 60 296 668 669 298 913 666 294 986 1044 1230 1045 988 989 62 304 674 675 300 917 680 301 986 996 1232 997 988 989 64 308 682 683 310 922 921 306 986 1012 1234 1013 988 989 66 316 688 689 314 928 927 312 986 1092 1236 1093 988 989 68 320 694 695 322 933 700 318 986 1016 1238 1017 988 989 70 328 702 703 326 937 708 324 986 1004 1240 1005 988 989 72 334 712 713 332 941 710 330 986 1134 1242 1135 988 989 74 338 718 719 340 945 724 336 986 1084 1244 1085 988 989 76 346 726 727 344 949 732 342 986 1008 1246 1009 988 989 78 352 736 737 348 953 734 349 986 1162 1248 1163 988 989 80 356 742 743 358 958 957 354 986 1150 1250 1151 988 989 82 362 748 749 364 963 754 360 986 1108 1252 1109 988 989 84 368 758 759 370 967 756 366 986 1056 1254 1057 988 989 86 372 764 765 376 972 971 373 986 1096 1256 1097 988 989 88 382 770 771 380 977 776 378 986 1036 1258 1037 988 989 90 386 778 779 388 982 981 384 986 1028 1260 1029 988 989 92 392 390 95 397 395 97 401 399 98 404 402 100 408 406 103 413 411 104 416 414 107 421 419 108 424 422 110 428 426 112 432 430 114 436 434 117 441 439 118 444 442 
[0.107] Exiting.
