  p01      340     1134     1975    10920     0.87     0.00    0.06     0.93     0.00     0.00       11    50    312000      10920      10920 
  p02      340     1134     1975    10920     0.89     0.00    0.06     0.96     0.00     0.00       11    50    312000      10920      10920 
  p03      380     1545     2633    18315     1.24     0.00    0.11     1.35     0.00     0.00       12    55    479160      18315      18315 
  p04      406     1935     3222    27648     1.67     0.00    0.12     1.79     0.00     0.00       13    60    663552      27648      27648 
  p05      432     2259     4050    32487     2.17     0.00    0.13     2.30     0.00     0.00       14    65    896376      32487      32487 
  p06      432     2259     4050    32487     2.20     0.00    0.13     2.33     0.00     0.00       14    65    896376      32487      32487 
  p07      472     2902     5092    48678     2.78     0.00    0.13     2.91     0.00     0.00       15    70   1251264      48678      48678 
  p08      472     2902     5092    48678     3.08     0.00    0.14     3.22     0.00     0.00       15    70   1251264      48678      48678 
  p09      498     3334     6218    56700     3.42     0.00    0.16     3.58     0.00     0.00       16    75   1620000      56700      56700 
  p10      498     3334     6218    56700     3.28     0.00    0.16     3.44     0.00     0.00       16    75   1620000      56700      56700 
  p11      524     3962     7241    76608     4.21     0.00    0.20     4.41     0.00     0.00       17    80   2064384      76608      76608 
  p12      524     3962     7241    76608     4.36     0.00    0.19     4.55     0.00     0.00       17    80   2064384      76608      76608 
  p13      620     5309     9181   142324     6.38     0.00    0.31     6.69     0.00     0.00       18    85   3615968     142324     142324 
  p14      648     5947    10826   160704     7.45     0.00    0.37     7.81     0.00     0.00       19    90   4478976     160704     160704 
  p15      648     5947    10826   160704     7.54     0.00    0.35     7.89     0.00     0.00       19    90   4478976     160704     160704 
  p16      676     6869    12300   207100     9.04     0.00    0.44     9.49     0.00     0.00       20    95   5487200     207100     207100 
  p17      704     7637    14298   232960    10.19     0.00    0.49    10.67     0.00     0.00       21   100   6656000     232960     232960 
  p18      748     9034    16654   303408    11.54     0.00    0.61    12.16     0.00     0.00       22   105   8297856     303408     303408 
  p19      848    13041    24274   525312    19.22     0.00    1.10    20.32     0.00     0.00       25   120  14155776     525312     525312 
  p20      848    13041    24274   525312    20.05     0.00    1.14    21.19     0.00     0.00       25   120  14155776     525312     525312 
