
Compact plan:
0: (unstack b21 b14)
1: (put-down b21)
2: (unstack b14 b5)
3: (put-down b14)
4: (unstack b5 b23)
5: (put-down b5)
6: (unstack b23 b13)
7: (put-down b23)
8: (unstack b13 b18)
9: (put-down b13)
10: (unstack b12 b19)
11: (put-down b12)
12: (unstack b19 b8)
13: (put-down b19)
14: (unstack b8 b3)
15: (put-down b8)
16: (unstack b3 b16)
17: (put-down b3)
18: (unstack b16 b17)
19: (put-down b16)
20: (unstack b18 b2)
21: (stack b18 b17)
22: (unstack b18 b17)
23: (put-down b18)
24: (unstack b17 b4)
25: (put-down b17)
26: (unstack b4 b1)
27: (put-down b4)
28: (unstack b1 b11)
29: (put-down b1)
30: (pick-up b21)
31: (stack b21 b1)
32: (pick-up b18)
33: (stack b18 b17)
34: (unstack b11 b20)
35: (put-down b11)
36: (unstack b20 b24)
37: (put-down b20)
38: (unstack b24 b15)
39: (put-down b24)
40: (unstack b15 b22)
41: (put-down b15)
42: (unstack b22 b25)
43: (put-down b22)
44: (unstack b25 b6)
45: (put-down b25)
46: (unstack b6 b7)
47: (put-down b6)
48: (unstack b7 b10)
49: (put-down b7)
50: (unstack b10 b9)
51: (put-down b10)
52: (pick-up b9)
53: (stack b9 b18)
54: (pick-up b3)
55: (stack b3 b9)
56: (unstack b21 b1)
57: (put-down b21)
58: (pick-up b1)
59: (stack b1 b3)
60: (pick-up b21)
61: (stack b21 b1)
62: (pick-up b5)
63: (stack b5 b21)
64: (pick-up b19)
65: (stack b19 b5)
66: (pick-up b8)
67: (stack b8 b15)
68: (pick-up b23)
69: (stack b23 b10)
70: (pick-up b16)
71: (stack b16 b23)
72: (pick-up b25)
73: (stack b25 b16)
74: (pick-up b14)
75: (stack b14 b25)
76: (pick-up b11)
77: (stack b11 b14)
78: (pick-up b4)
79: (stack b4 b11)
80: (pick-up b6)
81: (stack b6 b4)
82: (pick-up b24)
83: (stack b24 b6)
84: (pick-up b13)
85: (stack b13 b24)
86: (pick-up b7)
87: (stack b7 b12)
88: (pick-up b2)
89: (stack b2 b7)
90: (pick-up b22)
91: (stack b22 b2)
92: (pick-up b20)
93: (stack b20 b22)


