
Compact plan:
0: (up f0 f1)
1: (board f1 p0)
2: (up f1 f16)
3: (depart f16 p0)
4: (down f16 f9)
5: (board f9 p1)
6: (down f9 f7)
7: (depart f7 p1)
8: (down f7 f5)
9: (board f5 p2)
10: (up f5 f7)
11: (depart f7 p2)
12: (up f7 f10)
13: (board f10 p3)
14: (up f10 f12)
15: (depart f12 p3)
16: (up f12 f15)
17: (board f15 p4)
18: (down f15 f1)
19: (depart f1 p4)
20: (up f1 f14)
21: (board f14 p5)
22: (down f14 f13)
23: (depart f13 p5)
24: (up f13 f14)
25: (board f14 p6)
26: (down f14 f7)
27: (depart f7 p6)
28: (down f7 f5)
29: (board f5 p7)
30: (down f5 f4)
31: (depart f4 p7)
32: (up f4 f6)
33: (board f6 p8)
34: (down f6 f0)
35: (depart f0 p8)


