
Compact plan:
0: (up f0 f7)
1: (board f7 p0)
2: (down f7 f6)
3: (depart f6 p0)
4: (up f6 f9)
5: (board f9 p1)
6: (down f9 f3)
7: (depart f3 p1)
8: (down f3 f1)
9: (board f1 p2)
10: (up f1 f15)
11: (depart f15 p2)
12: (down f15 f10)
13: (board f10 p3)
14: (up f10 f12)
15: (depart f12 p3)
16: (down f12 f9)
17: (board f9 p4)
18: (up f9 f13)
19: (depart f13 p4)
20: (down f13 f10)
21: (board f10 p5)
22: (up f10 f11)
23: (depart f11 p5)
24: (down f11 f2)
25: (board f2 p6)
26: (up f2 f11)
27: (depart f11 p6)
28: (down f11 f3)
29: (board f3 p7)
30: (up f3 f6)
31: (depart f6 p7)


