
Compact plan:
0: (up f0 f7)
1: (board f7 p0)
2: (down f7 f6)
3: (depart f6 p0)
4: (up f6 f9)
5: (board f9 p1)
6: (up f9 f19)
7: (depart f19 p1)
8: (down f19 f17)
9: (board f17 p2)
10: (up f17 f31)
11: (depart f31 p2)
12: (down f31 f10)
13: (board f10 p3)
14: (up f10 f12)
15: (depart f12 p3)
16: (down f12 f9)
17: (board f9 p4)
18: (up f9 f13)
19: (depart f13 p4)
20: (up f13 f26)
21: (board f26 p5)
22: (down f26 f11)
23: (depart f11 p5)
24: (up f11 f18)
25: (board f18 p6)
26: (up f18 f27)
27: (depart f27 p6)
28: (down f27 f3)
29: (board f3 p7)
30: (up f3 f6)
31: (depart f6 p7)
32: (up f6 f28)
33: (board f28 p8)
34: (down f28 f2)
35: (depart f2 p8)
36: (up f2 f20)
37: (board f20 p9)
38: (up f20 f24)
39: (depart f24 p9)
40: (up f24 f27)
41: (board f27 p10)
42: (down f27 f8)
43: (depart f8 p10)
44: (down f8 f7)
45: (board f7 p11)
46: (up f7 f13)
47: (depart f13 p11)
48: (up f13 f22)
49: (board f22 p12)
50: (up f22 f26)
51: (depart f26 p12)
52: (down f26 f14)
53: (board f14 p13)
54: (down f14 f3)
55: (depart f3 p13)
56: (up f3 f19)
57: (board f19 p14)
58: (up f19 f31)
59: (depart f31 p14)
60: (down f31 f9)
61: (board f9 p15)
62: (up f9 f26)
63: (depart f26 p15)


