Command : ./interpreter_t-rex_binary -P -b8192 -e -i f.cnf 
[0.000] This is T-REX interpreter, prototype version 04/2018.
[0.000] Reading problem encoding from file "f.cnf".
[0.000] Parsed head comment information.
[0.005] Processed problem encoding.
[0.005] Calculated possible fact changes of composite elements.
[0.005] Initialized instantiation procedure.
[0.005] 
[0.005] *************************************
[0.005] * * *   M a k e s p a n     0   * * *
[0.005] *************************************
[0.005] Instantiated 254 initial clauses.
[0.005] The encoding contains a total of 158 distinct variables.
[0.005] Attempting solve with solver <glucose4> ...
c 3 assumptions
[0.005] Executed solver; result: UNSAT.
[0.005] 
[0.005] *************************************
[0.005] * * *   M a k e s p a n     1   * * *
[0.005] *************************************
[0.005] Computed next depth properties: array size of 5.
[0.006] Instantiated 1,028 transitional clauses.
[0.007] 100.0% quadratic At-Most-One encodings, the rest being binary encoded.
[0.007] Instantiated 16,116 universal clauses.
[0.007] Instantiated and added clauses for a total of 17,398 clauses.
[0.007] The encoding contains a total of 601 distinct variables.
[0.007] Attempting solve with solver <glucose4> ...
c 5 assumptions
[0.007] Executed solver; result: UNSAT.
[0.007] 
[0.007] *************************************
[0.007] * * *   M a k e s p a n     2   * * *
[0.007] *************************************
[0.007] Computed next depth properties: array size of 8.
[0.009] Instantiated 4,382 transitional clauses.
[0.013] 100.0% quadratic At-Most-One encodings, the rest being binary encoded.
[0.013] Instantiated 93,833 universal clauses.
[0.013] Instantiated and added clauses for a total of 115,613 clauses.
[0.013] The encoding contains a total of 1,907 distinct variables.
[0.013] Attempting solve with solver <glucose4> ...
c 8 assumptions
[0.014] Executed solver; result: UNSAT.
[0.014] 
[0.014] *************************************
[0.014] * * *   M a k e s p a n     3   * * *
[0.014] *************************************
[0.014] Computed next depth properties: array size of 19.
[0.016] Instantiated 7,144 transitional clauses.
[0.023] 100.0% quadratic At-Most-One encodings, the rest being binary encoded.
[0.023] Instantiated 151,337 universal clauses.
[0.023] Instantiated and added clauses for a total of 274,094 clauses.
[0.023] The encoding contains a total of 3,586 distinct variables.
[0.023] Attempting solve with solver <glucose4> ...
c 19 assumptions
[0.023] Executed solver; result: UNSAT.
[0.023] 
[0.023] *************************************
[0.023] * * *   M a k e s p a n     4   * * *
[0.023] *************************************
[0.024] Computed next depth properties: array size of 37.
[0.026] Instantiated 7,364 transitional clauses.
[0.033] 100.0% quadratic At-Most-One encodings, the rest being binary encoded.
[0.033] Instantiated 159,559 universal clauses.
[0.033] Instantiated and added clauses for a total of 441,017 clauses.
[0.033] The encoding contains a total of 5,466 distinct variables.
[0.033] Attempting solve with solver <glucose4> ...
c 37 assumptions
[0.065] Executed solver; result: UNSAT.
[0.065] 
[0.065] *************************************
[0.065] * * *   M a k e s p a n     5   * * *
[0.065] *************************************
[0.066] Computed next depth properties: array size of 39.
[0.068] Instantiated 6,982 transitional clauses.
[0.076] 100.0% quadratic At-Most-One encodings, the rest being binary encoded.
[0.076] Instantiated 166,669 universal clauses.
[0.076] Instantiated and added clauses for a total of 614,668 clauses.
[0.076] The encoding contains a total of 7,330 distinct variables.
[0.076] Attempting solve with solver <glucose4> ...
c 39 assumptions
[0.183] Executed solver; result: UNSAT.
[0.183] 
[0.183] *************************************
[0.183] * * *   M a k e s p a n     6   * * *
[0.183] *************************************
[0.184] Computed next depth properties: array size of 41.
[0.186] Instantiated 7,278 transitional clauses.
[0.194] 100.0% quadratic At-Most-One encodings, the rest being binary encoded.
[0.194] Instantiated 173,779 universal clauses.
[0.194] Instantiated and added clauses for a total of 795,725 clauses.
[0.194] The encoding contains a total of 9,344 distinct variables.
[0.194] Attempting solve with solver <glucose4> ...
c 41 assumptions
[0.355] Executed solver; result: UNSAT.
[0.355] 
[0.355] *************************************
[0.355] * * *   M a k e s p a n     7   * * *
[0.355] *************************************
[0.356] Computed next depth properties: array size of 43.
[0.358] Instantiated 7,574 transitional clauses.
[0.366] 100.0% quadratic At-Most-One encodings, the rest being binary encoded.
[0.366] Instantiated 180,889 universal clauses.
[0.366] Instantiated and added clauses for a total of 984,188 clauses.
[0.366] The encoding contains a total of 11,508 distinct variables.
[0.366] Attempting solve with solver <glucose4> ...
c 43 assumptions
[0.543] Executed solver; result: UNSAT.
[0.543] 
[0.543] *************************************
[0.543] * * *   M a k e s p a n     8   * * *
[0.543] *************************************
[0.544] Computed next depth properties: array size of 45.
[0.546] Instantiated 7,870 transitional clauses.
[0.555] 100.0% quadratic At-Most-One encodings, the rest being binary encoded.
[0.555] Instantiated 187,999 universal clauses.
[0.555] Instantiated and added clauses for a total of 1,180,057 clauses.
[0.555] The encoding contains a total of 13,822 distinct variables.
[0.555] Attempting solve with solver <glucose4> ...
c 45 assumptions
c |       78         0      128 |    7635   371477   852306 |     2     6175       40     3758 | 44.758 % |
[0.794] Executed solver; result: UNSAT.
[0.794] 
[0.794] *************************************
[0.794] * * *   M a k e s p a n     9   * * *
[0.794] *************************************
[0.795] Computed next depth properties: array size of 47.
[0.798] Instantiated 8,166 transitional clauses.
[0.808] 100.0% quadratic At-Most-One encodings, the rest being binary encoded.
[0.808] Instantiated 195,109 universal clauses.
[0.808] Instantiated and added clauses for a total of 1,383,332 clauses.
[0.808] The encoding contains a total of 16,286 distinct variables.
[0.808] Attempting solve with solver <glucose4> ...
c 47 assumptions
[0.840] Executed solver; result: UNSAT.
[0.840] 
[0.840] *************************************
[0.840] * * *   M a k e s p a n    10   * * *
[0.840] *************************************
[0.841] Computed next depth properties: array size of 49.
[0.844] Instantiated 8,462 transitional clauses.
[0.853] 100.0% quadratic At-Most-One encodings, the rest being binary encoded.
[0.853] Instantiated 202,219 universal clauses.
[0.853] Instantiated and added clauses for a total of 1,594,013 clauses.
[0.853] The encoding contains a total of 18,900 distinct variables.
[0.853] Attempting solve with solver <glucose4> ...
c 49 assumptions
[1.166] Executed solver; result: UNSAT.
[1.166] 
[1.166] *************************************
[1.166] * * *   M a k e s p a n    11   * * *
[1.166] *************************************
[1.167] Computed next depth properties: array size of 51.
[1.170] Instantiated 8,758 transitional clauses.
[1.179] 100.0% quadratic At-Most-One encodings, the rest being binary encoded.
[1.179] Instantiated 209,329 universal clauses.
[1.179] Instantiated and added clauses for a total of 1,812,100 clauses.
[1.179] The encoding contains a total of 21,664 distinct variables.
[1.179] Attempting solve with solver <glucose4> ...
c 51 assumptions
[1.369] Executed solver; result: UNSAT.
[1.369] 
[1.369] *************************************
[1.369] * * *   M a k e s p a n    12   * * *
[1.369] *************************************
[1.370] Computed next depth properties: array size of 53.
[1.373] Instantiated 9,054 transitional clauses.
[1.383] 100.0% quadratic At-Most-One encodings, the rest being binary encoded.
[1.383] Instantiated 216,439 universal clauses.
[1.383] Instantiated and added clauses for a total of 2,037,593 clauses.
[1.383] The encoding contains a total of 24,578 distinct variables.
[1.383] Attempting solve with solver <glucose4> ...
c 53 assumptions
[1.530] Executed solver; result: UNSAT.
[1.530] 
[1.530] *************************************
[1.530] * * *   M a k e s p a n    13   * * *
[1.530] *************************************
[1.531] Computed next depth properties: array size of 55.
[1.535] Instantiated 9,350 transitional clauses.
[1.545] 100.0% quadratic At-Most-One encodings, the rest being binary encoded.
[1.545] Instantiated 223,549 universal clauses.
[1.545] Instantiated and added clauses for a total of 2,270,492 clauses.
[1.545] The encoding contains a total of 27,642 distinct variables.
[1.545] Attempting solve with solver <glucose4> ...
c 55 assumptions
[1.804] Executed solver; result: UNSAT.
[1.804] 
[1.804] *************************************
[1.804] * * *   M a k e s p a n    14   * * *
[1.804] *************************************
[1.805] Computed next depth properties: array size of 57.
[1.809] Instantiated 9,646 transitional clauses.
[1.820] 100.0% quadratic At-Most-One encodings, the rest being binary encoded.
[1.820] Instantiated 230,659 universal clauses.
[1.820] Instantiated and added clauses for a total of 2,510,797 clauses.
[1.820] The encoding contains a total of 30,856 distinct variables.
[1.820] Attempting solve with solver <glucose4> ...
c 57 assumptions
[2.076] Executed solver; result: UNSAT.
[2.076] 
[2.076] *************************************
[2.076] * * *   M a k e s p a n    15   * * *
[2.076] *************************************
[2.077] Computed next depth properties: array size of 59.
[2.081] Instantiated 9,942 transitional clauses.
[2.092] 100.0% quadratic At-Most-One encodings, the rest being binary encoded.
[2.092] Instantiated 237,769 universal clauses.
[2.092] Instantiated and added clauses for a total of 2,758,508 clauses.
[2.092] The encoding contains a total of 34,220 distinct variables.
[2.092] Attempting solve with solver <glucose4> ...
c 59 assumptions
c |      119        13      168 |   19490   897100  2044958 |     3    11181       60     8736 | 43.043 % |
[2.242] Executed solver; result: UNSAT.
[2.242] 
[2.242] *************************************
[2.242] * * *   M a k e s p a n    16   * * *
[2.242] *************************************
[2.243] Computed next depth properties: array size of 61.
[2.247] Instantiated 10,238 transitional clauses.
[2.258] 100.0% quadratic At-Most-One encodings, the rest being binary encoded.
[2.258] Instantiated 244,879 universal clauses.
[2.258] Instantiated and added clauses for a total of 3,013,625 clauses.
[2.258] The encoding contains a total of 37,734 distinct variables.
[2.258] Attempting solve with solver <glucose4> ...
c 61 assumptions
[2.432] Executed solver; result: UNSAT.
[2.432] 
[2.432] *************************************
[2.432] * * *   M a k e s p a n    17   * * *
[2.432] *************************************
[2.433] Computed next depth properties: array size of 63.
[2.437] Instantiated 10,534 transitional clauses.
[2.449] 100.0% quadratic At-Most-One encodings, the rest being binary encoded.
[2.449] Instantiated 251,989 universal clauses.
[2.449] Instantiated and added clauses for a total of 3,276,148 clauses.
[2.449] The encoding contains a total of 41,398 distinct variables.
[2.449] Attempting solve with solver <glucose4> ...
c 63 assumptions
[2.580] Executed solver; result: UNSAT.
[2.580] 
[2.580] *************************************
[2.580] * * *   M a k e s p a n    18   * * *
[2.580] *************************************
[2.582] Computed next depth properties: array size of 65.
[2.585] Instantiated 10,830 transitional clauses.
[2.598] 100.0% quadratic At-Most-One encodings, the rest being binary encoded.
[2.598] Instantiated 259,099 universal clauses.
[2.598] Instantiated and added clauses for a total of 3,546,077 clauses.
[2.598] The encoding contains a total of 45,212 distinct variables.
[2.598] Attempting solve with solver <glucose4> ...
c 65 assumptions
[2.806] Executed solver; result: UNSAT.
[2.806] 
[2.806] *************************************
[2.806] * * *   M a k e s p a n    19   * * *
[2.806] *************************************
[2.807] Computed next depth properties: array size of 67.
[2.811] Instantiated 11,126 transitional clauses.
[2.825] 100.0% quadratic At-Most-One encodings, the rest being binary encoded.
[2.825] Instantiated 266,209 universal clauses.
[2.825] Instantiated and added clauses for a total of 3,823,412 clauses.
[2.825] The encoding contains a total of 49,176 distinct variables.
[2.825] Attempting solve with solver <glucose4> ...
c 67 assumptions
[3.052] Executed solver; result: UNSAT.
[3.052] 
[3.052] *************************************
[3.052] * * *   M a k e s p a n    20   * * *
[3.052] *************************************
[3.053] Computed next depth properties: array size of 69.
[3.056] Instantiated 11,422 transitional clauses.
[3.069] 100.0% quadratic At-Most-One encodings, the rest being binary encoded.
[3.069] Instantiated 273,319 universal clauses.
[3.069] Instantiated and added clauses for a total of 4,108,153 clauses.
[3.069] The encoding contains a total of 53,290 distinct variables.
[3.069] Attempting solve with solver <glucose4> ...
c 69 assumptions
[3.306] Executed solver; result: UNSAT.
[3.306] 
[3.306] *************************************
[3.306] * * *   M a k e s p a n    21   * * *
[3.306] *************************************
[3.307] Computed next depth properties: array size of 71.
[3.312] Instantiated 11,718 transitional clauses.
[3.326] 100.0% quadratic At-Most-One encodings, the rest being binary encoded.
[3.326] Instantiated 280,429 universal clauses.
[3.326] Instantiated and added clauses for a total of 4,400,300 clauses.
[3.326] The encoding contains a total of 57,554 distinct variables.
[3.326] Attempting solve with solver <glucose4> ...
c 71 assumptions
[3.545] Executed solver; result: UNSAT.
[3.545] 
[3.545] *************************************
[3.545] * * *   M a k e s p a n    22   * * *
[3.545] *************************************
[3.546] Computed next depth properties: array size of 73.
[3.550] Instantiated 12,014 transitional clauses.
[3.564] 100.0% quadratic At-Most-One encodings, the rest being binary encoded.
[3.564] Instantiated 287,539 universal clauses.
[3.564] Instantiated and added clauses for a total of 4,699,853 clauses.
[3.564] The encoding contains a total of 61,968 distinct variables.
[3.564] Attempting solve with solver <glucose4> ...
c 73 assumptions
[3.689] Executed solver; result: UNSAT.
[3.689] 
[3.689] *************************************
[3.689] * * *   M a k e s p a n    23   * * *
[3.689] *************************************
[3.691] Computed next depth properties: array size of 75.
[3.694] Instantiated 12,310 transitional clauses.
[3.709] 100.0% quadratic At-Most-One encodings, the rest being binary encoded.
[3.709] Instantiated 294,649 universal clauses.
[3.709] Instantiated and added clauses for a total of 5,006,812 clauses.
[3.709] The encoding contains a total of 66,532 distinct variables.
[3.709] Attempting solve with solver <glucose4> ...
c 75 assumptions
[3.835] Executed solver; result: UNSAT.
[3.835] 
[3.835] *************************************
[3.835] * * *   M a k e s p a n    24   * * *
[3.835] *************************************
[3.837] Computed next depth properties: array size of 77.
[3.841] Instantiated 12,606 transitional clauses.
[3.856] 100.0% quadratic At-Most-One encodings, the rest being binary encoded.
[3.856] Instantiated 301,759 universal clauses.
[3.856] Instantiated and added clauses for a total of 5,321,177 clauses.
[3.856] The encoding contains a total of 71,246 distinct variables.
[3.856] Attempting solve with solver <glucose4> ...
c 77 assumptions
[3.970] Executed solver; result: UNSAT.
[3.970] 
[3.970] *************************************
[3.970] * * *   M a k e s p a n    25   * * *
[3.970] *************************************
[3.971] Computed next depth properties: array size of 79.
[3.975] Instantiated 12,902 transitional clauses.
[3.990] 100.0% quadratic At-Most-One encodings, the rest being binary encoded.
[3.990] Instantiated 308,869 universal clauses.
[3.990] Instantiated and added clauses for a total of 5,642,948 clauses.
[3.990] The encoding contains a total of 76,110 distinct variables.
[3.990] Attempting solve with solver <glucose4> ...
c 79 assumptions
[4.135] Executed solver; result: UNSAT.
[4.135] 
[4.135] *************************************
[4.135] * * *   M a k e s p a n    26   * * *
[4.135] *************************************
[4.137] Computed next depth properties: array size of 81.
[4.141] Instantiated 13,198 transitional clauses.
[4.156] 100.0% quadratic At-Most-One encodings, the rest being binary encoded.
[4.156] Instantiated 315,979 universal clauses.
[4.156] Instantiated and added clauses for a total of 5,972,125 clauses.
[4.156] The encoding contains a total of 81,124 distinct variables.
[4.156] Attempting solve with solver <glucose4> ...
c 81 assumptions
[4.271] Executed solver; result: UNSAT.
[4.271] 
[4.271] *************************************
[4.271] * * *   M a k e s p a n    27   * * *
[4.271] *************************************
[4.272] Computed next depth properties: array size of 83.
[4.277] Instantiated 13,494 transitional clauses.
[4.293] 100.0% quadratic At-Most-One encodings, the rest being binary encoded.
[4.293] Instantiated 323,089 universal clauses.
[4.293] Instantiated and added clauses for a total of 6,308,708 clauses.
[4.293] The encoding contains a total of 86,288 distinct variables.
[4.293] Attempting solve with solver <glucose4> ...
c 83 assumptions
[4.368] Executed solver; result: UNSAT.
[4.368] 
[4.368] *************************************
[4.368] * * *   M a k e s p a n    28   * * *
[4.368] *************************************
[4.370] Computed next depth properties: array size of 85.
[4.374] Instantiated 13,790 transitional clauses.
[4.390] 100.0% quadratic At-Most-One encodings, the rest being binary encoded.
[4.390] Instantiated 330,199 universal clauses.
[4.390] Instantiated and added clauses for a total of 6,652,697 clauses.
[4.390] The encoding contains a total of 91,602 distinct variables.
[4.390] Attempting solve with solver <glucose4> ...
c 85 assumptions
[4.407] Executed solver; result: UNSAT.
[4.407] 
[4.407] *************************************
[4.407] * * *   M a k e s p a n    29   * * *
[4.407] *************************************
[4.409] Computed next depth properties: array size of 87.
[4.413] Instantiated 14,086 transitional clauses.
[4.430] 100.0% quadratic At-Most-One encodings, the rest being binary encoded.
[4.430] Instantiated 337,309 universal clauses.
[4.430] Instantiated and added clauses for a total of 7,004,092 clauses.
[4.430] The encoding contains a total of 97,066 distinct variables.
[4.430] Attempting solve with solver <glucose4> ...
c 87 assumptions
[4.464] Executed solver; result: UNSAT.
[4.464] 
[4.464] *************************************
[4.464] * * *   M a k e s p a n    30   * * *
[4.464] *************************************
[4.466] Computed next depth properties: array size of 89.
[4.470] Instantiated 14,382 transitional clauses.
[4.488] 100.0% quadratic At-Most-One encodings, the rest being binary encoded.
[4.488] Instantiated 344,419 universal clauses.
[4.488] Instantiated and added clauses for a total of 7,362,893 clauses.
[4.488] The encoding contains a total of 102,680 distinct variables.
[4.488] Attempting solve with solver <glucose4> ...
c 89 assumptions
[4.503] Executed solver; result: UNSAT.
[4.503] 
[4.503] *************************************
[4.503] * * *   M a k e s p a n    31   * * *
[4.503] *************************************
[4.505] Computed next depth properties: array size of 91.
[4.509] Instantiated 14,678 transitional clauses.
[4.527] 100.0% quadratic At-Most-One encodings, the rest being binary encoded.
[4.527] Instantiated 351,529 universal clauses.
[4.527] Instantiated and added clauses for a total of 7,729,100 clauses.
[4.527] The encoding contains a total of 108,444 distinct variables.
[4.527] Attempting solve with solver <glucose4> ...
c 91 assumptions
[4.671] Executed solver; result: UNSAT.
[4.671] 
[4.671] *************************************
[4.671] * * *   M a k e s p a n    32   * * *
[4.671] *************************************
[4.673] Computed next depth properties: array size of 93.
[4.677] Instantiated 14,974 transitional clauses.
[4.695] 100.0% quadratic At-Most-One encodings, the rest being binary encoded.
[4.695] Instantiated 358,639 universal clauses.
[4.695] Instantiated and added clauses for a total of 8,102,713 clauses.
[4.695] The encoding contains a total of 114,358 distinct variables.
[4.695] Attempting solve with solver <glucose4> ...
c 93 assumptions
[4.723] Executed solver; result: UNSAT.
[4.723] 
[4.723] *************************************
[4.723] * * *   M a k e s p a n    33   * * *
[4.723] *************************************
[4.725] Computed next depth properties: array size of 95.
[4.730] Instantiated 15,270 transitional clauses.
[4.749] 100.0% quadratic At-Most-One encodings, the rest being binary encoded.
[4.749] Instantiated 365,749 universal clauses.
[4.749] Instantiated and added clauses for a total of 8,483,732 clauses.
[4.749] The encoding contains a total of 120,422 distinct variables.
[4.749] Attempting solve with solver <glucose4> ...
c 95 assumptions
[4.765] Executed solver; result: UNSAT.
[4.765] 
[4.765] *************************************
[4.765] * * *   M a k e s p a n    34   * * *
[4.765] *************************************
[4.767] Computed next depth properties: array size of 97.
[4.772] Instantiated 15,566 transitional clauses.
[4.790] 100.0% quadratic At-Most-One encodings, the rest being binary encoded.
[4.790] Instantiated 372,859 universal clauses.
[4.790] Instantiated and added clauses for a total of 8,872,157 clauses.
[4.790] The encoding contains a total of 126,636 distinct variables.
[4.790] Attempting solve with solver <glucose4> ...
c 97 assumptions
[4.799] Executed solver; result: UNSAT.
[4.799] 
[4.799] *************************************
[4.799] * * *   M a k e s p a n    35   * * *
[4.799] *************************************
[4.801] Computed next depth properties: array size of 99.
[4.806] Instantiated 15,862 transitional clauses.
[4.825] 100.0% quadratic At-Most-One encodings, the rest being binary encoded.
[4.825] Instantiated 379,969 universal clauses.
[4.825] Instantiated and added clauses for a total of 9,267,988 clauses.
[4.825] The encoding contains a total of 133,000 distinct variables.
[4.825] Attempting solve with solver <glucose4> ...
c 99 assumptions
[4.831] Executed solver; result: UNSAT.
[4.831] 
[4.831] *************************************
[4.831] * * *   M a k e s p a n    36   * * *
[4.831] *************************************
[4.833] Computed next depth properties: array size of 101.
[4.837] Instantiated 16,158 transitional clauses.
[4.861] 100.0% quadratic At-Most-One encodings, the rest being binary encoded.
[4.861] Instantiated 387,079 universal clauses.
[4.861] Instantiated and added clauses for a total of 9,671,225 clauses.
[4.861] The encoding contains a total of 139,514 distinct variables.
[4.861] Attempting solve with solver <glucose4> ...
c 101 assumptions
[4.868] Executed solver; result: UNSAT.
[4.868] 
[4.868] *************************************
[4.868] * * *   M a k e s p a n    37   * * *
[4.868] *************************************
[4.870] Computed next depth properties: array size of 103.
[4.875] Instantiated 16,454 transitional clauses.
[4.895] 100.0% quadratic At-Most-One encodings, the rest being binary encoded.
[4.895] Instantiated 394,189 universal clauses.
[4.895] Instantiated and added clauses for a total of 10,081,868 clauses.
[4.895] The encoding contains a total of 146,178 distinct variables.
[4.895] Attempting solve with solver <glucose4> ...
c 103 assumptions
[4.901] Executed solver; result: UNSAT.
[4.901] 
[4.901] *************************************
[4.901] * * *   M a k e s p a n    38   * * *
[4.901] *************************************
[4.903] Computed next depth properties: array size of 105.
[4.908] Instantiated 16,750 transitional clauses.
[4.929] 100.0% quadratic At-Most-One encodings, the rest being binary encoded.
[4.929] Instantiated 401,299 universal clauses.
[4.929] Instantiated and added clauses for a total of 10,499,917 clauses.
[4.929] The encoding contains a total of 152,992 distinct variables.
[4.929] Attempting solve with solver <glucose4> ...
c 105 assumptions
[4.935] Executed solver; result: UNSAT.
[4.935] 
[4.935] *************************************
[4.935] * * *   M a k e s p a n    39   * * *
[4.935] *************************************
[4.938] Computed next depth properties: array size of 107.
[4.942] Instantiated 17,046 transitional clauses.
[4.963] 100.0% quadratic At-Most-One encodings, the rest being binary encoded.
[4.963] Instantiated 408,409 universal clauses.
[4.963] Instantiated and added clauses for a total of 10,925,372 clauses.
[4.963] The encoding contains a total of 159,956 distinct variables.
[4.963] Attempting solve with solver <glucose4> ...
c 107 assumptions
[4.969] Executed solver; result: UNSAT.
[4.969] 
[4.969] *************************************
[4.969] * * *   M a k e s p a n    40   * * *
[4.969] *************************************
[4.971] Computed next depth properties: array size of 109.
[4.975] Instantiated 17,342 transitional clauses.
[4.998] 100.0% quadratic At-Most-One encodings, the rest being binary encoded.
[4.998] Instantiated 415,519 universal clauses.
[4.998] Instantiated and added clauses for a total of 11,358,233 clauses.
[4.998] The encoding contains a total of 167,070 distinct variables.
[4.998] Attempting solve with solver <glucose4> ...
c 109 assumptions
[5.005] Executed solver; result: UNSAT.
[5.005] 
[5.005] *************************************
[5.005] * * *   M a k e s p a n    41   * * *
[5.005] *************************************
[5.007] Computed next depth properties: array size of 111.
[5.012] Instantiated 17,638 transitional clauses.
[5.034] 100.0% quadratic At-Most-One encodings, the rest being binary encoded.
[5.034] Instantiated 422,629 universal clauses.
[5.034] Instantiated and added clauses for a total of 11,798,500 clauses.
[5.034] The encoding contains a total of 174,334 distinct variables.
[5.034] Attempting solve with solver <glucose4> ...
c 111 assumptions
[5.040] Executed solver; result: UNSAT.
[5.040] 
[5.040] *************************************
[5.040] * * *   M a k e s p a n    42   * * *
[5.040] *************************************
[5.042] Computed next depth properties: array size of 113.
[5.047] Instantiated 17,934 transitional clauses.
[5.069] 100.0% quadratic At-Most-One encodings, the rest being binary encoded.
[5.069] Instantiated 429,739 universal clauses.
[5.069] Instantiated and added clauses for a total of 12,246,173 clauses.
[5.069] The encoding contains a total of 181,748 distinct variables.
[5.069] Attempting solve with solver <glucose4> ...
c 113 assumptions
[5.076] Executed solver; result: UNSAT.
[5.076] 
[5.076] *************************************
[5.076] * * *   M a k e s p a n    43   * * *
[5.076] *************************************
[5.078] Computed next depth properties: array size of 115.
[5.085] Instantiated 18,230 transitional clauses.
[5.106] 100.0% quadratic At-Most-One encodings, the rest being binary encoded.
[5.106] Instantiated 436,849 universal clauses.
[5.106] Instantiated and added clauses for a total of 12,701,252 clauses.
[5.106] The encoding contains a total of 189,312 distinct variables.
[5.106] Attempting solve with solver <glucose4> ...
c 115 assumptions
[5.115] Executed solver; result: UNSAT.
[5.115] 
[5.115] *************************************
[5.115] * * *   M a k e s p a n    44   * * *
[5.115] *************************************
[5.117] Computed next depth properties: array size of 117.
[5.123] Instantiated 18,526 transitional clauses.
[5.148] 100.0% quadratic At-Most-One encodings, the rest being binary encoded.
[5.148] Instantiated 443,959 universal clauses.
[5.148] Instantiated and added clauses for a total of 13,163,737 clauses.
[5.148] The encoding contains a total of 197,026 distinct variables.
[5.148] Attempting solve with solver <glucose4> ...
c 117 assumptions
[5.157] Executed solver; result: UNSAT.
[5.157] 
[5.157] *************************************
[5.157] * * *   M a k e s p a n    45   * * *
[5.157] *************************************
[5.159] Computed next depth properties: array size of 119.
[5.164] Instantiated 18,822 transitional clauses.
[5.187] 100.0% quadratic At-Most-One encodings, the rest being binary encoded.
[5.187] Instantiated 451,069 universal clauses.
[5.187] Instantiated and added clauses for a total of 13,633,628 clauses.
[5.187] The encoding contains a total of 204,890 distinct variables.
[5.187] Attempting solve with solver <glucose4> ...
c 119 assumptions
[5.194] Executed solver; result: UNSAT.
[5.194] 
[5.194] *************************************
[5.194] * * *   M a k e s p a n    46   * * *
[5.194] *************************************
[5.197] Computed next depth properties: array size of 121.
[5.202] Instantiated 19,118 transitional clauses.
[5.226] 100.0% quadratic At-Most-One encodings, the rest being binary encoded.
[5.226] Instantiated 458,179 universal clauses.
[5.226] Instantiated and added clauses for a total of 14,110,925 clauses.
[5.226] The encoding contains a total of 212,904 distinct variables.
[5.226] Attempting solve with solver <glucose4> ...
c 121 assumptions
[5.234] Executed solver; result: UNSAT.
[5.234] 
[5.234] *************************************
[5.234] * * *   M a k e s p a n    47   * * *
[5.234] *************************************
[5.236] Computed next depth properties: array size of 123.
[5.242] Instantiated 19,414 transitional clauses.
[5.267] 100.0% quadratic At-Most-One encodings, the rest being binary encoded.
[5.267] Instantiated 465,289 universal clauses.
[5.267] Instantiated and added clauses for a total of 14,595,628 clauses.
[5.267] The encoding contains a total of 221,068 distinct variables.
[5.267] Attempting solve with solver <glucose4> ...
c 123 assumptions
[5.276] Executed solver; result: UNSAT.
[5.276] 
[5.276] *************************************
[5.276] * * *   M a k e s p a n    48   * * *
[5.276] *************************************
[5.279] Computed next depth properties: array size of 125.
[5.284] Instantiated 19,710 transitional clauses.
[5.310] 100.0% quadratic At-Most-One encodings, the rest being binary encoded.
[5.310] Instantiated 472,399 universal clauses.
[5.310] Instantiated and added clauses for a total of 15,087,737 clauses.
[5.310] The encoding contains a total of 229,382 distinct variables.
[5.310] Attempting solve with solver <glucose4> ...
c 125 assumptions
[5.320] Executed solver; result: UNSAT.
[5.320] 
[5.320] *************************************
[5.320] * * *   M a k e s p a n    49   * * *
[5.320] *************************************
[5.323] Computed next depth properties: array size of 127.
[5.328] Instantiated 20,006 transitional clauses.
[5.354] 100.0% quadratic At-Most-One encodings, the rest being binary encoded.
[5.354] Instantiated 479,509 universal clauses.
[5.354] Instantiated and added clauses for a total of 15,587,252 clauses.
[5.354] The encoding contains a total of 237,846 distinct variables.
[5.354] Attempting solve with solver <glucose4> ...
c 127 assumptions
[5.366] Executed solver; result: UNSAT.
[5.366] 
[5.366] *************************************
[5.366] * * *   M a k e s p a n    50   * * *
[5.366] *************************************
[5.368] Computed next depth properties: array size of 129.
[5.374] Instantiated 20,302 transitional clauses.
[5.400] 100.0% quadratic At-Most-One encodings, the rest being binary encoded.
[5.400] Instantiated 486,619 universal clauses.
[5.400] Instantiated and added clauses for a total of 16,094,173 clauses.
[5.400] The encoding contains a total of 246,460 distinct variables.
[5.400] Attempting solve with solver <glucose4> ...
c 129 assumptions
[5.411] Executed solver; result: UNSAT.
[5.411] 
[5.411] *************************************
[5.411] * * *   M a k e s p a n    51   * * *
[5.411] *************************************
[5.413] Computed next depth properties: array size of 131.
[5.419] Instantiated 20,598 transitional clauses.
[5.445] 100.0% quadratic At-Most-One encodings, the rest being binary encoded.
[5.445] Instantiated 493,729 universal clauses.
[5.445] Instantiated and added clauses for a total of 16,608,500 clauses.
[5.445] The encoding contains a total of 255,224 distinct variables.
[5.445] Attempting solve with solver <glucose4> ...
c 131 assumptions
[5.480] Executed solver; result: UNSAT.
[5.480] 
[5.480] *************************************
[5.480] * * *   M a k e s p a n    52   * * *
[5.480] *************************************
[5.482] Computed next depth properties: array size of 133.
[5.488] Instantiated 20,894 transitional clauses.
[5.514] 100.0% quadratic At-Most-One encodings, the rest being binary encoded.
[5.514] Instantiated 500,839 universal clauses.
[5.514] Instantiated and added clauses for a total of 17,130,233 clauses.
[5.514] The encoding contains a total of 264,138 distinct variables.
[5.514] Attempting solve with solver <glucose4> ...
c 133 assumptions
[5.527] Executed solver; result: UNSAT.
[5.527] 
[5.527] *************************************
[5.527] * * *   M a k e s p a n    53   * * *
[5.527] *************************************
[5.531] Computed next depth properties: array size of 135.
[5.537] Instantiated 21,190 transitional clauses.
[5.564] 100.0% quadratic At-Most-One encodings, the rest being binary encoded.
[5.564] Instantiated 507,949 universal clauses.
[5.564] Instantiated and added clauses for a total of 17,659,372 clauses.
[5.564] The encoding contains a total of 273,202 distinct variables.
[5.565] Attempting solve with solver <glucose4> ...
c 135 assumptions
[5.578] Executed solver; result: UNSAT.
[5.578] 
[5.578] *************************************
[5.578] * * *   M a k e s p a n    54   * * *
[5.578] *************************************
[5.580] Computed next depth properties: array size of 137.
[5.588] Instantiated 21,486 transitional clauses.
[5.616] 100.0% quadratic At-Most-One encodings, the rest being binary encoded.
[5.616] Instantiated 515,059 universal clauses.
[5.616] Instantiated and added clauses for a total of 18,195,917 clauses.
[5.616] The encoding contains a total of 282,416 distinct variables.
[5.616] Attempting solve with solver <glucose4> ...
c 137 assumptions
[5.625] Executed solver; result: UNSAT.
[5.625] 
[5.625] *************************************
[5.625] * * *   M a k e s p a n    55   * * *
[5.625] *************************************
[5.628] Computed next depth properties: array size of 139.
[5.634] Instantiated 21,782 transitional clauses.
[5.663] 100.0% quadratic At-Most-One encodings, the rest being binary encoded.
[5.663] Instantiated 522,169 universal clauses.
[5.663] Instantiated and added clauses for a total of 18,739,868 clauses.
[5.663] The encoding contains a total of 291,780 distinct variables.
[5.663] Attempting solve with solver <glucose4> ...
c 139 assumptions
[5.678] Executed solver; result: UNSAT.
[5.678] 
[5.678] *************************************
[5.678] * * *   M a k e s p a n    56   * * *
[5.678] *************************************
[5.681] Computed next depth properties: array size of 141.
[5.687] Instantiated 22,078 transitional clauses.
[5.717] 100.0% quadratic At-Most-One encodings, the rest being binary encoded.
[5.717] Instantiated 529,279 universal clauses.
[5.717] Instantiated and added clauses for a total of 19,291,225 clauses.
[5.717] The encoding contains a total of 301,294 distinct variables.
[5.717] Attempting solve with solver <glucose4> ...
c 141 assumptions
[5.728] Executed solver; result: UNSAT.
[5.728] 
[5.728] *************************************
[5.728] * * *   M a k e s p a n    57   * * *
[5.728] *************************************
[5.731] Computed next depth properties: array size of 143.
[5.737] Instantiated 22,374 transitional clauses.
[5.766] 100.0% quadratic At-Most-One encodings, the rest being binary encoded.
[5.766] Instantiated 536,389 universal clauses.
[5.766] Instantiated and added clauses for a total of 19,849,988 clauses.
[5.766] The encoding contains a total of 310,958 distinct variables.
[5.766] Attempting solve with solver <glucose4> ...
c 143 assumptions
[5.782] Executed solver; result: UNSAT.
[5.782] 
[5.782] *************************************
[5.782] * * *   M a k e s p a n    58   * * *
[5.782] *************************************
[5.785] Computed next depth properties: array size of 145.
[5.792] Instantiated 22,670 transitional clauses.
[5.822] 100.0% quadratic At-Most-One encodings, the rest being binary encoded.
[5.822] Instantiated 543,499 universal clauses.
[5.822] Instantiated and added clauses for a total of 20,416,157 clauses.
[5.822] The encoding contains a total of 320,772 distinct variables.
[5.822] Attempting solve with solver <glucose4> ...
c 145 assumptions
[5.837] Executed solver; result: UNSAT.
[5.837] 
[5.837] *************************************
[5.837] * * *   M a k e s p a n    59   * * *
[5.837] *************************************
[5.839] Computed next depth properties: array size of 147.
[5.846] Instantiated 22,966 transitional clauses.
[5.877] 100.0% quadratic At-Most-One encodings, the rest being binary encoded.
[5.877] Instantiated 550,609 universal clauses.
[5.877] Instantiated and added clauses for a total of 20,989,732 clauses.
[5.877] The encoding contains a total of 330,736 distinct variables.
[5.877] Attempting solve with solver <glucose4> ...
c 147 assumptions
[5.891] Executed solver; result: UNSAT.
[5.891] 
[5.891] *************************************
[5.891] * * *   M a k e s p a n    60   * * *
[5.891] *************************************
[5.894] Computed next depth properties: array size of 149.
[5.900] Instantiated 23,262 transitional clauses.
[5.931] 100.0% quadratic At-Most-One encodings, the rest being binary encoded.
[5.931] Instantiated 557,719 universal clauses.
[5.931] Instantiated and added clauses for a total of 21,570,713 clauses.
[5.931] The encoding contains a total of 340,850 distinct variables.
[5.931] Attempting solve with solver <glucose4> ...
c 149 assumptions
[5.943] Executed solver; result: UNSAT.
[5.943] 
[5.943] *************************************
[5.943] * * *   M a k e s p a n    61   * * *
[5.943] *************************************
[5.946] Computed next depth properties: array size of 151.
[5.953] Instantiated 23,558 transitional clauses.
[5.982] 100.0% quadratic At-Most-One encodings, the rest being binary encoded.
[5.982] Instantiated 564,829 universal clauses.
[5.982] Instantiated and added clauses for a total of 22,159,100 clauses.
[5.982] The encoding contains a total of 351,114 distinct variables.
[5.982] Attempting solve with solver <glucose4> ...
c 151 assumptions
[5.998] Executed solver; result: UNSAT.
[5.998] 
[5.998] *************************************
[5.998] * * *   M a k e s p a n    62   * * *
[5.998] *************************************
[6.001] Computed next depth properties: array size of 153.
[6.009] Instantiated 23,854 transitional clauses.
[6.040] 100.0% quadratic At-Most-One encodings, the rest being binary encoded.
[6.040] Instantiated 571,939 universal clauses.
[6.040] Instantiated and added clauses for a total of 22,754,893 clauses.
[6.040] The encoding contains a total of 361,528 distinct variables.
[6.040] Attempting solve with solver <glucose4> ...
c 153 assumptions
[6.054] Executed solver; result: UNSAT.
[6.054] 
[6.054] *************************************
[6.054] * * *   M a k e s p a n    63   * * *
[6.054] *************************************
[6.057] Computed next depth properties: array size of 155.
[6.064] Instantiated 24,150 transitional clauses.
[6.097] 100.0% quadratic At-Most-One encodings, the rest being binary encoded.
[6.097] Instantiated 579,049 universal clauses.
[6.097] Instantiated and added clauses for a total of 23,358,092 clauses.
[6.097] The encoding contains a total of 372,092 distinct variables.
[6.097] Attempting solve with solver <glucose4> ...
c 155 assumptions
[6.110] Executed solver; result: UNSAT.
[6.110] 
[6.110] *************************************
[6.110] * * *   M a k e s p a n    64   * * *
[6.110] *************************************
[6.113] Computed next depth properties: array size of 157.
[6.121] Instantiated 24,446 transitional clauses.
[6.153] 100.0% quadratic At-Most-One encodings, the rest being binary encoded.
[6.153] Instantiated 586,159 universal clauses.
[6.153] Instantiated and added clauses for a total of 23,968,697 clauses.
[6.153] The encoding contains a total of 382,806 distinct variables.
[6.153] Attempting solve with solver <glucose4> ...
c 157 assumptions
[6.168] Executed solver; result: UNSAT.
[6.168] 
[6.168] *************************************
[6.168] * * *   M a k e s p a n    65   * * *
[6.168] *************************************
[6.171] Computed next depth properties: array size of 159.
[6.177] Instantiated 24,742 transitional clauses.
[6.210] 100.0% quadratic At-Most-One encodings, the rest being binary encoded.
[6.210] Instantiated 593,269 universal clauses.
[6.210] Instantiated and added clauses for a total of 24,586,708 clauses.
[6.210] The encoding contains a total of 393,670 distinct variables.
[6.210] Attempting solve with solver <glucose4> ...
c 159 assumptions
[6.223] Executed solver; result: UNSAT.
[6.223] 
[6.223] *************************************
[6.223] * * *   M a k e s p a n    66   * * *
[6.223] *************************************
[6.226] Computed next depth properties: array size of 161.
[6.233] Instantiated 25,038 transitional clauses.
[6.264] 100.0% quadratic At-Most-One encodings, the rest being binary encoded.
[6.264] Instantiated 600,379 universal clauses.
[6.264] Instantiated and added clauses for a total of 25,212,125 clauses.
[6.264] The encoding contains a total of 404,684 distinct variables.
[6.264] Attempting solve with solver <glucose4> ...
c 161 assumptions
[6.277] Executed solver; result: UNSAT.
[6.277] 
[6.277] *************************************
[6.277] * * *   M a k e s p a n    67   * * *
[6.277] *************************************
[6.280] Computed next depth properties: array size of 163.
[6.289] Instantiated 25,334 transitional clauses.
[6.321] 100.0% quadratic At-Most-One encodings, the rest being binary encoded.
[6.321] Instantiated 607,489 universal clauses.
[6.321] Instantiated and added clauses for a total of 25,844,948 clauses.
[6.321] The encoding contains a total of 415,848 distinct variables.
[6.321] Attempting solve with solver <glucose4> ...
c 163 assumptions
[6.338] Executed solver; result: UNSAT.
[6.338] 
[6.338] *************************************
[6.338] * * *   M a k e s p a n    68   * * *
[6.338] *************************************
[6.342] Computed next depth properties: array size of 165.
[6.348] Instantiated 25,630 transitional clauses.
[6.381] 100.0% quadratic At-Most-One encodings, the rest being binary encoded.
[6.381] Instantiated 614,599 universal clauses.
[6.381] Instantiated and added clauses for a total of 26,485,177 clauses.
[6.381] The encoding contains a total of 427,162 distinct variables.
[6.381] Attempting solve with solver <glucose4> ...
c 165 assumptions
[6.400] Executed solver; result: UNSAT.
[6.400] 
[6.400] *************************************
[6.400] * * *   M a k e s p a n    69   * * *
[6.400] *************************************
[6.404] Computed next depth properties: array size of 167.
[6.411] Instantiated 25,926 transitional clauses.
[6.444] 100.0% quadratic At-Most-One encodings, the rest being binary encoded.
[6.444] Instantiated 621,709 universal clauses.
[6.444] Instantiated and added clauses for a total of 27,132,812 clauses.
[6.444] The encoding contains a total of 438,626 distinct variables.
[6.444] Attempting solve with solver <glucose4> ...
c 167 assumptions
[6.461] Executed solver; result: UNSAT.
[6.461] 
[6.461] *************************************
[6.461] * * *   M a k e s p a n    70   * * *
[6.461] *************************************
[6.464] Computed next depth properties: array size of 169.
[6.472] Instantiated 26,222 transitional clauses.
[6.506] 100.0% quadratic At-Most-One encodings, the rest being binary encoded.
[6.506] Instantiated 628,819 universal clauses.
[6.506] Instantiated and added clauses for a total of 27,787,853 clauses.
[6.506] The encoding contains a total of 450,240 distinct variables.
[6.506] Attempting solve with solver <glucose4> ...
c 169 assumptions
[6.524] Executed solver; result: UNSAT.
[6.524] 
[6.524] *************************************
[6.524] * * *   M a k e s p a n    71   * * *
[6.524] *************************************
[6.528] Computed next depth properties: array size of 171.
[6.535] Instantiated 26,518 transitional clauses.
[6.569] 100.0% quadratic At-Most-One encodings, the rest being binary encoded.
[6.569] Instantiated 635,929 universal clauses.
[6.569] Instantiated and added clauses for a total of 28,450,300 clauses.
[6.569] The encoding contains a total of 462,004 distinct variables.
[6.569] Attempting solve with solver <glucose4> ...
c 171 assumptions
[6.584] Executed solver; result: UNSAT.
[6.584] 
[6.584] *************************************
[6.584] * * *   M a k e s p a n    72   * * *
[6.584] *************************************
[6.587] Computed next depth properties: array size of 173.
[6.596] Instantiated 26,814 transitional clauses.
[6.631] 100.0% quadratic At-Most-One encodings, the rest being binary encoded.
[6.631] Instantiated 643,039 universal clauses.
[6.631] Instantiated and added clauses for a total of 29,120,153 clauses.
[6.631] The encoding contains a total of 473,918 distinct variables.
[6.631] Attempting solve with solver <glucose4> ...
c 173 assumptions
[6.653] Executed solver; result: UNSAT.
[6.653] 
[6.653] *************************************
[6.653] * * *   M a k e s p a n    73   * * *
[6.653] *************************************
[6.656] Computed next depth properties: array size of 175.
[6.664] Instantiated 27,110 transitional clauses.
[6.699] 100.0% quadratic At-Most-One encodings, the rest being binary encoded.
[6.699] Instantiated 650,149 universal clauses.
[6.699] Instantiated and added clauses for a total of 29,797,412 clauses.
[6.699] The encoding contains a total of 485,982 distinct variables.
[6.699] Attempting solve with solver <glucose4> ...
c 175 assumptions
[6.718] Executed solver; result: UNSAT.
[6.718] 
[6.718] *************************************
[6.718] * * *   M a k e s p a n    74   * * *
[6.718] *************************************
[6.722] Computed next depth properties: array size of 177.
[6.730] Instantiated 27,406 transitional clauses.
[6.766] 100.0% quadratic At-Most-One encodings, the rest being binary encoded.
[6.766] Instantiated 657,259 universal clauses.
[6.766] Instantiated and added clauses for a total of 30,482,077 clauses.
[6.766] The encoding contains a total of 498,196 distinct variables.
[6.766] Attempting solve with solver <glucose4> ...
c 177 assumptions
[6.785] Executed solver; result: UNSAT.
[6.785] 
[6.785] *************************************
[6.785] * * *   M a k e s p a n    75   * * *
[6.785] *************************************
[6.789] Computed next depth properties: array size of 179.
[6.796] Instantiated 27,702 transitional clauses.
[6.833] 100.0% quadratic At-Most-One encodings, the rest being binary encoded.
[6.833] Instantiated 664,369 universal clauses.
[6.833] Instantiated and added clauses for a total of 31,174,148 clauses.
[6.833] The encoding contains a total of 510,560 distinct variables.
[6.833] Attempting solve with solver <glucose4> ...
c 179 assumptions
[6.854] Executed solver; result: UNSAT.
[6.854] 
[6.854] *************************************
[6.854] * * *   M a k e s p a n    76   * * *
[6.854] *************************************
[6.858] Computed next depth properties: array size of 181.
[6.866] Instantiated 27,998 transitional clauses.
[6.904] 100.0% quadratic At-Most-One encodings, the rest being binary encoded.
[6.904] Instantiated 671,479 universal clauses.
[6.904] Instantiated and added clauses for a total of 31,873,625 clauses.
[6.904] The encoding contains a total of 523,074 distinct variables.
[6.904] Attempting solve with solver <glucose4> ...
c 181 assumptions
[6.935] Executed solver; result: UNSAT.
[6.935] 
[6.935] *************************************
[6.935] * * *   M a k e s p a n    77   * * *
[6.935] *************************************
[6.938] Computed next depth properties: array size of 183.
[6.946] Instantiated 28,294 transitional clauses.
[6.982] 100.0% quadratic At-Most-One encodings, the rest being binary encoded.
[6.982] Instantiated 678,589 universal clauses.
[6.982] Instantiated and added clauses for a total of 32,580,508 clauses.
[6.982] The encoding contains a total of 535,738 distinct variables.
[6.982] Attempting solve with solver <glucose4> ...
c 183 assumptions
[7.006] Executed solver; result: UNSAT.
[7.006] 
[7.006] *************************************
[7.006] * * *   M a k e s p a n    78   * * *
[7.006] *************************************
[7.010] Computed next depth properties: array size of 185.
[7.018] Instantiated 28,590 transitional clauses.
[7.055] 100.0% quadratic At-Most-One encodings, the rest being binary encoded.
[7.055] Instantiated 685,699 universal clauses.
[7.055] Instantiated and added clauses for a total of 33,294,797 clauses.
[7.055] The encoding contains a total of 548,552 distinct variables.
[7.055] Attempting solve with solver <glucose4> ...
c 185 assumptions
[7.076] Executed solver; result: UNSAT.
[7.076] 
[7.076] *************************************
[7.076] * * *   M a k e s p a n    79   * * *
[7.076] *************************************
[7.080] Computed next depth properties: array size of 187.
[7.087] Instantiated 28,886 transitional clauses.
[7.124] 100.0% quadratic At-Most-One encodings, the rest being binary encoded.
[7.124] Instantiated 692,809 universal clauses.
[7.124] Instantiated and added clauses for a total of 34,016,492 clauses.
[7.124] The encoding contains a total of 561,516 distinct variables.
[7.124] Attempting solve with solver <glucose4> ...
c 187 assumptions
[7.146] Executed solver; result: UNSAT.
[7.146] 
[7.146] *************************************
[7.146] * * *   M a k e s p a n    80   * * *
[7.146] *************************************
[7.150] Computed next depth properties: array size of 189.
[7.158] Instantiated 29,182 transitional clauses.
[7.195] 100.0% quadratic At-Most-One encodings, the rest being binary encoded.
[7.195] Instantiated 699,919 universal clauses.
[7.195] Instantiated and added clauses for a total of 34,745,593 clauses.
[7.195] The encoding contains a total of 574,630 distinct variables.
[7.195] Attempting solve with solver <glucose4> ...
c 189 assumptions
[7.222] Executed solver; result: UNSAT.
[7.222] 
[7.222] *************************************
[7.222] * * *   M a k e s p a n    81   * * *
[7.222] *************************************
[7.226] Computed next depth properties: array size of 191.
[7.234] Instantiated 29,478 transitional clauses.
[7.273] 100.0% quadratic At-Most-One encodings, the rest being binary encoded.
[7.273] Instantiated 707,029 universal clauses.
[7.273] Instantiated and added clauses for a total of 35,482,100 clauses.
[7.273] The encoding contains a total of 587,894 distinct variables.
[7.273] Attempting solve with solver <glucose4> ...
c 191 assumptions
[7.295] Executed solver; result: UNSAT.
[7.295] 
[7.295] *************************************
[7.295] * * *   M a k e s p a n    82   * * *
[7.295] *************************************
[7.299] Computed next depth properties: array size of 193.
[7.306] Instantiated 29,774 transitional clauses.
[7.346] 100.0% quadratic At-Most-One encodings, the rest being binary encoded.
[7.346] Instantiated 714,139 universal clauses.
[7.346] Instantiated and added clauses for a total of 36,226,013 clauses.
[7.346] The encoding contains a total of 601,308 distinct variables.
[7.346] Attempting solve with solver <glucose4> ...
c 193 assumptions
[7.371] Executed solver; result: UNSAT.
[7.371] 
[7.371] *************************************
[7.371] * * *   M a k e s p a n    83   * * *
[7.371] *************************************
[7.375] Computed next depth properties: array size of 195.
[7.383] Instantiated 30,070 transitional clauses.
[7.423] 100.0% quadratic At-Most-One encodings, the rest being binary encoded.
[7.423] Instantiated 721,249 universal clauses.
[7.423] Instantiated and added clauses for a total of 36,977,332 clauses.
[7.423] The encoding contains a total of 614,872 distinct variables.
[7.423] Attempting solve with solver <glucose4> ...
c 195 assumptions
[7.446] Executed solver; result: UNSAT.
[7.446] 
[7.446] *************************************
[7.446] * * *   M a k e s p a n    84   * * *
[7.446] *************************************
[7.450] Computed next depth properties: array size of 197.
[7.462] Instantiated 30,366 transitional clauses.
[7.500] 100.0% quadratic At-Most-One encodings, the rest being binary encoded.
[7.500] Instantiated 728,359 universal clauses.
[7.500] Instantiated and added clauses for a total of 37,736,057 clauses.
[7.500] The encoding contains a total of 628,586 distinct variables.
[7.500] Attempting solve with solver <glucose4> ...
c 197 assumptions
[7.532] Executed solver; result: UNSAT.
[7.532] 
[7.532] *************************************
[7.532] * * *   M a k e s p a n    85   * * *
[7.532] *************************************
[7.536] Computed next depth properties: array size of 199.
[7.546] Instantiated 30,662 transitional clauses.
[7.585] 100.0% quadratic At-Most-One encodings, the rest being binary encoded.
[7.585] Instantiated 735,469 universal clauses.
[7.585] Instantiated and added clauses for a total of 38,502,188 clauses.
[7.585] The encoding contains a total of 642,450 distinct variables.
[7.585] Attempting solve with solver <glucose4> ...
c 199 assumptions
[7.609] Executed solver; result: UNSAT.
[7.609] 
[7.609] *************************************
[7.609] * * *   M a k e s p a n    86   * * *
[7.609] *************************************
[7.613] Computed next depth properties: array size of 201.
[7.621] Instantiated 30,958 transitional clauses.
[7.662] 100.0% quadratic At-Most-One encodings, the rest being binary encoded.
[7.662] Instantiated 742,579 universal clauses.
[7.662] Instantiated and added clauses for a total of 39,275,725 clauses.
[7.662] The encoding contains a total of 656,464 distinct variables.
[7.662] Attempting solve with solver <glucose4> ...
c 201 assumptions
[7.696] Executed solver; result: UNSAT.
[7.696] 
[7.696] *************************************
[7.696] * * *   M a k e s p a n    87   * * *
[7.696] *************************************
[7.700] Computed next depth properties: array size of 203.
[7.708] Instantiated 31,254 transitional clauses.
[7.749] 100.0% quadratic At-Most-One encodings, the rest being binary encoded.
[7.749] Instantiated 749,689 universal clauses.
[7.749] Instantiated and added clauses for a total of 40,056,668 clauses.
[7.749] The encoding contains a total of 670,628 distinct variables.
[7.749] Attempting solve with solver <glucose4> ...
c 203 assumptions
[7.781] Executed solver; result: UNSAT.
[7.781] 
[7.781] *************************************
[7.781] * * *   M a k e s p a n    88   * * *
[7.781] *************************************
[7.785] Computed next depth properties: array size of 205.
[7.799] Instantiated 31,550 transitional clauses.
[7.840] 100.0% quadratic At-Most-One encodings, the rest being binary encoded.
[7.840] Instantiated 756,799 universal clauses.
[7.840] Instantiated and added clauses for a total of 40,845,017 clauses.
[7.840] The encoding contains a total of 684,942 distinct variables.
[7.840] Attempting solve with solver <glucose4> ...
c 205 assumptions
[7.866] Executed solver; result: UNSAT.
[7.866] 
[7.866] *************************************
[7.866] * * *   M a k e s p a n    89   * * *
[7.866] *************************************
[7.870] Computed next depth properties: array size of 207.
[7.879] Instantiated 31,846 transitional clauses.
[7.920] 100.0% quadratic At-Most-One encodings, the rest being binary encoded.
[7.920] Instantiated 763,909 universal clauses.
[7.920] Instantiated and added clauses for a total of 41,640,772 clauses.
[7.920] The encoding contains a total of 699,406 distinct variables.
[7.920] Attempting solve with solver <glucose4> ...
c 207 assumptions
[7.948] Executed solver; result: UNSAT.
[7.948] 
[7.948] *************************************
[7.948] * * *   M a k e s p a n    90   * * *
[7.948] *************************************
[7.953] Computed next depth properties: array size of 209.
[7.963] Instantiated 32,142 transitional clauses.
[8.004] 100.0% quadratic At-Most-One encodings, the rest being binary encoded.
[8.004] Instantiated 771,019 universal clauses.
[8.004] Instantiated and added clauses for a total of 42,443,933 clauses.
[8.004] The encoding contains a total of 714,020 distinct variables.
[8.004] Attempting solve with solver <glucose4> ...
c 209 assumptions
[8.033] Executed solver; result: UNSAT.
[8.033] 
[8.033] *************************************
[8.033] * * *   M a k e s p a n    91   * * *
[8.033] *************************************
[8.037] Computed next depth properties: array size of 211.
[8.046] Instantiated 32,438 transitional clauses.
[8.090] 100.0% quadratic At-Most-One encodings, the rest being binary encoded.
[8.090] Instantiated 778,129 universal clauses.
[8.090] Instantiated and added clauses for a total of 43,254,500 clauses.
[8.090] The encoding contains a total of 728,784 distinct variables.
[8.090] Attempting solve with solver <glucose4> ...
c 211 assumptions
[8.116] Executed solver; result: UNSAT.
[8.116] 
[8.116] *************************************
[8.116] * * *   M a k e s p a n    92   * * *
[8.116] *************************************
[8.121] Computed next depth properties: array size of 213.
[8.131] Instantiated 32,734 transitional clauses.
[8.174] 100.0% quadratic At-Most-One encodings, the rest being binary encoded.
[8.174] Instantiated 785,239 universal clauses.
[8.174] Instantiated and added clauses for a total of 44,072,473 clauses.
[8.174] The encoding contains a total of 743,698 distinct variables.
[8.174] Attempting solve with solver <glucose4> ...
c 213 assumptions
[8.201] Executed solver; result: UNSAT.
[8.201] 
[8.201] *************************************
[8.201] * * *   M a k e s p a n    93   * * *
[8.201] *************************************
[8.207] Computed next depth properties: array size of 215.
[8.215] Instantiated 33,030 transitional clauses.
[8.260] 100.0% quadratic At-Most-One encodings, the rest being binary encoded.
[8.260] Instantiated 792,349 universal clauses.
[8.260] Instantiated and added clauses for a total of 44,897,852 clauses.
[8.260] The encoding contains a total of 758,762 distinct variables.
[8.260] Attempting solve with solver <glucose4> ...
c 215 assumptions
[8.291] Executed solver; result: UNSAT.
[8.291] 
[8.291] *************************************
[8.291] * * *   M a k e s p a n    94   * * *
[8.291] *************************************
[8.295] Computed next depth properties: array size of 217.
[8.303] Instantiated 33,326 transitional clauses.
[8.348] 100.0% quadratic At-Most-One encodings, the rest being binary encoded.
[8.348] Instantiated 799,459 universal clauses.
[8.348] Instantiated and added clauses for a total of 45,730,637 clauses.
[8.348] The encoding contains a total of 773,976 distinct variables.
[8.348] Attempting solve with solver <glucose4> ...
c 217 assumptions
[8.386] Executed solver; result: UNSAT.
[8.386] 
[8.386] *************************************
[8.386] * * *   M a k e s p a n    95   * * *
[8.386] *************************************
[8.390] Computed next depth properties: array size of 219.
[8.399] Instantiated 33,622 transitional clauses.
[8.443] 100.0% quadratic At-Most-One encodings, the rest being binary encoded.
[8.443] Instantiated 806,569 universal clauses.
[8.443] Instantiated and added clauses for a total of 46,570,828 clauses.
[8.443] The encoding contains a total of 789,340 distinct variables.
[8.443] Attempting solve with solver <glucose4> ...
c 219 assumptions
[8.475] Executed solver; result: UNSAT.
[8.475] 
[8.475] *************************************
[8.475] * * *   M a k e s p a n    96   * * *
[8.475] *************************************
[8.479] Computed next depth properties: array size of 221.
[8.489] Instantiated 33,918 transitional clauses.
[8.535] 100.0% quadratic At-Most-One encodings, the rest being binary encoded.
[8.535] Instantiated 813,679 universal clauses.
[8.535] Instantiated and added clauses for a total of 47,418,425 clauses.
[8.535] The encoding contains a total of 804,854 distinct variables.
[8.535] Attempting solve with solver <glucose4> ...
c 221 assumptions
[8.568] Executed solver; result: UNSAT.
[8.568] 
[8.568] *************************************
[8.568] * * *   M a k e s p a n    97   * * *
[8.568] *************************************
[8.573] Computed next depth properties: array size of 223.
[8.582] Instantiated 34,214 transitional clauses.
[8.628] 100.0% quadratic At-Most-One encodings, the rest being binary encoded.
[8.628] Instantiated 820,789 universal clauses.
[8.628] Instantiated and added clauses for a total of 48,273,428 clauses.
[8.628] The encoding contains a total of 820,518 distinct variables.
[8.628] Attempting solve with solver <glucose4> ...
c 223 assumptions
[8.654] Executed solver; result: UNSAT.
[8.654] 
[8.654] *************************************
[8.654] * * *   M a k e s p a n    98   * * *
[8.654] *************************************
[8.659] Computed next depth properties: array size of 225.
[8.668] Instantiated 34,510 transitional clauses.
[8.713] 100.0% quadratic At-Most-One encodings, the rest being binary encoded.
[8.713] Instantiated 827,899 universal clauses.
[8.713] Instantiated and added clauses for a total of 49,135,837 clauses.
[8.713] The encoding contains a total of 836,332 distinct variables.
[8.713] Attempting solve with solver <glucose4> ...
c 225 assumptions
[8.756] Executed solver; result: UNSAT.
[8.756] 
[8.756] *************************************
[8.756] * * *   M a k e s p a n    99   * * *
[8.756] *************************************
[8.761] Computed next depth properties: array size of 227.
[8.770] Instantiated 34,806 transitional clauses.
[8.815] 100.0% quadratic At-Most-One encodings, the rest being binary encoded.
[8.815] Instantiated 835,009 universal clauses.
[8.815] Instantiated and added clauses for a total of 50,005,652 clauses.
[8.815] The encoding contains a total of 852,296 distinct variables.
[8.815] Attempting solve with solver <glucose4> ...
c 227 assumptions
[8.848] Executed solver; result: UNSAT.
[8.848] 
[8.848] *************************************
[8.848] * * *   M a k e s p a n   100   * * *
[8.848] *************************************
[8.852] Computed next depth properties: array size of 229.
[8.864] Instantiated 35,102 transitional clauses.
[8.912] 100.0% quadratic At-Most-One encodings, the rest being binary encoded.
[8.912] Instantiated 842,119 universal clauses.
[8.912] Instantiated and added clauses for a total of 50,882,873 clauses.
[8.912] The encoding contains a total of 868,410 distinct variables.
[8.912] Attempting solve with solver <glucose4> ...
c 229 assumptions
[8.949] Executed solver; result: UNSAT.
[8.949] 
[8.949] *************************************
[8.949] * * *   M a k e s p a n   101   * * *
[8.949] *************************************
[8.954] Computed next depth properties: array size of 231.
[8.963] Instantiated 35,398 transitional clauses.
[9.010] 100.0% quadratic At-Most-One encodings, the rest being binary encoded.
[9.010] Instantiated 849,229 universal clauses.
[9.010] Instantiated and added clauses for a total of 51,767,500 clauses.
[9.010] The encoding contains a total of 884,674 distinct variables.
[9.010] Attempting solve with solver <glucose4> ...
c 231 assumptions
[9.049] Executed solver; result: UNSAT.
[9.049] 
[9.049] *************************************
[9.049] * * *   M a k e s p a n   102   * * *
[9.049] *************************************
[9.053] Computed next depth properties: array size of 233.
[9.062] Instantiated 35,694 transitional clauses.
[9.109] 100.0% quadratic At-Most-One encodings, the rest being binary encoded.
[9.109] Instantiated 856,339 universal clauses.
[9.109] Instantiated and added clauses for a total of 52,659,533 clauses.
[9.109] The encoding contains a total of 901,088 distinct variables.
[9.109] Attempting solve with solver <glucose4> ...
c 233 assumptions
[9.240] Executed solver; result: UNSAT.
[9.240] 
[9.240] *************************************
[9.240] * * *   M a k e s p a n   103   * * *
[9.240] *************************************
[9.245] Computed next depth properties: array size of 235.
[9.253] Instantiated 35,990 transitional clauses.
[9.302] 100.0% quadratic At-Most-One encodings, the rest being binary encoded.
[9.302] Instantiated 863,449 universal clauses.
[9.302] Instantiated and added clauses for a total of 53,558,972 clauses.
[9.302] The encoding contains a total of 917,652 distinct variables.
[9.302] Attempting solve with solver <glucose4> ...
c 235 assumptions
[9.342] Executed solver; result: UNSAT.
[9.342] 
[9.342] *************************************
[9.342] * * *   M a k e s p a n   104   * * *
[9.342] *************************************
[9.347] Computed next depth properties: array size of 237.
[9.362] Instantiated 36,286 transitional clauses.
[9.409] 100.0% quadratic At-Most-One encodings, the rest being binary encoded.
[9.409] Instantiated 870,559 universal clauses.
[9.409] Instantiated and added clauses for a total of 54,465,817 clauses.
[9.409] The encoding contains a total of 934,366 distinct variables.
[9.409] Attempting solve with solver <glucose4> ...
c 237 assumptions
[9.446] Executed solver; result: UNSAT.
[9.446] 
[9.446] *************************************
[9.446] * * *   M a k e s p a n   105   * * *
[9.446] *************************************
[9.451] Computed next depth properties: array size of 239.
[9.460] Instantiated 36,582 transitional clauses.
[9.507] 100.0% quadratic At-Most-One encodings, the rest being binary encoded.
[9.507] Instantiated 877,669 universal clauses.
[9.507] Instantiated and added clauses for a total of 55,380,068 clauses.
[9.507] The encoding contains a total of 951,230 distinct variables.
[9.507] Attempting solve with solver <glucose4> ...
c 239 assumptions
[9.544] Executed solver; result: UNSAT.
[9.544] 
[9.544] *************************************
[9.544] * * *   M a k e s p a n   106   * * *
[9.544] *************************************
[9.549] Computed next depth properties: array size of 241.
[9.559] Instantiated 36,878 transitional clauses.
[9.608] 100.0% quadratic At-Most-One encodings, the rest being binary encoded.
[9.608] Instantiated 884,779 universal clauses.
[9.608] Instantiated and added clauses for a total of 56,301,725 clauses.
[9.608] The encoding contains a total of 968,244 distinct variables.
[9.608] Attempting solve with solver <glucose4> ...
c 241 assumptions
[9.656] Executed solver; result: UNSAT.
[9.656] 
[9.656] *************************************
[9.656] * * *   M a k e s p a n   107   * * *
[9.656] *************************************
[9.661] Computed next depth properties: array size of 243.
[9.671] Instantiated 37,174 transitional clauses.
[9.721] 100.0% quadratic At-Most-One encodings, the rest being binary encoded.
[9.721] Instantiated 891,889 universal clauses.
[9.721] Instantiated and added clauses for a total of 57,230,788 clauses.
[9.721] The encoding contains a total of 985,408 distinct variables.
[9.721] Attempting solve with solver <glucose4> ...
c 243 assumptions
[9.760] Executed solver; result: UNSAT.
[9.760] 
[9.760] *************************************
[9.760] * * *   M a k e s p a n   108   * * *
[9.760] *************************************
[9.764] Computed next depth properties: array size of 245.
[9.774] Instantiated 37,470 transitional clauses.
[9.824] 100.0% quadratic At-Most-One encodings, the rest being binary encoded.
[9.824] Instantiated 898,999 universal clauses.
[9.824] Instantiated and added clauses for a total of 58,167,257 clauses.
[9.824] The encoding contains a total of 1,002,722 distinct variables.
[9.824] Attempting solve with solver <glucose4> ...
c 245 assumptions
[9.863] Executed solver; result: UNSAT.
[9.863] 
[9.863] *************************************
[9.863] * * *   M a k e s p a n   109   * * *
[9.863] *************************************
[9.868] Computed next depth properties: array size of 247.
[9.879] Instantiated 37,766 transitional clauses.
[9.929] 100.0% quadratic At-Most-One encodings, the rest being binary encoded.
[9.929] Instantiated 906,109 universal clauses.
[9.929] Instantiated and added clauses for a total of 59,111,132 clauses.
[9.929] The encoding contains a total of 1,020,186 distinct variables.
[9.929] Attempting solve with solver <glucose4> ...
c 247 assumptions
[9.973] Executed solver; result: UNSAT.
[9.973] 
[9.973] *************************************
[9.973] * * *   M a k e s p a n   110   * * *
[9.973] *************************************
[9.978] Computed next depth properties: array size of 249.
[9.989] Instantiated 38,062 transitional clauses.
[10.040] 100.0% quadratic At-Most-One encodings, the rest being binary encoded.
[10.040] Instantiated 913,219 universal clauses.
[10.040] Instantiated and added clauses for a total of 60,062,413 clauses.
[10.040] The encoding contains a total of 1,037,800 distinct variables.
[10.040] Attempting solve with solver <glucose4> ...
c 249 assumptions
[10.079] Executed solver; result: UNSAT.
[10.079] 
[10.079] *************************************
[10.079] * * *   M a k e s p a n   111   * * *
[10.079] *************************************
[10.084] Computed next depth properties: array size of 251.
[10.097] Instantiated 38,358 transitional clauses.
[10.147] 100.0% quadratic At-Most-One encodings, the rest being binary encoded.
[10.147] Instantiated 920,329 universal clauses.
[10.147] Instantiated and added clauses for a total of 61,021,100 clauses.
[10.147] The encoding contains a total of 1,055,564 distinct variables.
[10.147] Attempting solve with solver <glucose4> ...
c 251 assumptions
[10.184] Executed solver; result: UNSAT.
[10.184] 
[10.184] *************************************
[10.184] * * *   M a k e s p a n   112   * * *
[10.184] *************************************
[10.189] Computed next depth properties: array size of 253.
[10.200] Instantiated 38,654 transitional clauses.
[10.253] 100.0% quadratic At-Most-One encodings, the rest being binary encoded.
[10.253] Instantiated 927,439 universal clauses.
[10.253] Instantiated and added clauses for a total of 61,987,193 clauses.
[10.253] The encoding contains a total of 1,073,478 distinct variables.
[10.253] Attempting solve with solver <glucose4> ...
c 253 assumptions
[10.299] Executed solver; result: UNSAT.
[10.299] 
[10.299] *************************************
[10.299] * * *   M a k e s p a n   113   * * *
[10.299] *************************************
[10.304] Computed next depth properties: array size of 255.
[10.314] Instantiated 38,950 transitional clauses.
[10.367] 100.0% quadratic At-Most-One encodings, the rest being binary encoded.
[10.367] Instantiated 934,549 universal clauses.
[10.367] Instantiated and added clauses for a total of 62,960,692 clauses.
[10.367] The encoding contains a total of 1,091,542 distinct variables.
[10.367] Attempting solve with solver <glucose4> ...
c 255 assumptions
[10.422] Executed solver; result: UNSAT.
[10.422] 
[10.422] *************************************
[10.422] * * *   M a k e s p a n   114   * * *
[10.422] *************************************
[10.427] Computed next depth properties: array size of 257.
[10.438] Instantiated 39,246 transitional clauses.
[10.491] 100.0% quadratic At-Most-One encodings, the rest being binary encoded.
[10.491] Instantiated 941,659 universal clauses.
[10.491] Instantiated and added clauses for a total of 63,941,597 clauses.
[10.491] The encoding contains a total of 1,109,756 distinct variables.
[10.491] Attempting solve with solver <glucose4> ...
c 257 assumptions
[10.535] Executed solver; result: UNSAT.
[10.535] 
[10.535] *************************************
[10.535] * * *   M a k e s p a n   115   * * *
[10.535] *************************************
[10.541] Computed next depth properties: array size of 259.
[10.551] Instantiated 39,542 transitional clauses.
[10.603] 100.0% quadratic At-Most-One encodings, the rest being binary encoded.
[10.603] Instantiated 948,769 universal clauses.
[10.603] Instantiated and added clauses for a total of 64,929,908 clauses.
[10.603] The encoding contains a total of 1,128,120 distinct variables.
[10.603] Attempting solve with solver <glucose4> ...
c 259 assumptions
[10.653] Executed solver; result: UNSAT.
[10.653] 
[10.653] *************************************
[10.653] * * *   M a k e s p a n   116   * * *
[10.653] *************************************
[10.658] Computed next depth properties: array size of 261.
[10.669] Instantiated 39,838 transitional clauses.
[10.721] 100.0% quadratic At-Most-One encodings, the rest being binary encoded.
[10.721] Instantiated 955,879 universal clauses.
[10.721] Instantiated and added clauses for a total of 65,925,625 clauses.
[10.721] The encoding contains a total of 1,146,634 distinct variables.
[10.721] Attempting solve with solver <glucose4> ...
c 261 assumptions
[10.763] Executed solver; result: UNSAT.
[10.763] 
[10.763] *************************************
[10.763] * * *   M a k e s p a n   117   * * *
[10.763] *************************************
[10.768] Computed next depth properties: array size of 263.
[10.778] Instantiated 40,134 transitional clauses.
[10.831] 100.0% quadratic At-Most-One encodings, the rest being binary encoded.
[10.831] Instantiated 962,989 universal clauses.
[10.831] Instantiated and added clauses for a total of 66,928,748 clauses.
[10.831] The encoding contains a total of 1,165,298 distinct variables.
[10.831] Attempting solve with solver <glucose4> ...
c 263 assumptions
[10.891] Executed solver; result: UNSAT.
[10.891] 
[10.891] *************************************
[10.891] * * *   M a k e s p a n   118   * * *
[10.891] *************************************
[10.897] Computed next depth properties: array size of 265.
[10.907] Instantiated 40,430 transitional clauses.
[10.961] 100.0% quadratic At-Most-One encodings, the rest being binary encoded.
[10.961] Instantiated 970,099 universal clauses.
[10.961] Instantiated and added clauses for a total of 67,939,277 clauses.
[10.961] The encoding contains a total of 1,184,112 distinct variables.
[10.961] Attempting solve with solver <glucose4> ...
c 265 assumptions
[11.008] Executed solver; result: UNSAT.
[11.008] 
[11.008] *************************************
[11.008] * * *   M a k e s p a n   119   * * *
[11.008] *************************************
[11.014] Computed next depth properties: array size of 267.
[11.025] Instantiated 40,726 transitional clauses.
[11.081] 100.0% quadratic At-Most-One encodings, the rest being binary encoded.
[11.081] Instantiated 977,209 universal clauses.
[11.081] Instantiated and added clauses for a total of 68,957,212 clauses.
[11.081] The encoding contains a total of 1,203,076 distinct variables.
[11.081] Attempting solve with solver <glucose4> ...
c 267 assumptions
[11.143] Executed solver; result: UNSAT.
[11.143] 
[11.143] *************************************
[11.143] * * *   M a k e s p a n   120   * * *
[11.143] *************************************
[11.151] Computed next depth properties: array size of 269.
[11.163] Instantiated 41,022 transitional clauses.
[11.217] 100.0% quadratic At-Most-One encodings, the rest being binary encoded.
[11.217] Instantiated 984,319 universal clauses.
[11.217] Instantiated and added clauses for a total of 69,982,553 clauses.
[11.217] The encoding contains a total of 1,222,190 distinct variables.
[11.217] Attempting solve with solver <glucose4> ...
c 269 assumptions
[11.269] Executed solver; result: UNSAT.
[11.269] 
[11.269] *************************************
[11.269] * * *   M a k e s p a n   121   * * *
[11.269] *************************************
[11.274] Computed next depth properties: array size of 271.
[11.287] Instantiated 41,318 transitional clauses.
[11.342] 100.0% quadratic At-Most-One encodings, the rest being binary encoded.
[11.342] Instantiated 991,429 universal clauses.
[11.342] Instantiated and added clauses for a total of 71,015,300 clauses.
[11.342] The encoding contains a total of 1,241,454 distinct variables.
[11.342] Attempting solve with solver <glucose4> ...
c 271 assumptions
[11.391] Executed solver; result: UNSAT.
[11.391] 
[11.391] *************************************
[11.391] * * *   M a k e s p a n   122   * * *
[11.391] *************************************
[11.396] Computed next depth properties: array size of 273.
[11.408] Instantiated 41,614 transitional clauses.
[11.464] 100.0% quadratic At-Most-One encodings, the rest being binary encoded.
[11.464] Instantiated 998,539 universal clauses.
[11.464] Instantiated and added clauses for a total of 72,055,453 clauses.
[11.464] The encoding contains a total of 1,260,868 distinct variables.
[11.464] Attempting solve with solver <glucose4> ...
c 273 assumptions
[11.508] Executed solver; result: UNSAT.
[11.508] 
[11.508] *************************************
[11.508] * * *   M a k e s p a n   123   * * *
[11.508] *************************************
[11.513] Computed next depth properties: array size of 275.
[11.524] Instantiated 41,910 transitional clauses.
[11.582] 100.0% quadratic At-Most-One encodings, the rest being binary encoded.
[11.582] Instantiated 1,005,649 universal clauses.
[11.582] Instantiated and added clauses for a total of 73,103,012 clauses.
[11.582] The encoding contains a total of 1,280,432 distinct variables.
[11.582] Attempting solve with solver <glucose4> ...
c 275 assumptions
[11.630] Executed solver; result: UNSAT.
[11.630] 
[11.630] *************************************
[11.630] * * *   M a k e s p a n   124   * * *
[11.630] *************************************
[11.636] Computed next depth properties: array size of 277.
[11.646] Instantiated 42,206 transitional clauses.
[11.703] 100.0% quadratic At-Most-One encodings, the rest being binary encoded.
[11.703] Instantiated 1,012,759 universal clauses.
[11.703] Instantiated and added clauses for a total of 74,157,977 clauses.
[11.703] The encoding contains a total of 1,300,146 distinct variables.
[11.703] Attempting solve with solver <glucose4> ...
c 277 assumptions
[11.770] Executed solver; result: UNSAT.
[11.770] 
[11.770] *************************************
[11.770] * * *   M a k e s p a n   125   * * *
[11.770] *************************************
[11.775] Computed next depth properties: array size of 279.
[11.786] Instantiated 42,502 transitional clauses.
[11.843] 100.0% quadratic At-Most-One encodings, the rest being binary encoded.
[11.843] Instantiated 1,019,869 universal clauses.
[11.843] Instantiated and added clauses for a total of 75,220,348 clauses.
[11.843] The encoding contains a total of 1,320,010 distinct variables.
[11.843] Attempting solve with solver <glucose4> ...
c 279 assumptions
[11.896] Executed solver; result: UNSAT.
[11.896] 
[11.896] *************************************
[11.896] * * *   M a k e s p a n   126   * * *
[11.896] *************************************
[11.902] Computed next depth properties: array size of 281.
[11.913] Instantiated 42,798 transitional clauses.
[11.972] 100.0% quadratic At-Most-One encodings, the rest being binary encoded.
[11.972] Instantiated 1,026,979 universal clauses.
[11.972] Instantiated and added clauses for a total of 76,290,125 clauses.
[11.972] The encoding contains a total of 1,340,024 distinct variables.
[11.972] Attempting solve with solver <glucose4> ...
c 281 assumptions
[12.027] Executed solver; result: UNSAT.
[12.027] 
[12.027] *************************************
[12.027] * * *   M a k e s p a n   127   * * *
[12.027] *************************************
[12.032] Computed next depth properties: array size of 283.
[12.044] Instantiated 43,094 transitional clauses.
[12.106] 100.0% quadratic At-Most-One encodings, the rest being binary encoded.
[12.106] Instantiated 1,034,089 universal clauses.
[12.106] Instantiated and added clauses for a total of 77,367,308 clauses.
[12.106] The encoding contains a total of 1,360,188 distinct variables.
[12.106] Attempting solve with solver <glucose4> ...
c 283 assumptions
[12.163] Executed solver; result: UNSAT.
[12.163] 
[12.163] *************************************
[12.163] * * *   M a k e s p a n   128   * * *
[12.163] *************************************
[12.169] Computed next depth properties: array size of 285.
[12.179] Instantiated 43,390 transitional clauses.
[12.237] 100.0% quadratic At-Most-One encodings, the rest being binary encoded.
[12.237] Instantiated 1,041,199 universal clauses.
[12.237] Instantiated and added clauses for a total of 78,451,897 clauses.
[12.237] The encoding contains a total of 1,380,502 distinct variables.
[12.237] Attempting solve with solver <glucose4> ...
c 285 assumptions
[12.308] Executed solver; result: UNSAT.
[12.308] 
[12.308] *************************************
[12.308] * * *   M a k e s p a n   129   * * *
[12.308] *************************************
[12.313] Computed next depth properties: array size of 287.
[12.334] Instantiated 43,686 transitional clauses.
Interrupt signal (15) received.
