
Compact plan:
0: (up f0 f46)
1: (board f46 p0)
2: (up f46 f49)
3: (depart f49 p0)
4: (down f49 f47)
5: (board f47 p1)
6: (up f47 f56)
7: (depart f56 p1)
8: (down f56 f2)
9: (board f2 p2)
10: (up f2 f47)
11: (depart f47 p2)
12: (down f47 f29)
13: (board f29 p3)
14: (down f29 f24)
15: (depart f24 p3)
16: (down f24 f1)
17: (board f1 p4)
18: (up f1 f7)
19: (depart f7 p4)
20: (up f7 f44)
21: (board f44 p5)
22: (down f44 f36)
23: (depart f36 p5)
24: (up f36 f49)
25: (board f49 p6)
26: (down f49 f47)
27: (depart f47 p6)
28: (down f47 f26)
29: (board f26 p7)
30: (down f26 f9)
31: (depart f9 p7)
32: (down f9 f2)
33: (board f2 p8)
34: (up f2 f18)
35: (depart f18 p8)
36: (up f18 f48)
37: (board f48 p9)
38: (down f48 f1)
39: (depart f1 p9)
40: (down f1 f0)
41: (board f0 p10)
42: (up f0 f49)
43: (depart f49 p10)
44: (down f49 f24)
45: (board f24 p11)
46: (down f24 f5)
47: (depart f5 p11)
48: (up f5 f52)
49: (board f52 p12)
50: (down f52 f31)
51: (depart f31 p12)
52: (down f31 f1)
53: (board f1 p13)
54: (up f1 f39)
55: (depart f39 p13)
56: (down f39 f35)
57: (board f35 p14)
58: (up f35 f54)
59: (depart f54 p14)
60: (down f54 f30)
61: (board f30 p15)
62: (down f30 f24)
63: (depart f24 p15)
64: (up f24 f37)
65: (board f37 p16)
66: (down f37 f19)
67: (depart f19 p16)
68: (down f19 f14)
69: (board f14 p17)
70: (up f14 f39)
71: (depart f39 p17)
72: (down f39 f8)
73: (board f8 p18)
74: (up f8 f36)
75: (depart f36 p18)
76: (up f36 f56)
77: (board f56 p19)
78: (down f56 f1)
79: (depart f1 p19)
80: (up f1 f43)
81: (board f43 p20)
82: (down f43 f42)
83: (depart f42 p20)
84: (down f42 f37)
85: (board f37 p21)
86: (down f37 f26)
87: (depart f26 p21)
88: (down f26 f24)
89: (board f24 p22)
90: (up f24 f55)
91: (depart f55 p22)
92: (down f55 f36)
93: (board f36 p23)
94: (down f36 f26)
95: (depart f26 p23)
96: (down f26 f16)
97: (board f16 p24)
98: (up f16 f26)
99: (depart f26 p24)
100: (down f26 f19)
101: (board f19 p25)
102: (down f19 f8)
103: (depart f8 p25)
104: (up f8 f9)
105: (board f9 p26)
106: (up f9 f43)
107: (depart f43 p26)
108: (down f43 f6)
109: (board f6 p27)
110: (down f6 f3)
111: (depart f3 p27)
112: (up f3 f8)
113: (board f8 p28)
114: (up f8 f57)
115: (depart f57 p28)


