
Compact plan:
0: (up f0 f11)
1: (board f11 p3)
2: (down f11 f2)
3: (board f2 p5)
4: (up f2 f3)
5: (board f3 p0)
6: (up f3 f6)
7: (depart f6 p0)
8: (board f6 p2)
9: (down f6 f2)
10: (board f2 p1)
11: (up f2 f9)
12: (down f9 f0)
13: (depart f0 p1)
14: (up f0 f9)
15: (depart f9 p3)
16: (board f9 p4)
17: (up f9 f10)
18: (depart f10 p2)
19: (down f10 f1)
20: (depart f1 p5)
21: (up f1 f8)
22: (depart f8 p4)


