
Compact plan:
0: (up f0 f20)
1: (board f20 p0)
2: (down f20 f5)
3: (depart f5 p0)
4: (up f5 f35)
5: (board f35 p1)
6: (down f35 f20)
7: (depart f20 p1)
8: (down f20 f16)
9: (board f16 p2)
10: (up f16 f19)
11: (depart f19 p2)
12: (down f19 f1)
13: (board f1 p3)
14: (up f1 f10)
15: (depart f10 p3)
16: (up f10 f13)
17: (board f13 p4)
18: (down f13 f7)
19: (depart f7 p4)
20: (down f7 f0)
21: (board f0 p5)
22: (up f0 f4)
23: (depart f4 p5)
24: (up f4 f17)
25: (board f17 p6)
26: (up f17 f35)
27: (depart f35 p6)
28: (down f35 f18)
29: (board f18 p7)
30: (up f18 f25)
31: (depart f25 p7)
32: (up f25 f28)
33: (board f28 p8)
34: (down f28 f6)
35: (depart f6 p8)
36: (up f6 f30)
37: (board f30 p9)
38: (down f30 f15)
39: (depart f15 p9)
40: (down f15 f10)
41: (board f10 p10)
42: (up f10 f29)
43: (depart f29 p10)
44: (down f29 f28)
45: (board f28 p11)
46: (down f28 f11)
47: (depart f11 p11)
48: (up f11 f18)
49: (board f18 p12)
50: (up f18 f25)
51: (depart f25 p12)
52: (down f25 f7)
53: (board f7 p13)
54: (up f7 f9)
55: (depart f9 p13)
56: (up f9 f35)
57: (board f35 p14)
58: (down f35 f20)
59: (depart f20 p14)
60: (down f20 f2)
61: (board f2 p15)
62: (up f2 f20)
63: (depart f20 p15)
64: (down f20 f5)
65: (board f5 p16)
66: (down f5 f1)
67: (depart f1 p16)
68: (up f1 f20)
69: (board f20 p17)
70: (up f20 f21)
71: (depart f21 p17)


