
Compact plan:
0: (up f0 f174)
1: (board f174 p0)
2: (up f174 f219)
3: (depart f219 p0)
4: (up f219 f346)
5: (board f346 p1)
6: (down f346 f328)
7: (depart f328 p1)
8: (down f328 f46)
9: (board f46 p2)
10: (up f46 f494)
11: (depart f494 p2)
12: (down f494 f62)
13: (board f62 p3)
14: (up f62 f366)
15: (depart f366 p3)
16: (down f366 f298)
17: (board f298 p4)
18: (down f298 f246)
19: (depart f246 p4)
20: (up f246 f339)
21: (board f339 p5)
22: (down f339 f316)
23: (depart f316 p5)
24: (down f316 f202)
25: (board f202 p6)
26: (up f202 f440)
27: (depart f440 p6)
28: (down f440 f432)
29: (board f432 p7)
30: (up f432 f492)
31: (depart f492 p7)
32: (down f492 f440)
33: (board f440 p8)
34: (down f440 f401)
35: (depart f401 p8)
36: (down f401 f291)
37: (board f291 p9)
38: (down f291 f104)
39: (depart f104 p9)
40: (up f104 f243)
41: (board f243 p10)
42: (up f243 f409)
43: (depart f409 p10)
44: (down f409 f109)
45: (board f109 p11)
46: (down f109 f4)
47: (depart f4 p11)
48: (up f4 f267)
49: (board f267 p12)
50: (up f267 f389)
51: (depart f389 p12)
52: (up f389 f466)
53: (board f466 p13)
54: (up f466 f484)
55: (depart f484 p13)
56: (down f484 f252)
57: (board f252 p14)
58: (down f252 f80)
59: (depart f80 p14)
60: (up f80 f129)
61: (board f129 p15)
62: (down f129 f24)
63: (depart f24 p15)
64: (up f24 f216)
65: (board f216 p16)
66: (down f216 f88)
67: (depart f88 p16)
68: (up f88 f313)
69: (board f313 p17)
70: (down f313 f151)
71: (depart f151 p17)
72: (down f151 f43)
73: (board f43 p18)
74: (up f43 f387)
75: (depart f387 p18)
76: (down f387 f210)
77: (board f210 p19)
78: (down f210 f36)
79: (depart f36 p19)
80: (up f36 f437)
81: (board f437 p20)
82: (down f437 f99)
83: (depart f99 p20)
84: (up f99 f491)
85: (board f491 p21)
86: (down f491 f203)
87: (depart f203 p21)
88: (up f203 f285)
89: (board f285 p22)
90: (down f285 f209)
91: (depart f209 p22)
92: (up f209 f321)
93: (board f321 p23)
94: (up f321 f346)
95: (depart f346 p23)
96: (up f346 f418)
97: (board f418 p24)
98: (up f418 f423)
99: (depart f423 p24)
100: (down f423 f70)
101: (board f70 p25)
102: (up f70 f397)
103: (depart f397 p25)
104: (down f397 f48)
105: (board f48 p26)
106: (up f48 f74)
107: (depart f74 p26)
108: (up f74 f265)
109: (board f265 p27)
110: (up f265 f422)
111: (depart f422 p27)
112: (down f422 f314)
113: (board f314 p28)
114: (down f314 f90)
115: (depart f90 p28)
116: (up f90 f195)
117: (board f195 p29)
118: (down f195 f183)
119: (depart f183 p29)
120: (up f183 f443)
121: (board f443 p30)
122: (down f443 f18)
123: (depart f18 p30)
124: (up f18 f425)
125: (board f425 p31)
126: (down f425 f119)
127: (depart f119 p31)
128: (up f119 f359)
129: (board f359 p32)
130: (down f359 f138)
131: (depart f138 p32)
132: (up f138 f421)
133: (board f421 p33)
134: (down f421 f188)
135: (depart f188 p33)
136: (down f188 f138)
137: (board f138 p34)
138: (down f138 f10)
139: (depart f10 p34)
140: (up f10 f186)
141: (board f186 p35)
142: (up f186 f388)
143: (depart f388 p35)
144: (down f388 f201)
145: (board f201 p36)
146: (up f201 f226)
147: (depart f226 p36)
148: (up f226 f326)
149: (board f326 p37)
150: (up f326 f353)
151: (depart f353 p37)
152: (down f353 f251)
153: (board f251 p38)
154: (down f251 f104)
155: (depart f104 p38)
156: (up f104 f190)
157: (board f190 p39)
158: (up f190 f239)
159: (depart f239 p39)
160: (down f239 f104)
161: (board f104 p40)
162: (up f104 f147)
163: (depart f147 p40)
164: (down f147 f14)
165: (board f14 p41)
166: (up f14 f302)
167: (depart f302 p41)
168: (down f302 f7)
169: (board f7 p42)
170: (up f7 f317)
171: (depart f317 p42)
172: (down f317 f27)
173: (board f27 p43)
174: (up f27 f325)
175: (depart f325 p43)
176: (down f325 f100)
177: (board f100 p44)
178: (up f100 f283)
179: (depart f283 p44)
180: (down f283 f123)
181: (board f123 p45)
182: (down f123 f76)
183: (depart f76 p45)
184: (up f76 f490)
185: (board f490 p46)
186: (down f490 f152)
187: (depart f152 p46)
188: (up f152 f220)
189: (board f220 p47)
190: (down f220 f25)
191: (depart f25 p47)
192: (down f25 f6)
193: (board f6 p48)
194: (up f6 f499)
195: (depart f499 p48)
196: (down f499 f496)
197: (board f496 p49)
198: (down f496 f200)
199: (depart f200 p49)
200: (down f200 f39)
201: (board f39 p50)
202: (up f39 f330)
203: (depart f330 p50)
204: (up f330 f405)
205: (board f405 p51)
206: (down f405 f358)
207: (depart f358 p51)
208: (down f358 f349)
209: (board f349 p52)
210: (down f349 f17)
211: (depart f17 p52)
212: (up f17 f377)
213: (board f377 p53)
214: (down f377 f108)
215: (depart f108 p53)
216: (up f108 f453)
217: (board f453 p54)
218: (down f453 f10)
219: (depart f10 p54)
220: (up f10 f138)
221: (board f138 p55)
222: (up f138 f393)
223: (depart f393 p55)
224: (down f393 f195)
225: (board f195 p56)
226: (up f195 f267)
227: (depart f267 p56)
228: (down f267 f57)
229: (board f57 p57)
230: (up f57 f300)
231: (depart f300 p57)
232: (up f300 f364)
233: (board f364 p58)
234: (down f364 f361)
235: (depart f361 p58)
236: (up f361 f397)
237: (board f397 p59)
238: (down f397 f173)
239: (depart f173 p59)
240: (up f173 f436)
241: (board f436 p60)
242: (up f436 f464)
243: (depart f464 p60)
244: (down f464 f163)
245: (board f163 p61)
246: (up f163 f164)
247: (depart f164 p61)
248: (up f164 f373)
249: (board f373 p62)
250: (down f373 f211)
251: (depart f211 p62)
252: (down f211 f177)
253: (board f177 p63)
254: (up f177 f464)
255: (depart f464 p63)
256: (down f464 f430)
257: (board f430 p64)
258: (down f430 f388)
259: (depart f388 p64)
260: (down f388 f215)
261: (board f215 p65)
262: (down f215 f77)
263: (depart f77 p65)
264: (up f77 f447)
265: (board f447 p66)
266: (down f447 f222)
267: (depart f222 p66)
268: (up f222 f317)
269: (board f317 p67)
270: (down f317 f254)
271: (depart f254 p67)
272: (up f254 f447)
273: (board f447 p68)
274: (down f447 f46)
275: (depart f46 p68)
276: (up f46 f168)
277: (board f168 p69)
278: (up f168 f423)
279: (depart f423 p69)
280: (down f423 f317)
281: (board f317 p70)
282: (down f317 f301)
283: (depart f301 p70)
284: (down f301 f130)
285: (board f130 p71)
286: (up f130 f415)
287: (depart f415 p71)
288: (down f415 f261)
289: (board f261 p72)
290: (down f261 f154)
291: (depart f154 p72)
292: (up f154 f302)
293: (board f302 p73)
294: (down f302 f174)
295: (depart f174 p73)
296: (up f174 f182)
297: (board f182 p74)
298: (down f182 f179)
299: (depart f179 p74)
300: (up f179 f184)
301: (board f184 p75)
302: (up f184 f287)
303: (depart f287 p75)
304: (up f287 f298)
305: (board f298 p76)
306: (up f298 f462)
307: (depart f462 p76)
308: (down f462 f0)
309: (board f0 p77)
310: (up f0 f245)
311: (depart f245 p77)
312: (up f245 f394)
313: (board f394 p78)
314: (up f394 f459)
315: (depart f459 p78)
316: (down f459 f157)
317: (board f157 p79)
318: (up f157 f317)
319: (depart f317 p79)
320: (up f317 f322)
321: (board f322 p80)
322: (up f322 f468)
323: (depart f468 p80)
324: (down f468 f141)
325: (board f141 p81)
326: (up f141 f374)
327: (depart f374 p81)
328: (down f374 f107)
329: (board f107 p82)
330: (up f107 f184)
331: (depart f184 p82)
332: (up f184 f290)
333: (board f290 p83)
334: (up f290 f435)
335: (depart f435 p83)
336: (down f435 f323)
337: (board f323 p84)
338: (down f323 f230)
339: (depart f230 p84)
340: (down f230 f202)
341: (board f202 p85)
342: (up f202 f344)
343: (depart f344 p85)
344: (up f344 f408)
345: (board f408 p86)
346: (down f408 f160)
347: (depart f160 p86)
348: (up f160 f208)
349: (board f208 p87)
350: (up f208 f293)
351: (depart f293 p87)
352: (down f293 f282)
353: (board f282 p88)
354: (down f282 f258)
355: (depart f258 p88)
356: (up f258 f328)
357: (board f328 p89)
358: (up f328 f463)
359: (depart f463 p89)
360: (down f463 f396)
361: (board f396 p90)
362: (down f396 f242)
363: (depart f242 p90)
364: (down f242 f197)
365: (board f197 p91)
366: (down f197 f194)
367: (depart f194 p91)
368: (up f194 f195)
369: (board f195 p92)
370: (up f195 f344)
371: (depart f344 p92)
372: (down f344 f299)
373: (board f299 p93)
374: (down f299 f233)
375: (depart f233 p93)
376: (up f233 f306)
377: (board f306 p94)
378: (down f306 f225)
379: (depart f225 p94)
380: (up f225 f381)
381: (board f381 p95)
382: (down f381 f155)
383: (depart f155 p95)
384: (up f155 f450)
385: (board f450 p96)
386: (down f450 f403)
387: (depart f403 p96)
388: (down f403 f79)
389: (board f79 p97)
390: (up f79 f448)
391: (depart f448 p97)
392: (down f448 f347)
393: (board f347 p98)
394: (down f347 f136)
395: (depart f136 p98)
396: (up f136 f168)
397: (board f168 p99)
398: (down f168 f23)
399: (depart f23 p99)


