
Compact plan:
0: (up f0 f19)
1: (board f19 p0)
2: (up f19 f27)
3: (depart f27 p0)
4: (down f27 f26)
5: (board f26 p1)
6: (down f26 f10)
7: (depart f10 p1)
8: (down f10 f0)
9: (board f0 p2)
10: (up f0 f14)
11: (depart f14 p2)
12: (down f14 f6)
13: (board f6 p3)
14: (up f6 f7)
15: (depart f7 p3)
16: (down f7 f1)
17: (board f1 p4)
18: (up f1 f17)
19: (depart f17 p4)
20: (down f17 f4)
21: (board f4 p5)
22: (up f4 f22)
23: (depart f22 p5)
24: (up f22 f25)
25: (board f25 p6)
26: (down f25 f22)
27: (depart f22 p6)
28: (down f22 f15)
29: (board f15 p7)
30: (down f15 f6)
31: (depart f6 p7)
32: (up f6 f9)
33: (board f9 p8)
34: (up f9 f24)
35: (depart f24 p8)
36: (down f24 f5)
37: (board f5 p9)
38: (up f5 f15)
39: (depart f15 p9)
40: (down f15 f9)
41: (board f9 p10)
42: (up f9 f14)
43: (depart f14 p10)
44: (up f14 f17)
45: (board f17 p11)
46: (up f17 f24)
47: (depart f24 p11)
48: (down f24 f22)
49: (board f22 p12)
50: (down f22 f15)
51: (depart f15 p12)
52: (up f15 f20)
53: (board f20 p13)
54: (up f20 f27)
55: (depart f27 p13)


