
Compact plan:
0: (up f0 f15)
1: (board f15 p0)
2: (up f15 f18)
3: (depart f18 p0)
4: (down f18 f9)
5: (board f9 p1)
6: (up f9 f19)
7: (depart f19 p1)
8: (down f19 f1)
9: (board f1 p2)
10: (up f1 f3)
11: (depart f3 p2)
12: (up f3 f10)
13: (board f10 p3)
14: (up f10 f16)
15: (depart f16 p3)
16: (down f16 f1)
17: (board f1 p4)
18: (up f1 f17)
19: (depart f17 p4)
20: (down f17 f2)
21: (board f2 p5)
22: (up f2 f19)
23: (depart f19 p5)
24: (down f19 f6)
25: (board f6 p6)
26: (up f6 f11)
27: (depart f11 p6)
28: (up f11 f27)
29: (board f27 p7)
30: (down f27 f14)
31: (depart f14 p7)
32: (up f14 f24)
33: (board f24 p8)
34: (down f24 f22)
35: (depart f22 p8)
36: (down f22 f16)
37: (board f16 p9)
38: (down f16 f3)
39: (depart f3 p9)
40: (down f3 f0)
41: (board f0 p10)
42: (up f0 f19)
43: (depart f19 p10)
44: (down f19 f9)
45: (board f9 p11)
46: (down f9 f2)
47: (depart f2 p11)
48: (up f2 f26)
49: (board f26 p12)
50: (up f26 f27)
51: (depart f27 p12)
52: (down f27 f15)
53: (board f15 p13)
54: (up f15 f19)
55: (depart f19 p13)


