
Compact plan:
0: (up f0 f11)
1: (board f11 p0)
2: (down f11 f0)
3: (depart f0 p0)
4: (up f0 f4)
5: (board f4 p1)
6: (up f4 f10)
7: (depart f10 p1)
8: (down f10 f9)
9: (board f9 p2)
10: (up f9 f14)
11: (depart f14 p2)
12: (down f14 f6)
13: (board f6 p3)
14: (up f6 f14)
15: (depart f14 p3)
16: (up f14 f15)
17: (board f15 p4)
18: (down f15 f7)
19: (depart f7 p4)
20: (up f7 f10)
21: (board f10 p5)
22: (up f10 f11)
23: (depart f11 p5)
24: (up f11 f15)
25: (board f15 p6)
26: (down f15 f2)
27: (depart f2 p6)
28: (board f2 p7)
29: (up f2 f14)
30: (depart f14 p7)


