
Compact plan:
0: (up f0 f19)
1: (board f19 p0)
2: (down f19 f16)
3: (depart f16 p0)
4: (up f16 f45)
5: (board f45 p1)
6: (down f45 f25)
7: (depart f25 p1)
8: (up f25 f41)
9: (board f41 p2)
10: (down f41 f25)
11: (depart f25 p2)
12: (up f25 f46)
13: (board f46 p3)
14: (down f46 f12)
15: (depart f12 p3)
16: (up f12 f33)
17: (board f33 p4)
18: (up f33 f37)
19: (depart f37 p4)
20: (up f37 f50)
21: (board f50 p5)
22: (down f50 f31)
23: (depart f31 p5)
24: (up f31 f32)
25: (board f32 p6)
26: (down f32 f7)
27: (depart f7 p6)
28: (down f7 f5)
29: (board f5 p7)
30: (down f5 f4)
31: (depart f4 p7)
32: (up f4 f6)
33: (board f6 p8)
34: (down f6 f0)
35: (depart f0 p8)
36: (up f0 f52)
37: (board f52 p9)
38: (down f52 f10)
39: (depart f10 p9)
40: (up f10 f35)
41: (board f35 p10)
42: (down f35 f26)
43: (depart f26 p10)
44: (up f26 f51)
45: (board f51 p11)
46: (down f51 f33)
47: (depart f33 p11)
48: (up f33 f44)
49: (board f44 p12)
50: (down f44 f8)
51: (depart f8 p12)
52: (up f8 f26)
53: (board f26 p13)
54: (up f26 f49)
55: (depart f49 p13)
56: (down f49 f37)
57: (board f37 p14)
58: (down f37 f5)
59: (depart f5 p14)
60: (up f5 f18)
61: (board f18 p15)
62: (down f18 f0)
63: (depart f0 p15)
64: (up f0 f12)
65: (board f12 p16)
66: (down f12 f5)
67: (depart f5 p16)
68: (down f5 f3)
69: (board f3 p17)
70: (up f3 f37)
71: (depart f37 p17)
72: (up f37 f52)
73: (board f52 p18)
74: (down f52 f31)
75: (depart f31 p18)
76: (down f31 f16)
77: (board f16 p19)
78: (up f16 f51)
79: (depart f51 p19)
80: (down f51 f27)
81: (board f27 p20)
82: (down f27 f9)
83: (depart f9 p20)
84: (up f9 f29)
85: (board f29 p21)
86: (up f29 f50)
87: (depart f50 p21)
88: (down f50 f31)
89: (board f31 p22)
90: (up f31 f50)
91: (depart f50 p22)
92: (down f50 f2)
93: (board f2 p23)
94: (up f2 f47)
95: (depart f47 p23)
96: (up f47 f48)
97: (board f48 p24)
98: (down f48 f29)
99: (depart f29 p24)
100: (down f29 f28)
101: (board f28 p25)
102: (up f28 f37)
103: (depart f37 p25)
104: (down f37 f26)
105: (board f26 p26)
106: (down f26 f8)
107: (depart f8 p26)


