
Compact plan:
0: (up f0 f3)
1: (board f3 p0)
2: (up f3 f35)
3: (depart f35 p0)
4: (up f35 f36)
5: (board f36 p1)
6: (up f36 f39)
7: (depart f39 p1)
8: (down f39 f19)
9: (board f19 p2)
10: (up f19 f38)
11: (depart f38 p2)
12: (down f38 f25)
13: (board f25 p3)
14: (up f25 f48)
15: (depart f48 p3)
16: (down f48 f41)
17: (board f41 p4)
18: (down f41 f22)
19: (depart f22 p4)
20: (down f22 f1)
21: (board f1 p5)
22: (up f1 f4)
23: (depart f4 p5)
24: (up f4 f24)
25: (board f24 p6)
26: (up f24 f36)
27: (depart f36 p6)
28: (down f36 f12)
29: (board f12 p7)
30: (up f12 f27)
31: (depart f27 p7)
32: (down f27 f18)
33: (board f18 p8)
34: (down f18 f3)
35: (depart f3 p8)
36: (up f3 f20)
37: (board f20 p9)
38: (down f20 f18)
39: (depart f18 p9)
40: (down f18 f8)
41: (board f8 p10)
42: (up f8 f23)
43: (depart f23 p10)
44: (up f23 f32)
45: (board f32 p11)
46: (up f32 f49)
47: (depart f49 p11)
48: (down f49 f8)
49: (board f8 p12)
50: (up f8 f22)
51: (depart f22 p12)
52: (up f22 f48)
53: (board f48 p13)
54: (down f48 f42)
55: (depart f42 p13)
56: (down f42 f37)
57: (board f37 p14)
58: (up f37 f43)
59: (depart f43 p14)
60: (down f43 f25)
61: (board f25 p15)
62: (up f25 f40)
63: (depart f40 p15)
64: (down f40 f28)
65: (board f28 p16)
66: (down f28 f13)
67: (depart f13 p16)
68: (up f13 f32)
69: (board f32 p17)
70: (down f32 f0)
71: (depart f0 p17)
72: (up f0 f1)
73: (board f1 p18)
74: (up f1 f7)
75: (depart f7 p18)
76: (down f7 f0)
77: (board f0 p19)
78: (up f0 f43)
79: (depart f43 p19)
80: (down f43 f29)
81: (board f29 p20)
82: (down f29 f2)
83: (depart f2 p20)
84: (up f2 f47)
85: (board f47 p21)
86: (down f47 f5)
87: (depart f5 p21)
88: (up f5 f40)
89: (board f40 p22)
90: (down f40 f12)
91: (depart f12 p22)
92: (up f12 f35)
93: (board f35 p23)
94: (down f35 f11)
95: (depart f11 p23)
96: (up f11 f17)
97: (board f17 p24)
98: (down f17 f5)
99: (depart f5 p24)


