
Compact plan:
0: (up f0 f23)
1: (board f23 p0)
2: (down f23 f15)
3: (depart f15 p0)
4: (down f15 f8)
5: (board f8 p1)
6: (down f8 f3)
7: (depart f3 p1)
8: (up f3 f21)
9: (board f21 p2)
10: (up f21 f22)
11: (depart f22 p2)
12: (down f22 f1)
13: (board f1 p3)
14: (up f1 f6)
15: (depart f6 p3)
16: (up f6 f21)
17: (board f21 p4)
18: (down f21 f4)
19: (depart f4 p4)
20: (up f4 f23)
21: (board f23 p5)
22: (down f23 f14)
23: (depart f14 p5)
24: (down f14 f6)
25: (board f6 p6)
26: (up f6 f16)
27: (depart f16 p6)
28: (up f16 f23)
29: (board f23 p7)
30: (up f23 f24)
31: (depart f24 p7)
32: (up f24 f25)
33: (board f25 p8)
34: (down f25 f24)
35: (depart f24 p8)
36: (down f24 f18)
37: (board f18 p9)
38: (down f18 f14)
39: (depart f14 p9)
40: (down f14 f13)
41: (board f13 p10)
42: (down f13 f2)
43: (depart f2 p10)
44: (down f2 f1)
45: (board f1 p11)
46: (up f1 f2)
47: (depart f2 p11)
48: (up f2 f10)
49: (board f10 p12)
50: (up f10 f18)
51: (depart f18 p12)


