
Compact plan:
0: (up f0 f5)
1: (board f5 p0)
2: (up f5 f11)
3: (depart f11 p0)
4: (down f11 f6)
5: (board f6 p1)
6: (up f6 f7)
7: (depart f7 p1)
8: (down f7 f3)
9: (board f3 p2)
10: (down f3 f0)
11: (depart f0 p2)
12: (up f0 f5)
13: (board f5 p3)
14: (down f5 f0)
15: (depart f0 p3)
16: (up f0 f3)
17: (board f3 p4)
18: (up f3 f8)
19: (depart f8 p4)
20: (down f8 f7)
21: (board f7 p5)
22: (down f7 f6)
23: (depart f6 p5)


