
Compact plan:
0: (up f0 f17)
1: (board f17 p0)
2: (down f17 f10)
3: (depart f10 p0)
4: (up f10 f17)
5: (board f17 p1)
6: (down f17 f13)
7: (depart f13 p1)
8: (down f13 f1)
9: (board f1 p2)
10: (up f1 f15)
11: (depart f15 p2)
12: (down f15 f0)
13: (board f0 p3)
14: (up f0 f6)
15: (depart f6 p3)
16: (down f6 f3)
17: (board f3 p4)
18: (down f3 f1)
19: (depart f1 p4)
20: (up f1 f8)
21: (board f8 p5)
22: (down f8 f7)
23: (depart f7 p5)
24: (up f7 f16)
25: (board f16 p6)
26: (down f16 f3)
27: (depart f3 p6)
28: (up f3 f7)
29: (board f7 p7)
30: (down f7 f4)
31: (depart f4 p7)
32: (up f4 f20)
33: (board f20 p8)
34: (down f20 f10)
35: (depart f10 p8)
36: (down f10 f2)
37: (board f2 p9)
38: (down f2 f0)
39: (depart f0 p9)
40: (up f0 f21)
41: (board f21 p10)
42: (down f21 f8)
43: (depart f8 p10)


