Command : ./interpreter_t-rex_binary_haribo -P -b8192 -i f.cnf 
[0.000] This is T-REX interpreter, prototype version 04/2018.
[0.000] Reading problem encoding from file "f.cnf".
[0.001] Parsed head comment information.
[0.018] Processed problem encoding.
[0.018] Calculated possible fact changes of composite elements.
[0.020] Initialized instantiation procedure.
[0.020] 
[0.020] *************************************
[0.020] * * *   M a k e s p a n     0   * * *
[0.020] *************************************
[0.025] Instantiated 5,881 initial clauses.
[0.025] The encoding contains a total of 3,409 distinct variables.
[0.025] Attempting solve with solver <glucose4> ...
c 75 assumptions
[0.025] Executed solver; result: UNSAT.
[0.025] 
[0.025] *************************************
[0.026] * * *   M a k e s p a n     1   * * *
[0.026] *************************************
[0.034] Computed next depth properties: array size of 283.
[0.037] Instantiated 1,368 transitional clauses.
[0.053] Instantiated 12,056 universal clauses.
[0.053] Instantiated and added clauses for a total of 19,305 clauses.
[0.053] The encoding contains a total of 9,176 distinct variables.
[0.053] Attempting solve with solver <glucose4> ...
c 283 assumptions
[0.053] Executed solver; result: UNSAT.
[0.053] 
[0.053] *************************************
[0.053] * * *   M a k e s p a n     2   * * *
[0.053] *************************************
[0.077] Computed next depth properties: array size of 883.
[0.082] Instantiated 4,080 transitional clauses.
[0.117] Instantiated 49,692 universal clauses.
[0.117] Instantiated and added clauses for a total of 73,077 clauses.
[0.117] The encoding contains a total of 21,400 distinct variables.
[0.117] Attempting solve with solver <glucose4> ...
c 883 assumptions
c last restart ## conflicts  :  61 1022 
[0.136] Executed solver; result: SAT.
[0.136] Solver returned SAT; a solution has been found at makespan 2.
882
solution 1650 1
3 155 569 570 153 1049 573 151 1291 1531 1532 1533 1293 1294 4 160 574 575 158 1051 580 156 1286 1340 1534 1341 1288 1289 6 166 582 583 164 1055 588 162 1286 1484 1536 1485 1288 1289 9 171 595 596 173 1061 591 169 1291 1434 1539 1435 1293 1294 10 176 598 599 178 1063 604 174 1286 1452 1540 1453 1288 1289 12 184 608 609 180 1067 606 181 1286 1324 1542 1325 1288 1289 14 190 614 615 188 1071 620 186 1286 1472 1544 1473 1288 1289 16 196 624 625 192 1075 622 193 1286 1316 1546 1317 1288 1289 19 200 633 634 203 1081 637 201 1291 1506 1549 1507 1293 1294 20 208 638 639 206 1083 644 204 1286 1428 1550 1429 1288 1289 22 210 646 647 214 1087 652 211 1286 1436 1552 1437 1288 1289 24 220 654 655 218 1091 660 216 1286 1440 1554 1441 1288 1289 26 226 662 663 224 1095 668 222 1286 1368 1556 1369 1288 1289 29 230 673 674 233 1101 677 231 1291 1422 1559 1423 1293 1294 30 238 680 681 234 1103 678 235 1286 1524 1560 1525 1288 1289 32 240 686 687 244 1107 692 241 1286 1296 1562 1297 1288 1289 35 251 697 698 249 1113 701 247 1291 1414 1565 1415 1293 1294 36 254 704 705 256 1115 702 252 1286 1408 1566 1409 1288 1289 38 262 710 711 260 1119 716 258 1286 1508 1568 1509 1288 1289 40 266 720 721 268 1123 718 264 1286 1516 1570 1517 1288 1289 42 272 728 729 274 1127 726 270 1286 1376 1572 1377 1288 1289 44 278 734 735 280 1131 740 276 1286 1456 1574 1457 1288 1289 46 286 742 743 284 1135 748 282 1286 1424 1576 1425 1288 1289 48 292 752 753 288 1139 750 289 1286 1300 1578 1301 1288 1289 50 298 760 761 296 1143 758 294 1286 1416 1580 1417 1288 1289 52 302 766 767 304 1147 772 300 1286 1312 1582 1313 1288 1289 55 309 779 780 311 1153 775 307 1291 1502 1585 1503 1293 1294 56 314 784 785 316 1155 782 312 1286 1344 1586 1345 1288 1289 58 322 790 791 320 1159 796 318 1286 1396 1588 1397 1288 1289 60 328 798 799 326 1163 804 324 1286 1404 1590 1405 1288 1289 62 334 806 807 332 1167 812 330 1286 1352 1592 1353 1288 1289 64 338 814 815 340 1171 820 336 1286 1460 1594 1461 1288 1289 66 346 824 825 342 1175 822 343 1286 1488 1596 1489 1288 1289 68 350 830 831 352 1179 836 348 1286 1287 1598 1290 1288 1289 70 358 840 841 354 1183 838 355 1286 1480 1600 1481 1288 1289 72 362 848 849 364 1187 846 360 1286 1468 1602 1469 1288 1289 74 370 856 857 368 1191 854 366 1286 1384 1604 1385 1288 1289 76 374 862 863 376 1195 868 372 1286 1336 1606 1337 1288 1289 78 382 870 871 380 1199 876 378 1286 1308 1608 1309 1288 1289 80 386 878 879 388 1203 884 384 1286 1360 1610 1361 1288 1289 82 392 888 889 394 1207 886 390 1286 1512 1612 1513 1288 1289 84 400 894 895 398 1211 900 396 1286 1392 1614 1393 1288 1289 87 405 907 908 407 1217 903 403 1291 1390 1617 1391 1293 1294 89 411 915 916 413 1221 911 409 1291 1322 1619 1323 1293 1294 90 418 920 921 416 1223 918 414 1286 1380 1620 1381 1288 1289 92 424 926 927 422 1227 932 420 1286 1328 1622 1329 1288 1289 94 430 934 935 428 1231 940 426 1286 1400 1624 1401 1288 1289 96 432 942 943 436 1235 948 433 1286 1464 1626 1465 1288 1289 98 438 950 951 442 1239 956 439 1286 1520 1628 1521 1288 1289 100 448 958 959 446 1243 964 444 1286 1364 1630 1365 1288 1289 102 454 966 967 452 1247 972 450 1286 1496 1632 1497 1288 1289 104 460 976 977 458 1251 974 456 1286 1448 1634 1449 1288 1289 106 464 984 985 466 1255 982 462 1286 1356 1636 1357 1288 1289 108 470 992 993 472 1259 990 468 1286 1348 1638 1349 1288 1289 110 478 1000 1001 474 1263 998 475 1286 1444 1640 1445 1288 1289 112 484 1008 1009 482 1267 1006 480 1286 1332 1642 1333 1288 1289 114 490 1016 1017 488 1271 1014 486 1286 1372 1644 1373 1288 1289 116 494 1022 1023 496 1275 1028 492 1286 1476 1646 1477 1288 1289 118 502 1032 1033 500 1279 1030 498 1286 1304 1648 1305 1288 1289 120 506 1040 1041 508 1283 1038 504 1286 1492 1650 1493 1288 1289 122 512 510 124 516 514 126 520 518 128 524 522 130 528 526 132 532 530 134 536 534 136 540 538 138 544 542 140 548 546 142 552 550 144 556 554 146 558 559 148 564 562 
[0.138] Exiting.
