htn_pb01       88       97       63       88     0,04     0,00    0,01     0,05     0,00     0,00       33    23       282      106 
htn_pb02       98      101       70       96     0,04     0,00    0,01     0,05     0,00     0,00       33    24       250      108 
htn_pb03      136      149       94      141     0,05     0,00    0,01     0,06     0,00     0,00       34    21       816      221 
htn_pb04      154      216      151      205     0,06     0,00    0,01     0,07     0,00     0,00       87    60       816      272 
htn_pb05      272      556      342      724     0,10     0,00    0,03     0,12     0,00     0,00      123    87      4520      894 
htn_pb06      274      690      374     1057     0,14     0,00    0,02     0,15     0,00     0,00      106    73     10208     1528 
htn_pb07      312     1006      547     1730     0,17     0,00    0,02     0,19     0,00     0,00      140    97     18352     2208 
htn_pb08      440     1378      697     2503     0,22     0,00    0,03     0,25     0,00     0,00      281   193     30704     2934 
htn_pb09      864     4463     1867     9950     0,84     0,00    0,04     0,88     0,00     0,00      376   213    207552    11195 
htn_pb10     1108     9291     4012    21710     1,78     0,00    0,10     1,88     0,00     0,00      683   404    518728    25885 
htn_pb11     1390    13673     6012    32400     3,10     0,00    0,10     3,20     0,00     0,00      522   279    977202    36381 
htn_pb12     1472    13378     4010    35998     2,92     0,00    0,08     3,01     0,00     0,00      500   301    987800    41158 
htn_pb13     1382    11775     4353    29672     2,75     0,00    0,09     2,84     0,00     0,00     1136   608    938048    34082 
htn_pb14     1788    17684     5019    49792     4,36     0,00    0,11     4,47     0,00     0,00      692   395   1676350    54675 
htn_pb15     1912    20226     7288    53081     4,82     0,00    0,14     4,96     0,00     0,00      843   433   2005888    60028 
htn_pb16     2048    26187     9854    67990     5,59     0,00    0,11     5,70     0,00     0,00      849   439   2418600    78490 
htn_pb17     2234    30476     9742    84710     7,38     0,00    0,11     7,49     0,00     0,00      882   418   3354050    94839 
htn_pb18     2610    36441    10530   104526     9,34     0,00    0,20     9,54     0,00     0,00     1334   602   4473200   114282 
htn_pb19     3376    58607    14869   177131    17,94     0,00    0,32    18,26     0,00     0,00     2621   996   9467568   194204 
htn_pb20     3530    65690    14597   205377    21,27     0,00    0,39    21,67     0,00     0,00     2596  1088  11389068   222747 
htn_pb21     4218    76739    17361   238870    26,54     0,00    0,23    26,77     0,00     0,00     2384   924  14528088   256719 
htn_pb22     3962    88011    19610   277748    32,68     0,00    0,58    33,26     0,00     0,00     5476  1823  17857188   297196 
htn_pb23     6574   173336    32810   568850    81,71     0,00    1,49    83,20     0,00     0,00     8143  2105  46980192   601153 
