htn_pb01       98      114       70      108     0,04     0,00    0,01     0,05     0,00     0,00       19    24
htn_pb02       88      117       63      106     0,04     0,00    0,01     0,05     0,00     0,00       19    23
htn_pb03      124      194       85      191     0,05     0,00       -        -        -        -        -     -
htn_pb04      136      217       94      207     0,05     0,00    0,01     0,06     0,00     0,00       20    26
htn_pb05      154      275      151      263     0,06     0,00    0,03     0,08     0,00     0,00       78    60
htn_pb06      166      393      182      464     0,08     0,00       -        -        -        -        -     -
htn_pb07      272      732      342      894     0,11     0,00    0,06     0,17     0,00     0,00       64    87
htn_pb08      286      857      372     1137     0,13     0,00       -        -        -        -        -     -
htn_pb09      316      871      394     1107     0,15     0,00       -        -        -        -        -     -
htn_pb10     1108    13405     4012    25820     3,50     0,00    4,30     7,80     0,00     0,00      529   401
htn_pb11     1390    17385     6012    36103     6,23     0,00    5,27    11,50     0,00     0,00      476   316
htn_pb12     1382    15777     4353    33665     4,92     0,00   10,27    15,19     0,00     0,00      769   553
htn_pb13     1912    26219     7288    59068    12,70     0,00   15,42    28,12     0,00     0,00      777   490
htn_pb14     1472    18293     4010    40900     5,78     0,00    3,36     9,14     0,00     0,00      412   343
htn_pb15     1788    22423     5019    54527    10,03     0,00    4,88    14,91     0,00     0,00      450   386
htn_pb16     2048    36050     9854    77846    20,52     0,00   22,26    42,79     0,00     0,00      863   469
htn_pb17     2234    40244     9742    94471    27,86     0,00   11,03    38,90     0,00     0,00      657   349
htn_pb18     2610    46203    10530   114282    41,67     0,00   40,11    81,78     0,00     0,00     1079   637
htn_pb19     3376    74725    14869   193236   110,55     0,00  135,89   246,44     0,00     0,00     1831   895
htn_pb20     6574   202049    32810   597543  1031,22     0,00       -        -        -        -        -     -
