
htn_pb01       98      108       65      102     0,05     0,00    0,02     0,07     0,00     0,00       25    36
htn_pb02       88      111       61      100     0,05     0,00    0,02     0,07     0,00     0,00       25    33
htn_pb03      124      184       81      181     0,06     0,00       -        -        -        -        -     -
htn_pb04      136      209       90      199     0,08     0,00    0,01     0,09     0,00     0,00       22    28
htn_pb05      154      265      147      253     0,07     0,00    0,07     0,14     0,00     0,00       94    72
htn_pb06      166      373      175      444     0,10     0,00       -        -        -        -        -     -
htn_pb07      272      700      324      862     0,13     0,00    0,07     0,21     0,00     0,00       72    97
htn_pb08      286      833      365     1113     0,15     0,00       -        -        -        -        -     -
htn_pb09      296      843      385     1013     0,17     0,00       -        -        -        -        -     -
htn_pb10     1108    13277     3995    25692     3,65     0,00    5,06     8,71     0,00     0,00      551   425
htn_pb11     1390    17279     5964    35997     6,27     0,00    6,94    13,21     0,00     0,00      545   352
htn_pb12     1382    15685     4322    33573     5,27     0,00   11,17    16,44     0,00     0,00      835   595
htn_pb13     1912    26079     7233    58928    13,39     0,00   22,17    35,56     0,00     0,00      954   565
htn_pb14     1472    18135     3964    40742     6,20     0,00    3,85    10,06     0,00     0,00      444   373
htn_pb15     1788    22323     4980    54427    11,60     0,00    6,43    18,03     0,00     0,00      506   435
htn_pb16     2048    35832     9802    77628    22,22     0,00   28,35    50,57     0,00     0,00     1027   529
htn_pb17     2234    40086     9700    94313    34,14     0,00   12,90    47,04     0,00     0,00      709   376
htn_pb18     2610    46023    10454   114102    47,55     0,00   49,15    96,69     0,00     0,00     1154   697
htn_pb19     3376    74489    14790   193000   138,19     0,00  172,44   310,63     0,00     0,00     2001   973
htn_pb20     6574   201797    32721   597291  1322,79     0,00       -        -        -        -        -     -
