
Compact plan:
0: (up f0 f15)
1: (board f15 p0)
2: (up f15 f21)
3: (depart f21 p0)
4: (down f21 f12)
5: (board f12 p1)
6: (down f12 f2)
7: (depart f2 p1)
8: (down f2 f0)
9: (board f0 p2)
10: (up f0 f12)
11: (depart f12 p2)
12: (up f12 f28)
13: (board f28 p3)
14: (down f28 f17)
15: (depart f17 p3)
16: (down f17 f15)
17: (board f15 p4)
18: (down f15 f9)
19: (depart f9 p4)
20: (up f9 f14)
21: (board f14 p5)
22: (up f14 f20)
23: (depart f20 p5)
24: (down f20 f19)
25: (board f19 p6)
26: (down f19 f2)
27: (depart f2 p6)
28: (up f2 f9)
29: (board f9 p7)
30: (up f9 f18)
31: (depart f18 p7)
32: (down f18 f3)
33: (board f3 p8)
34: (up f3 f20)
35: (depart f20 p8)
36: (down f20 f13)
37: (board f13 p9)
38: (up f13 f19)
39: (depart f19 p9)
40: (down f19 f18)
41: (board f18 p10)
42: (down f18 f13)
43: (depart f13 p10)
44: (up f13 f28)
45: (board f28 p11)
46: (down f28 f12)
47: (depart f12 p11)
48: (up f12 f27)
49: (board f27 p12)
50: (down f27 f10)
51: (depart f10 p12)
52: (up f10 f27)
53: (board f27 p13)
54: (down f27 f19)
55: (depart f19 p13)
56: (down f19 f8)
57: (board f8 p14)
58: (down f8 f0)
59: (depart f0 p14)


