
Compact plan:
0: (pick ball1 rooma left)
1: (pick ball2 rooma right)
2: (move rooma roomb)
3: (drop ball1 roomb left)
4: (drop ball2 roomb right)
5: (move roomb rooma)
6: (pick ball3 rooma left)
7: (pick ball4 rooma right)
8: (move rooma roomb)
9: (drop ball3 roomb left)
10: (drop ball4 roomb right)
11: (move roomb rooma)
12: (pick ball5 rooma left)
13: (pick ball6 rooma right)
14: (move rooma roomb)
15: (drop ball5 roomb left)
16: (drop ball6 roomb right)
17: (move roomb rooma)
18: (pick ball7 rooma left)
19: (pick ball8 rooma right)
20: (move rooma roomb)
21: (drop ball7 roomb left)
22: (drop ball8 roomb right)
23: (move roomb rooma)
24: (pick ball9 rooma left)
25: (pick ball10 rooma right)
26: (move rooma roomb)
27: (drop ball9 roomb left)
28: (drop ball10 roomb right)
29: (move roomb rooma)
30: (pick ball11 rooma left)
31: (pick ball12 rooma right)
32: (move rooma roomb)
33: (drop ball11 roomb left)
34: (drop ball12 roomb right)
35: (move roomb rooma)
36: (pick ball13 rooma left)
37: (pick ball14 rooma right)
38: (move rooma roomb)
39: (drop ball13 roomb left)
40: (drop ball14 roomb right)
41: (move roomb rooma)
42: (pick ball15 rooma left)
43: (pick ball16 rooma right)
44: (move rooma roomb)
45: (drop ball15 roomb left)
46: (drop ball16 roomb right)
47: (move roomb rooma)
48: (pick ball17 rooma left)
49: (pick ball18 rooma right)
50: (move rooma roomb)
51: (drop ball17 roomb left)
52: (drop ball18 roomb right)
53: (move roomb rooma)
54: (pick ball19 rooma left)
55: (pick ball20 rooma right)
56: (move rooma roomb)
57: (drop ball19 roomb left)
58: (drop ball20 roomb right)
59: (move roomb rooma)
60: (pick ball21 rooma left)
61: (pick ball22 rooma right)
62: (move rooma roomb)
63: (drop ball21 roomb left)
64: (drop ball22 roomb right)
65: (move roomb rooma)
66: (pick ball23 rooma left)
67: (pick ball24 rooma right)
68: (move rooma roomb)
69: (drop ball23 roomb left)
70: (drop ball24 roomb right)
71: (move roomb rooma)
72: (pick ball25 rooma left)
73: (pick ball26 rooma right)
74: (move rooma roomb)
75: (drop ball25 roomb left)
76: (drop ball26 roomb right)
77: (move roomb rooma)
78: (pick ball27 rooma left)
79: (pick ball28 rooma right)
80: (move rooma roomb)
81: (drop ball27 roomb left)
82: (drop ball28 roomb right)
83: (move roomb rooma)
84: (pick ball29 rooma left)
85: (pick ball30 rooma right)
86: (move rooma roomb)
87: (drop ball29 roomb left)
88: (drop ball30 roomb right)
89: (move roomb rooma)
90: (pick ball31 rooma left)
91: (pick ball32 rooma right)
92: (move rooma roomb)
93: (drop ball31 roomb left)
94: (drop ball32 roomb right)
95: (move roomb rooma)
96: (pick ball33 rooma left)
97: (pick ball34 rooma right)
98: (move rooma roomb)
99: (drop ball33 roomb left)
100: (drop ball34 roomb right)
101: (move roomb rooma)
102: (pick ball35 rooma left)
103: (pick ball36 rooma right)
104: (move rooma roomb)
105: (drop ball35 roomb left)
106: (drop ball36 roomb right)
107: (move roomb rooma)
108: (pick ball37 rooma left)
109: (pick ball38 rooma right)
110: (move rooma roomb)
111: (drop ball37 roomb left)
112: (drop ball38 roomb right)
113: (move roomb rooma)
114: (pick ball39 rooma left)
115: (pick ball40 rooma right)
116: (move rooma roomb)
117: (drop ball39 roomb left)
118: (drop ball40 roomb right)
119: (move roomb rooma)
120: (pick ball41 rooma left)
121: (pick ball42 rooma right)
122: (move rooma roomb)
123: (drop ball41 roomb left)
124: (drop ball42 roomb right)
125: (move roomb rooma)
126: (pick ball43 rooma left)
127: (pick ball44 rooma right)
128: (move rooma roomb)
129: (drop ball43 roomb left)
130: (drop ball44 roomb right)
131: (move roomb rooma)
132: (pick ball45 rooma left)
133: (pick ball46 rooma right)
134: (move rooma roomb)
135: (drop ball45 roomb left)
136: (drop ball46 roomb right)
137: (move roomb rooma)
138: (pick ball47 rooma left)
139: (pick ball48 rooma right)
140: (move rooma roomb)
141: (drop ball47 roomb left)
142: (drop ball48 roomb right)
143: (move roomb rooma)
144: (pick ball49 rooma left)
145: (pick ball50 rooma right)
146: (move rooma roomb)
147: (drop ball49 roomb left)
148: (drop ball50 roomb right)
149: (move roomb rooma)
150: (pick ball51 rooma left)
151: (pick ball52 rooma right)
152: (move rooma roomb)
153: (drop ball51 roomb left)
154: (drop ball52 roomb right)
155: (move roomb rooma)
156: (pick ball53 rooma left)
157: (pick ball54 rooma right)
158: (move rooma roomb)
159: (drop ball53 roomb left)
160: (drop ball54 roomb right)
161: (move roomb rooma)
162: (pick ball55 rooma left)
163: (pick ball56 rooma right)
164: (move rooma roomb)
165: (drop ball55 roomb left)
166: (drop ball56 roomb right)
167: (move roomb rooma)
168: (pick ball57 rooma left)
169: (pick ball58 rooma right)
170: (move rooma roomb)
171: (drop ball57 roomb left)
172: (drop ball58 roomb right)
173: (move roomb rooma)
174: (pick ball59 rooma left)
175: (pick ball60 rooma right)
176: (move rooma roomb)
177: (drop ball59 roomb left)
178: (drop ball60 roomb right)
179: (move roomb rooma)
180: (pick ball61 rooma left)
181: (pick ball62 rooma right)
182: (move rooma roomb)
183: (drop ball61 roomb left)
184: (drop ball62 roomb right)
185: (move roomb rooma)
186: (pick ball63 rooma left)
187: (pick ball64 rooma right)
188: (move rooma roomb)
189: (drop ball63 roomb left)
190: (drop ball64 roomb right)
191: (move roomb rooma)
192: (pick ball65 rooma left)
193: (pick ball66 rooma right)
194: (move rooma roomb)
195: (drop ball65 roomb left)
196: (drop ball66 roomb right)
197: (move roomb rooma)
198: (pick ball67 rooma left)
199: (pick ball68 rooma right)
200: (move rooma roomb)
201: (drop ball67 roomb left)
202: (drop ball68 roomb right)
203: (move roomb rooma)
204: (pick ball69 rooma left)
205: (pick ball70 rooma right)
206: (move rooma roomb)
207: (drop ball69 roomb left)
208: (drop ball70 roomb right)
209: (move roomb rooma)
210: (pick ball71 rooma left)
211: (pick ball72 rooma right)
212: (move rooma roomb)
213: (drop ball71 roomb left)
214: (drop ball72 roomb right)
215: (move roomb rooma)
216: (pick ball73 rooma left)
217: (pick ball74 rooma right)
218: (move rooma roomb)
219: (drop ball73 roomb left)
220: (drop ball74 roomb right)
221: (move roomb rooma)
222: (pick ball75 rooma left)
223: (pick ball76 rooma right)
224: (move rooma roomb)
225: (drop ball75 roomb left)
226: (drop ball76 roomb right)
227: (move roomb rooma)
228: (pick ball77 rooma left)
229: (pick ball78 rooma right)
230: (move rooma roomb)
231: (drop ball77 roomb left)
232: (drop ball78 roomb right)
233: (move roomb rooma)
234: (pick ball79 rooma left)
235: (pick ball80 rooma right)
236: (move rooma roomb)
237: (drop ball79 roomb left)
238: (drop ball80 roomb right)
239: (move roomb rooma)
240: (pick ball81 rooma left)
241: (pick ball82 rooma right)
242: (move rooma roomb)
243: (drop ball81 roomb left)
244: (drop ball82 roomb right)
245: (move roomb rooma)
246: (pick ball83 rooma left)
247: (pick ball84 rooma right)
248: (move rooma roomb)
249: (drop ball83 roomb left)
250: (drop ball84 roomb right)
251: (move roomb rooma)
252: (pick ball85 rooma left)
253: (pick ball86 rooma right)
254: (move rooma roomb)
255: (drop ball85 roomb left)
256: (drop ball86 roomb right)
257: (move roomb rooma)
258: (pick ball87 rooma left)
259: (pick ball88 rooma right)
260: (move rooma roomb)
261: (drop ball87 roomb left)
262: (drop ball88 roomb right)
263: (move roomb rooma)
264: (pick ball89 rooma left)
265: (pick ball90 rooma right)
266: (move rooma roomb)
267: (drop ball89 roomb left)
268: (drop ball90 roomb right)
269: (move roomb rooma)
270: (pick ball91 rooma left)
271: (pick ball92 rooma right)
272: (move rooma roomb)
273: (drop ball91 roomb left)
274: (drop ball92 roomb right)
275: (move roomb rooma)
276: (pick ball93 rooma left)
277: (pick ball94 rooma right)
278: (move rooma roomb)
279: (drop ball93 roomb left)
280: (drop ball94 roomb right)
281: (move roomb rooma)
282: (pick ball95 rooma left)
283: (pick ball96 rooma right)
284: (move rooma roomb)
285: (drop ball95 roomb left)
286: (drop ball96 roomb right)
287: (move roomb rooma)
288: (pick ball97 rooma left)
289: (pick ball98 rooma right)
290: (move rooma roomb)
291: (drop ball97 roomb left)
292: (drop ball98 roomb right)
293: (move roomb rooma)
294: (pick ball99 rooma left)
295: (pick ball100 rooma right)
296: (move rooma roomb)
297: (drop ball99 roomb left)
298: (drop ball100 roomb right)
299: (move roomb rooma)
300: (pick ball101 rooma left)
301: (pick ball102 rooma right)
302: (move rooma roomb)
303: (drop ball101 roomb left)
304: (drop ball102 roomb right)
305: (move roomb rooma)
306: (pick ball103 rooma left)
307: (pick ball104 rooma right)
308: (move rooma roomb)
309: (drop ball103 roomb left)
310: (drop ball104 roomb right)
311: (move roomb rooma)
312: (pick ball105 rooma left)
313: (pick ball106 rooma right)
314: (move rooma roomb)
315: (drop ball105 roomb left)
316: (drop ball106 roomb right)
317: (move roomb rooma)
318: (pick ball107 rooma left)
319: (pick ball108 rooma right)
320: (move rooma roomb)
321: (drop ball107 roomb left)
322: (drop ball108 roomb right)
323: (move roomb rooma)
324: (pick ball109 rooma left)
325: (pick ball110 rooma right)
326: (move rooma roomb)
327: (drop ball109 roomb left)
328: (drop ball110 roomb right)
329: (move roomb rooma)
330: (pick ball111 rooma left)
331: (pick ball112 rooma right)
332: (move rooma roomb)
333: (drop ball111 roomb left)
334: (drop ball112 roomb right)
335: (move roomb rooma)
336: (pick ball113 rooma left)
337: (pick ball114 rooma right)
338: (move rooma roomb)
339: (drop ball113 roomb left)
340: (drop ball114 roomb right)
341: (move roomb rooma)
342: (pick ball115 rooma left)
343: (pick ball116 rooma right)
344: (move rooma roomb)
345: (drop ball115 roomb left)
346: (drop ball116 roomb right)
347: (move roomb rooma)
348: (pick ball117 rooma left)
349: (pick ball118 rooma right)
350: (move rooma roomb)
351: (drop ball117 roomb left)
352: (drop ball118 roomb right)
353: (move roomb rooma)
354: (pick ball119 rooma left)
355: (pick ball120 rooma right)
356: (move rooma roomb)
357: (drop ball119 roomb left)
358: (drop ball120 roomb right)
359: (move roomb rooma)
360: (pick ball121 rooma left)
361: (pick ball122 rooma right)
362: (move rooma roomb)
363: (drop ball121 roomb left)
364: (drop ball122 roomb right)
365: (move roomb rooma)
366: (pick ball123 rooma left)
367: (pick ball124 rooma right)
368: (move rooma roomb)
369: (drop ball123 roomb left)
370: (drop ball124 roomb right)
371: (move roomb rooma)
372: (pick ball125 rooma left)
373: (pick ball126 rooma right)
374: (move rooma roomb)
375: (drop ball125 roomb left)
376: (drop ball126 roomb right)
377: (move roomb rooma)
378: (pick ball127 rooma left)
379: (pick ball128 rooma right)
380: (move rooma roomb)
381: (drop ball127 roomb left)
382: (drop ball128 roomb right)
383: (move roomb rooma)
384: (pick ball129 rooma left)
385: (pick ball130 rooma right)
386: (move rooma roomb)
387: (drop ball129 roomb left)
388: (drop ball130 roomb right)
389: (move roomb rooma)
390: (pick ball131 rooma left)
391: (pick ball132 rooma right)
392: (move rooma roomb)
393: (drop ball131 roomb left)
394: (drop ball132 roomb right)
395: (move roomb rooma)
396: (pick ball133 rooma left)
397: (pick ball134 rooma right)
398: (move rooma roomb)
399: (drop ball133 roomb left)
400: (drop ball134 roomb right)
401: (move roomb rooma)
402: (pick ball135 rooma left)
403: (pick ball136 rooma right)
404: (move rooma roomb)
405: (drop ball135 roomb left)
406: (drop ball136 roomb right)
407: (move roomb rooma)
408: (pick ball137 rooma left)
409: (pick ball138 rooma right)
410: (move rooma roomb)
411: (drop ball137 roomb left)
412: (drop ball138 roomb right)
413: (move roomb rooma)
414: (pick ball139 rooma left)
415: (pick ball140 rooma right)
416: (move rooma roomb)
417: (drop ball139 roomb left)
418: (drop ball140 roomb right)
419: (move roomb rooma)
420: (pick ball141 rooma left)
421: (pick ball142 rooma right)
422: (move rooma roomb)
423: (drop ball141 roomb left)
424: (drop ball142 roomb right)
425: (move roomb rooma)
426: (pick ball143 rooma left)
427: (pick ball144 rooma right)
428: (move rooma roomb)
429: (drop ball143 roomb left)
430: (drop ball144 roomb right)
431: (move roomb rooma)
432: (pick ball145 rooma left)
433: (pick ball146 rooma right)
434: (move rooma roomb)
435: (drop ball145 roomb left)
436: (drop ball146 roomb right)
437: (move roomb rooma)
438: (pick ball147 rooma left)
439: (pick ball148 rooma right)
440: (move rooma roomb)
441: (drop ball147 roomb left)
442: (drop ball148 roomb right)
443: (move roomb rooma)
444: (pick ball149 rooma left)
445: (pick ball150 rooma right)
446: (move rooma roomb)
447: (drop ball149 roomb left)
448: (drop ball150 roomb right)
449: (move roomb rooma)
450: (pick ball151 rooma left)
451: (pick ball152 rooma right)
452: (move rooma roomb)
453: (drop ball151 roomb left)
454: (drop ball152 roomb right)
455: (move roomb rooma)
456: (pick ball153 rooma left)
457: (pick ball154 rooma right)
458: (move rooma roomb)
459: (drop ball153 roomb left)
460: (drop ball154 roomb right)
461: (move roomb rooma)
462: (pick ball155 rooma left)
463: (pick ball156 rooma right)
464: (move rooma roomb)
465: (drop ball155 roomb left)
466: (drop ball156 roomb right)
467: (move roomb rooma)
468: (pick ball157 rooma left)
469: (pick ball158 rooma right)
470: (move rooma roomb)
471: (drop ball157 roomb left)
472: (drop ball158 roomb right)
473: (move roomb rooma)
474: (pick ball159 rooma left)
475: (pick ball160 rooma right)
476: (move rooma roomb)
477: (drop ball159 roomb left)
478: (drop ball160 roomb right)
479: (move roomb rooma)
480: (pick ball161 rooma left)
481: (pick ball162 rooma right)
482: (move rooma roomb)
483: (drop ball161 roomb left)
484: (drop ball162 roomb right)
485: (move roomb rooma)
486: (pick ball163 rooma left)
487: (pick ball164 rooma right)
488: (move rooma roomb)
489: (drop ball163 roomb left)
490: (drop ball164 roomb right)
491: (move roomb rooma)
492: (pick ball165 rooma left)
493: (pick ball166 rooma right)
494: (move rooma roomb)
495: (drop ball165 roomb left)
496: (drop ball166 roomb right)
497: (move roomb rooma)
498: (pick ball167 rooma left)
499: (pick ball168 rooma right)
500: (move rooma roomb)
501: (drop ball167 roomb left)
502: (drop ball168 roomb right)
503: (move roomb rooma)
504: (pick ball169 rooma left)
505: (pick ball170 rooma right)
506: (move rooma roomb)
507: (drop ball169 roomb left)
508: (drop ball170 roomb right)
509: (move roomb rooma)
510: (pick ball171 rooma left)
511: (pick ball172 rooma right)
512: (move rooma roomb)
513: (drop ball171 roomb left)
514: (drop ball172 roomb right)
515: (move roomb rooma)
516: (pick ball173 rooma left)
517: (pick ball174 rooma right)
518: (move rooma roomb)
519: (drop ball173 roomb left)
520: (drop ball174 roomb right)
521: (move roomb rooma)
522: (pick ball175 rooma left)
523: (pick ball176 rooma right)
524: (move rooma roomb)
525: (drop ball175 roomb left)
526: (drop ball176 roomb right)
527: (move roomb rooma)
528: (pick ball177 rooma left)
529: (pick ball178 rooma right)
530: (move rooma roomb)
531: (drop ball177 roomb left)
532: (drop ball178 roomb right)
533: (move roomb rooma)
534: (pick ball179 rooma left)
535: (pick ball180 rooma right)
536: (move rooma roomb)
537: (drop ball179 roomb left)
538: (drop ball180 roomb right)
539: (move roomb rooma)
540: (pick ball181 rooma left)
541: (pick ball182 rooma right)
542: (move rooma roomb)
543: (drop ball181 roomb left)
544: (drop ball182 roomb right)
545: (move roomb rooma)
546: (pick ball183 rooma left)
547: (pick ball184 rooma right)
548: (move rooma roomb)
549: (drop ball183 roomb left)
550: (drop ball184 roomb right)
551: (move roomb rooma)
552: (pick ball185 rooma left)
553: (pick ball186 rooma right)
554: (move rooma roomb)
555: (drop ball185 roomb left)
556: (drop ball186 roomb right)
557: (move roomb rooma)
558: (pick ball187 rooma left)
559: (pick ball188 rooma right)
560: (move rooma roomb)
561: (drop ball187 roomb left)
562: (drop ball188 roomb right)
563: (move roomb rooma)
564: (pick ball189 rooma left)
565: (pick ball190 rooma right)
566: (move rooma roomb)
567: (drop ball189 roomb left)
568: (drop ball190 roomb right)
569: (move roomb rooma)
570: (pick ball191 rooma left)
571: (pick ball192 rooma right)
572: (move rooma roomb)
573: (drop ball191 roomb left)
574: (drop ball192 roomb right)
575: (move roomb rooma)
576: (pick ball193 rooma left)
577: (pick ball194 rooma right)
578: (move rooma roomb)
579: (drop ball193 roomb left)
580: (drop ball194 roomb right)
581: (move roomb rooma)
582: (pick ball195 rooma left)
583: (pick ball196 rooma right)
584: (move rooma roomb)
585: (drop ball195 roomb left)
586: (drop ball196 roomb right)
587: (move roomb rooma)
588: (pick ball197 rooma left)
589: (pick ball198 rooma right)
590: (move rooma roomb)
591: (drop ball197 roomb left)
592: (drop ball198 roomb right)
593: (move roomb rooma)
594: (pick ball199 rooma left)
595: (pick ball200 rooma right)
596: (move rooma roomb)
597: (drop ball199 roomb left)
598: (drop ball200 roomb right)
599: (move roomb rooma)
600: (pick ball201 rooma left)
601: (pick ball202 rooma right)
602: (move rooma roomb)
603: (drop ball201 roomb left)
604: (drop ball202 roomb right)
605: (move roomb rooma)
606: (pick ball203 rooma left)
607: (pick ball204 rooma right)
608: (move rooma roomb)
609: (drop ball203 roomb left)
610: (drop ball204 roomb right)
611: (move roomb rooma)
612: (pick ball205 rooma left)
613: (pick ball206 rooma right)
614: (move rooma roomb)
615: (drop ball205 roomb left)
616: (drop ball206 roomb right)
617: (move roomb rooma)
618: (pick ball207 rooma left)
619: (pick ball208 rooma right)
620: (move rooma roomb)
621: (drop ball207 roomb left)
622: (drop ball208 roomb right)
623: (move roomb rooma)
624: (pick ball209 rooma left)
625: (pick ball210 rooma right)
626: (move rooma roomb)
627: (drop ball209 roomb left)
628: (drop ball210 roomb right)
629: (move roomb rooma)
630: (pick ball211 rooma left)
631: (pick ball212 rooma right)
632: (move rooma roomb)
633: (drop ball211 roomb left)
634: (drop ball212 roomb right)
635: (move roomb rooma)
636: (pick ball213 rooma left)
637: (pick ball214 rooma right)
638: (move rooma roomb)
639: (drop ball213 roomb left)
640: (drop ball214 roomb right)
641: (move roomb rooma)
642: (pick ball215 rooma left)
643: (pick ball216 rooma right)
644: (move rooma roomb)
645: (drop ball215 roomb left)
646: (drop ball216 roomb right)
647: (move roomb rooma)
648: (pick ball217 rooma left)
649: (pick ball218 rooma right)
650: (move rooma roomb)
651: (drop ball217 roomb left)
652: (drop ball218 roomb right)
653: (move roomb rooma)
654: (pick ball219 rooma left)
655: (pick ball220 rooma right)
656: (move rooma roomb)
657: (drop ball219 roomb left)
658: (drop ball220 roomb right)
659: (move roomb rooma)
660: (pick ball221 rooma left)
661: (pick ball222 rooma right)
662: (move rooma roomb)
663: (drop ball221 roomb left)
664: (drop ball222 roomb right)
665: (move roomb rooma)
666: (pick ball223 rooma left)
667: (pick ball224 rooma right)
668: (move rooma roomb)
669: (drop ball223 roomb left)
670: (drop ball224 roomb right)
671: (move roomb rooma)
672: (pick ball225 rooma left)
673: (pick ball226 rooma right)
674: (move rooma roomb)
675: (drop ball225 roomb left)
676: (drop ball226 roomb right)
677: (move roomb rooma)
678: (pick ball227 rooma left)
679: (pick ball228 rooma right)
680: (move rooma roomb)
681: (drop ball227 roomb left)
682: (drop ball228 roomb right)
683: (move roomb rooma)
684: (pick ball229 rooma left)
685: (pick ball230 rooma right)
686: (move rooma roomb)
687: (drop ball229 roomb left)
688: (drop ball230 roomb right)
689: (move roomb rooma)
690: (pick ball231 rooma left)
691: (pick ball232 rooma right)
692: (move rooma roomb)
693: (drop ball231 roomb left)
694: (drop ball232 roomb right)
695: (move roomb rooma)
696: (pick ball233 rooma left)
697: (pick ball234 rooma right)
698: (move rooma roomb)
699: (drop ball233 roomb left)
700: (drop ball234 roomb right)
701: (move roomb rooma)
702: (pick ball235 rooma left)
703: (pick ball236 rooma right)
704: (move rooma roomb)
705: (drop ball235 roomb left)
706: (drop ball236 roomb right)
707: (move roomb rooma)
708: (pick ball237 rooma left)
709: (pick ball238 rooma right)
710: (move rooma roomb)
711: (drop ball237 roomb left)
712: (drop ball238 roomb right)
713: (move roomb rooma)
714: (pick ball239 rooma left)
715: (pick ball240 rooma right)
716: (move rooma roomb)
717: (drop ball239 roomb left)
718: (drop ball240 roomb right)
719: (move roomb rooma)
720: (pick ball241 rooma left)
721: (pick ball242 rooma right)
722: (move rooma roomb)
723: (drop ball241 roomb left)
724: (drop ball242 roomb right)
725: (move roomb rooma)
726: (pick ball243 rooma left)
727: (pick ball244 rooma right)
728: (move rooma roomb)
729: (drop ball243 roomb left)
730: (drop ball244 roomb right)
731: (move roomb rooma)
732: (pick ball245 rooma left)
733: (pick ball246 rooma right)
734: (move rooma roomb)
735: (drop ball245 roomb left)
736: (drop ball246 roomb right)
737: (move roomb rooma)
738: (pick ball247 rooma left)
739: (pick ball248 rooma right)
740: (move rooma roomb)
741: (drop ball247 roomb left)
742: (drop ball248 roomb right)
743: (move roomb rooma)
744: (pick ball249 rooma left)
745: (pick ball250 rooma right)
746: (move rooma roomb)
747: (drop ball249 roomb left)
748: (drop ball250 roomb right)
749: (move roomb rooma)
750: (pick ball251 rooma left)
751: (pick ball252 rooma right)
752: (move rooma roomb)
753: (drop ball251 roomb left)
754: (drop ball252 roomb right)
755: (move roomb rooma)
756: (pick ball253 rooma left)
757: (pick ball254 rooma right)
758: (move rooma roomb)
759: (drop ball253 roomb left)
760: (drop ball254 roomb right)
761: (move roomb rooma)
762: (pick ball255 rooma left)
763: (pick ball256 rooma right)
764: (move rooma roomb)
765: (drop ball255 roomb left)
766: (drop ball256 roomb right)
767: (move roomb rooma)
768: (pick ball257 rooma left)
769: (pick ball258 rooma right)
770: (move rooma roomb)
771: (drop ball257 roomb left)
772: (drop ball258 roomb right)
773: (move roomb rooma)
774: (pick ball259 rooma left)
775: (pick ball260 rooma right)
776: (move rooma roomb)
777: (drop ball259 roomb left)
778: (drop ball260 roomb right)
779: (move roomb rooma)
780: (pick ball261 rooma left)
781: (pick ball262 rooma right)
782: (move rooma roomb)
783: (drop ball261 roomb left)
784: (drop ball262 roomb right)
785: (move roomb rooma)
786: (pick ball263 rooma left)
787: (pick ball264 rooma right)
788: (move rooma roomb)
789: (drop ball263 roomb left)
790: (drop ball264 roomb right)
791: (move roomb rooma)
792: (pick ball265 rooma left)
793: (pick ball266 rooma right)
794: (move rooma roomb)
795: (drop ball265 roomb left)
796: (drop ball266 roomb right)
797: (move roomb rooma)
798: (pick ball267 rooma left)
799: (pick ball268 rooma right)
800: (move rooma roomb)
801: (drop ball267 roomb left)
802: (drop ball268 roomb right)
803: (move roomb rooma)
804: (pick ball269 rooma left)
805: (pick ball270 rooma right)
806: (move rooma roomb)
807: (drop ball269 roomb left)
808: (drop ball270 roomb right)
809: (move roomb rooma)
810: (pick ball271 rooma left)
811: (pick ball272 rooma right)
812: (move rooma roomb)
813: (drop ball271 roomb left)
814: (drop ball272 roomb right)
815: (move roomb rooma)
816: (pick ball273 rooma left)
817: (pick ball274 rooma right)
818: (move rooma roomb)
819: (drop ball273 roomb left)
820: (drop ball274 roomb right)
821: (move roomb rooma)
822: (pick ball275 rooma left)
823: (pick ball276 rooma right)
824: (move rooma roomb)
825: (drop ball275 roomb left)
826: (drop ball276 roomb right)
827: (move roomb rooma)
828: (pick ball277 rooma left)
829: (pick ball278 rooma right)
830: (move rooma roomb)
831: (drop ball277 roomb left)
832: (drop ball278 roomb right)
833: (move roomb rooma)
834: (pick ball279 rooma left)
835: (pick ball280 rooma right)
836: (move rooma roomb)
837: (drop ball279 roomb left)
838: (drop ball280 roomb right)
839: (move roomb rooma)
840: (pick ball281 rooma left)
841: (pick ball282 rooma right)
842: (move rooma roomb)
843: (drop ball281 roomb left)
844: (drop ball282 roomb right)
845: (move roomb rooma)
846: (pick ball283 rooma left)
847: (pick ball284 rooma right)
848: (move rooma roomb)
849: (drop ball283 roomb left)
850: (drop ball284 roomb right)
851: (move roomb rooma)
852: (pick ball285 rooma left)
853: (pick ball286 rooma right)
854: (move rooma roomb)
855: (drop ball285 roomb left)
856: (drop ball286 roomb right)
857: (move roomb rooma)
858: (pick ball287 rooma left)
859: (pick ball288 rooma right)
860: (move rooma roomb)
861: (drop ball287 roomb left)
862: (drop ball288 roomb right)
863: (move roomb rooma)
864: (pick ball289 rooma left)
865: (pick ball290 rooma right)
866: (move rooma roomb)
867: (drop ball289 roomb left)
868: (drop ball290 roomb right)
869: (move roomb rooma)
870: (pick ball291 rooma left)
871: (pick ball292 rooma right)
872: (move rooma roomb)
873: (drop ball291 roomb left)
874: (drop ball292 roomb right)
875: (move roomb rooma)
876: (pick ball293 rooma left)
877: (pick ball294 rooma right)
878: (move rooma roomb)
879: (drop ball293 roomb left)
880: (drop ball294 roomb right)
881: (move roomb rooma)
882: (pick ball295 rooma left)
883: (pick ball296 rooma right)
884: (move rooma roomb)
885: (drop ball295 roomb left)
886: (drop ball296 roomb right)
887: (move roomb rooma)
888: (pick ball297 rooma left)
889: (pick ball298 rooma right)
890: (move rooma roomb)
891: (drop ball297 roomb left)
892: (drop ball298 roomb right)
893: (move roomb rooma)
894: (pick ball299 rooma left)
895: (pick ball300 rooma right)
896: (move rooma roomb)
897: (drop ball299 roomb left)
898: (drop ball300 roomb right)
899: (move roomb rooma)
900: (pick ball301 rooma left)
901: (pick ball302 rooma right)
902: (move rooma roomb)
903: (drop ball301 roomb left)
904: (drop ball302 roomb right)
905: (move roomb rooma)
906: (pick ball303 rooma left)
907: (pick ball304 rooma right)
908: (move rooma roomb)
909: (drop ball303 roomb left)
910: (drop ball304 roomb right)
911: (move roomb rooma)
912: (pick ball305 rooma left)
913: (pick ball306 rooma right)
914: (move rooma roomb)
915: (drop ball305 roomb left)
916: (drop ball306 roomb right)
917: (move roomb rooma)
918: (pick ball307 rooma left)
919: (pick ball308 rooma right)
920: (move rooma roomb)
921: (drop ball307 roomb left)
922: (drop ball308 roomb right)
923: (move roomb rooma)
924: (pick ball309 rooma left)
925: (pick ball310 rooma right)
926: (move rooma roomb)
927: (drop ball309 roomb left)
928: (drop ball310 roomb right)
929: (move roomb rooma)
930: (pick ball311 rooma left)
931: (pick ball312 rooma right)
932: (move rooma roomb)
933: (drop ball311 roomb left)
934: (drop ball312 roomb right)
935: (move roomb rooma)
936: (pick ball313 rooma left)
937: (pick ball314 rooma right)
938: (move rooma roomb)
939: (drop ball313 roomb left)
940: (drop ball314 roomb right)
941: (move roomb rooma)
942: (pick ball315 rooma left)
943: (pick ball316 rooma right)
944: (move rooma roomb)
945: (drop ball315 roomb left)
946: (drop ball316 roomb right)
947: (move roomb rooma)
948: (pick ball317 rooma left)
949: (pick ball318 rooma right)
950: (move rooma roomb)
951: (drop ball317 roomb left)
952: (drop ball318 roomb right)
953: (move roomb rooma)
954: (pick ball319 rooma left)
955: (pick ball320 rooma right)
956: (move rooma roomb)
957: (drop ball319 roomb left)
958: (drop ball320 roomb right)
959: (move roomb rooma)
960: (pick ball321 rooma left)
961: (pick ball322 rooma right)
962: (move rooma roomb)
963: (drop ball321 roomb left)
964: (drop ball322 roomb right)
965: (move roomb rooma)
966: (pick ball323 rooma left)
967: (pick ball324 rooma right)
968: (move rooma roomb)
969: (drop ball323 roomb left)
970: (drop ball324 roomb right)
971: (move roomb rooma)
972: (pick ball325 rooma left)
973: (pick ball326 rooma right)
974: (move rooma roomb)
975: (drop ball325 roomb left)
976: (drop ball326 roomb right)
977: (move roomb rooma)
978: (pick ball327 rooma left)
979: (pick ball328 rooma right)
980: (move rooma roomb)
981: (drop ball327 roomb left)
982: (drop ball328 roomb right)
983: (move roomb rooma)
984: (pick ball329 rooma left)
985: (pick ball330 rooma right)
986: (move rooma roomb)
987: (drop ball329 roomb left)
988: (drop ball330 roomb right)
989: (move roomb rooma)
990: (pick ball331 rooma left)
991: (pick ball332 rooma right)
992: (move rooma roomb)
993: (drop ball331 roomb left)
994: (drop ball332 roomb right)
995: (move roomb rooma)
996: (pick ball333 rooma left)
997: (pick ball334 rooma right)
998: (move rooma roomb)
999: (drop ball333 roomb left)
1000: (drop ball334 roomb right)
1001: (move roomb rooma)
1002: (pick ball335 rooma left)
1003: (pick ball336 rooma right)
1004: (move rooma roomb)
1005: (drop ball335 roomb left)
1006: (drop ball336 roomb right)
1007: (move roomb rooma)
1008: (pick ball337 rooma left)
1009: (pick ball338 rooma right)
1010: (move rooma roomb)
1011: (drop ball337 roomb left)
1012: (drop ball338 roomb right)
1013: (move roomb rooma)
1014: (pick ball339 rooma left)
1015: (pick ball340 rooma right)
1016: (move rooma roomb)
1017: (drop ball339 roomb left)
1018: (drop ball340 roomb right)
1019: (move roomb rooma)
1020: (pick ball341 rooma left)
1021: (pick ball342 rooma right)
1022: (move rooma roomb)
1023: (drop ball341 roomb left)
1024: (drop ball342 roomb right)
1025: (move roomb rooma)
1026: (pick ball343 rooma left)
1027: (pick ball344 rooma right)
1028: (move rooma roomb)
1029: (drop ball343 roomb left)
1030: (drop ball344 roomb right)
1031: (move roomb rooma)
1032: (pick ball345 rooma left)
1033: (pick ball346 rooma right)
1034: (move rooma roomb)
1035: (drop ball345 roomb left)
1036: (drop ball346 roomb right)
1037: (move roomb rooma)
1038: (pick ball347 rooma left)
1039: (pick ball348 rooma right)
1040: (move rooma roomb)
1041: (drop ball347 roomb left)
1042: (drop ball348 roomb right)
1043: (move roomb rooma)
1044: (pick ball349 rooma left)
1045: (pick ball350 rooma right)
1046: (move rooma roomb)
1047: (drop ball349 roomb left)
1048: (drop ball350 roomb right)
1049: (move roomb rooma)
1050: (pick ball351 rooma left)
1051: (pick ball352 rooma right)
1052: (move rooma roomb)
1053: (drop ball351 roomb left)
1054: (drop ball352 roomb right)
1055: (move roomb rooma)
1056: (pick ball353 rooma left)
1057: (pick ball354 rooma right)
1058: (move rooma roomb)
1059: (drop ball353 roomb left)
1060: (drop ball354 roomb right)
1061: (move roomb rooma)
1062: (pick ball355 rooma left)
1063: (pick ball356 rooma right)
1064: (move rooma roomb)
1065: (drop ball355 roomb left)
1066: (drop ball356 roomb right)
1067: (move roomb rooma)
1068: (pick ball357 rooma left)
1069: (pick ball358 rooma right)
1070: (move rooma roomb)
1071: (drop ball357 roomb left)
1072: (drop ball358 roomb right)
1073: (move roomb rooma)
1074: (pick ball359 rooma left)
1075: (pick ball360 rooma right)
1076: (move rooma roomb)
1077: (drop ball359 roomb left)
1078: (drop ball360 roomb right)
1079: (move roomb rooma)
1080: (pick ball361 rooma left)
1081: (pick ball362 rooma right)
1082: (move rooma roomb)
1083: (drop ball361 roomb left)
1084: (drop ball362 roomb right)
1085: (move roomb rooma)
1086: (pick ball363 rooma left)
1087: (pick ball364 rooma right)
1088: (move rooma roomb)
1089: (drop ball363 roomb left)
1090: (drop ball364 roomb right)
1091: (move roomb rooma)
1092: (pick ball365 rooma left)
1093: (pick ball366 rooma right)
1094: (move rooma roomb)
1095: (drop ball365 roomb left)
1096: (drop ball366 roomb right)
1097: (move roomb rooma)
1098: (pick ball367 rooma left)
1099: (pick ball368 rooma right)
1100: (move rooma roomb)
1101: (drop ball367 roomb left)
1102: (drop ball368 roomb right)
1103: (move roomb rooma)
1104: (pick ball369 rooma left)
1105: (pick ball370 rooma right)
1106: (move rooma roomb)
1107: (drop ball369 roomb left)
1108: (drop ball370 roomb right)
1109: (move roomb rooma)
1110: (pick ball371 rooma left)
1111: (pick ball372 rooma right)
1112: (move rooma roomb)
1113: (drop ball371 roomb left)
1114: (drop ball372 roomb right)
1115: (move roomb rooma)
1116: (pick ball373 rooma left)
1117: (pick ball374 rooma right)
1118: (move rooma roomb)
1119: (drop ball373 roomb left)
1120: (drop ball374 roomb right)
1121: (move roomb rooma)
1122: (pick ball375 rooma left)
1123: (pick ball376 rooma right)
1124: (move rooma roomb)
1125: (drop ball375 roomb left)
1126: (drop ball376 roomb right)
1127: (move roomb rooma)
1128: (pick ball377 rooma left)
1129: (pick ball378 rooma right)
1130: (move rooma roomb)
1131: (drop ball377 roomb left)
1132: (drop ball378 roomb right)
1133: (move roomb rooma)
1134: (pick ball379 rooma left)
1135: (pick ball380 rooma right)
1136: (move rooma roomb)
1137: (drop ball379 roomb left)
1138: (drop ball380 roomb right)
1139: (move roomb rooma)
1140: (pick ball381 rooma left)
1141: (pick ball382 rooma right)
1142: (move rooma roomb)
1143: (drop ball381 roomb left)
1144: (drop ball382 roomb right)
1145: (move roomb rooma)
1146: (pick ball383 rooma left)
1147: (pick ball384 rooma right)
1148: (move rooma roomb)
1149: (drop ball383 roomb left)
1150: (drop ball384 roomb right)
1151: (move roomb rooma)
1152: (pick ball385 rooma left)
1153: (pick ball386 rooma right)
1154: (move rooma roomb)
1155: (drop ball385 roomb left)
1156: (drop ball386 roomb right)
1157: (move roomb rooma)
1158: (pick ball387 rooma left)
1159: (pick ball388 rooma right)
1160: (move rooma roomb)
1161: (drop ball387 roomb left)
1162: (drop ball388 roomb right)
1163: (move roomb rooma)
1164: (pick ball389 rooma left)
1165: (pick ball390 rooma right)
1166: (move rooma roomb)
1167: (drop ball389 roomb left)
1168: (drop ball390 roomb right)
1169: (move roomb rooma)
1170: (pick ball391 rooma left)
1171: (pick ball392 rooma right)
1172: (move rooma roomb)
1173: (drop ball391 roomb left)
1174: (drop ball392 roomb right)
1175: (move roomb rooma)
1176: (pick ball393 rooma left)
1177: (pick ball394 rooma right)
1178: (move rooma roomb)
1179: (drop ball393 roomb left)
1180: (drop ball394 roomb right)
1181: (move roomb rooma)
1182: (pick ball395 rooma left)
1183: (pick ball396 rooma right)
1184: (move rooma roomb)
1185: (drop ball395 roomb left)
1186: (drop ball396 roomb right)
1187: (move roomb rooma)
1188: (pick ball397 rooma left)
1189: (pick ball398 rooma right)
1190: (move rooma roomb)
1191: (drop ball397 roomb left)
1192: (drop ball398 roomb right)
1193: (move roomb rooma)
1194: (pick ball399 rooma left)
1195: (pick ball400 rooma right)
1196: (move rooma roomb)
1197: (drop ball399 roomb left)
1198: (drop ball400 roomb right)
1199: (move roomb rooma)
1200: (pick ball401 rooma left)
1201: (pick ball402 rooma right)
1202: (move rooma roomb)
1203: (drop ball401 roomb left)
1204: (drop ball402 roomb right)
1205: (move roomb rooma)
1206: (pick ball403 rooma left)
1207: (pick ball404 rooma right)
1208: (move rooma roomb)
1209: (drop ball403 roomb left)
1210: (drop ball404 roomb right)
1211: (move roomb rooma)
1212: (pick ball405 rooma left)
1213: (pick ball406 rooma right)
1214: (move rooma roomb)
1215: (drop ball405 roomb left)
1216: (drop ball406 roomb right)
1217: (move roomb rooma)
1218: (pick ball407 rooma left)
1219: (pick ball408 rooma right)
1220: (move rooma roomb)
1221: (drop ball407 roomb left)
1222: (drop ball408 roomb right)
1223: (move roomb rooma)
1224: (pick ball409 rooma left)
1225: (pick ball410 rooma right)
1226: (move rooma roomb)
1227: (drop ball409 roomb left)
1228: (drop ball410 roomb right)
1229: (move roomb rooma)
1230: (pick ball411 rooma left)
1231: (pick ball412 rooma right)
1232: (move rooma roomb)
1233: (drop ball411 roomb left)
1234: (drop ball412 roomb right)
1235: (move roomb rooma)
1236: (pick ball413 rooma left)
1237: (pick ball414 rooma right)
1238: (move rooma roomb)
1239: (drop ball413 roomb left)
1240: (drop ball414 roomb right)
1241: (move roomb rooma)
1242: (pick ball415 rooma left)
1243: (pick ball416 rooma right)
1244: (move rooma roomb)
1245: (drop ball415 roomb left)
1246: (drop ball416 roomb right)
1247: (move roomb rooma)
1248: (pick ball417 rooma left)
1249: (pick ball418 rooma right)
1250: (move rooma roomb)
1251: (drop ball417 roomb left)
1252: (drop ball418 roomb right)
1253: (move roomb rooma)
1254: (pick ball419 rooma left)
1255: (pick ball420 rooma right)
1256: (move rooma roomb)
1257: (drop ball419 roomb left)
1258: (drop ball420 roomb right)
1259: (move roomb rooma)
1260: (pick ball421 rooma left)
1261: (pick ball422 rooma right)
1262: (move rooma roomb)
1263: (drop ball421 roomb left)
1264: (drop ball422 roomb right)
1265: (move roomb rooma)
1266: (pick ball423 rooma left)
1267: (pick ball424 rooma right)
1268: (move rooma roomb)
1269: (drop ball423 roomb left)
1270: (drop ball424 roomb right)
1271: (move roomb rooma)
1272: (pick ball425 rooma left)
1273: (pick ball426 rooma right)
1274: (move rooma roomb)
1275: (drop ball425 roomb left)
1276: (drop ball426 roomb right)
1277: (move roomb rooma)
1278: (pick ball427 rooma left)
1279: (pick ball428 rooma right)
1280: (move rooma roomb)
1281: (drop ball427 roomb left)
1282: (drop ball428 roomb right)
1283: (move roomb rooma)
1284: (pick ball429 rooma left)
1285: (pick ball430 rooma right)
1286: (move rooma roomb)
1287: (drop ball429 roomb left)
1288: (drop ball430 roomb right)
1289: (move roomb rooma)
1290: (pick ball431 rooma left)
1291: (pick ball432 rooma right)
1292: (move rooma roomb)
1293: (drop ball431 roomb left)
1294: (drop ball432 roomb right)
1295: (move roomb rooma)
1296: (pick ball433 rooma left)
1297: (pick ball434 rooma right)
1298: (move rooma roomb)
1299: (drop ball433 roomb left)
1300: (drop ball434 roomb right)
1301: (move roomb rooma)
1302: (pick ball435 rooma left)
1303: (pick ball436 rooma right)
1304: (move rooma roomb)
1305: (drop ball435 roomb left)
1306: (drop ball436 roomb right)
1307: (move roomb rooma)
1308: (pick ball437 rooma left)
1309: (pick ball438 rooma right)
1310: (move rooma roomb)
1311: (drop ball437 roomb left)
1312: (drop ball438 roomb right)
1313: (move roomb rooma)
1314: (pick ball439 rooma left)
1315: (pick ball440 rooma right)
1316: (move rooma roomb)
1317: (drop ball439 roomb left)
1318: (drop ball440 roomb right)
1319: (move roomb rooma)
1320: (pick ball441 rooma left)
1321: (pick ball442 rooma right)
1322: (move rooma roomb)
1323: (drop ball441 roomb left)
1324: (drop ball442 roomb right)
1325: (move roomb rooma)
1326: (pick ball443 rooma left)
1327: (pick ball444 rooma right)
1328: (move rooma roomb)
1329: (drop ball443 roomb left)
1330: (drop ball444 roomb right)
1331: (move roomb rooma)
1332: (pick ball445 rooma left)
1333: (pick ball446 rooma right)
1334: (move rooma roomb)
1335: (drop ball445 roomb left)
1336: (drop ball446 roomb right)
1337: (move roomb rooma)
1338: (pick ball447 rooma left)
1339: (pick ball448 rooma right)
1340: (move rooma roomb)
1341: (drop ball447 roomb left)
1342: (drop ball448 roomb right)
1343: (move roomb rooma)
1344: (pick ball449 rooma left)
1345: (pick ball450 rooma right)
1346: (move rooma roomb)
1347: (drop ball449 roomb left)
1348: (drop ball450 roomb right)
1349: (move roomb rooma)
1350: (pick ball451 rooma left)
1351: (pick ball452 rooma right)
1352: (move rooma roomb)
1353: (drop ball451 roomb left)
1354: (drop ball452 roomb right)
1355: (move roomb rooma)
1356: (pick ball453 rooma left)
1357: (pick ball454 rooma right)
1358: (move rooma roomb)
1359: (drop ball453 roomb left)
1360: (drop ball454 roomb right)
1361: (move roomb rooma)
1362: (pick ball455 rooma left)
1363: (pick ball456 rooma right)
1364: (move rooma roomb)
1365: (drop ball455 roomb left)
1366: (drop ball456 roomb right)
1367: (move roomb rooma)
1368: (pick ball457 rooma left)
1369: (pick ball458 rooma right)
1370: (move rooma roomb)
1371: (drop ball457 roomb left)
1372: (drop ball458 roomb right)
1373: (move roomb rooma)
1374: (pick ball459 rooma left)
1375: (pick ball460 rooma right)
1376: (move rooma roomb)
1377: (drop ball459 roomb left)
1378: (drop ball460 roomb right)
1379: (move roomb rooma)
1380: (pick ball461 rooma left)
1381: (pick ball462 rooma right)
1382: (move rooma roomb)
1383: (drop ball461 roomb left)
1384: (drop ball462 roomb right)
1385: (move roomb rooma)
1386: (pick ball463 rooma left)
1387: (pick ball464 rooma right)
1388: (move rooma roomb)
1389: (drop ball463 roomb left)
1390: (drop ball464 roomb right)
1391: (move roomb rooma)
1392: (pick ball465 rooma left)
1393: (pick ball466 rooma right)
1394: (move rooma roomb)
1395: (drop ball465 roomb left)
1396: (drop ball466 roomb right)
1397: (move roomb rooma)
1398: (pick ball467 rooma left)
1399: (pick ball468 rooma right)
1400: (move rooma roomb)
1401: (drop ball467 roomb left)
1402: (drop ball468 roomb right)
1403: (move roomb rooma)
1404: (pick ball469 rooma left)
1405: (pick ball470 rooma right)
1406: (move rooma roomb)
1407: (drop ball469 roomb left)
1408: (drop ball470 roomb right)
1409: (move roomb rooma)
1410: (pick ball471 rooma left)
1411: (pick ball472 rooma right)
1412: (move rooma roomb)
1413: (drop ball471 roomb left)
1414: (drop ball472 roomb right)
1415: (move roomb rooma)
1416: (pick ball473 rooma left)
1417: (pick ball474 rooma right)
1418: (move rooma roomb)
1419: (drop ball473 roomb left)
1420: (drop ball474 roomb right)
1421: (move roomb rooma)
1422: (pick ball475 rooma left)
1423: (pick ball476 rooma right)
1424: (move rooma roomb)
1425: (drop ball475 roomb left)
1426: (drop ball476 roomb right)
1427: (move roomb rooma)
1428: (pick ball477 rooma left)
1429: (pick ball478 rooma right)
1430: (move rooma roomb)
1431: (drop ball477 roomb left)
1432: (drop ball478 roomb right)
1433: (move roomb rooma)
1434: (pick ball479 rooma left)
1435: (pick ball480 rooma right)
1436: (move rooma roomb)
1437: (drop ball479 roomb left)
1438: (drop ball480 roomb right)
1439: (move roomb rooma)
1440: (pick ball481 rooma left)
1441: (pick ball482 rooma right)
1442: (move rooma roomb)
1443: (drop ball481 roomb left)
1444: (drop ball482 roomb right)
1445: (move roomb rooma)
1446: (pick ball483 rooma left)
1447: (pick ball484 rooma right)
1448: (move rooma roomb)
1449: (drop ball483 roomb left)
1450: (drop ball484 roomb right)
1451: (move roomb rooma)
1452: (pick ball485 rooma left)
1453: (pick ball486 rooma right)
1454: (move rooma roomb)
1455: (drop ball485 roomb left)
1456: (drop ball486 roomb right)
1457: (move roomb rooma)
1458: (pick ball487 rooma left)
1459: (pick ball488 rooma right)
1460: (move rooma roomb)
1461: (drop ball487 roomb left)
1462: (drop ball488 roomb right)
1463: (move roomb rooma)
1464: (pick ball489 rooma left)
1465: (pick ball490 rooma right)
1466: (move rooma roomb)
1467: (drop ball489 roomb left)
1468: (drop ball490 roomb right)
1469: (move roomb rooma)
1470: (pick ball491 rooma left)
1471: (pick ball492 rooma right)
1472: (move rooma roomb)
1473: (drop ball491 roomb left)
1474: (drop ball492 roomb right)
1475: (move roomb rooma)
1476: (pick ball493 rooma left)
1477: (pick ball494 rooma right)
1478: (move rooma roomb)
1479: (drop ball493 roomb left)
1480: (drop ball494 roomb right)
1481: (move roomb rooma)
1482: (pick ball495 rooma left)
1483: (pick ball496 rooma right)
1484: (move rooma roomb)
1485: (drop ball495 roomb left)
1486: (drop ball496 roomb right)
1487: (move roomb rooma)
1488: (pick ball497 rooma left)
1489: (pick ball498 rooma right)
1490: (move rooma roomb)
1491: (drop ball497 roomb left)
1492: (drop ball498 roomb right)
1493: (move roomb rooma)
1494: (pick ball499 rooma left)
1495: (pick ball500 rooma right)
1496: (move rooma roomb)
1497: (drop ball499 roomb left)
1498: (drop ball500 roomb right)
1499: (move roomb rooma)
1500: (pick ball501 rooma left)
1501: (pick ball502 rooma right)
1502: (move rooma roomb)
1503: (drop ball501 roomb left)
1504: (drop ball502 roomb right)
1505: (move roomb rooma)
1506: (pick ball503 rooma left)
1507: (pick ball504 rooma right)
1508: (move rooma roomb)
1509: (drop ball503 roomb left)
1510: (drop ball504 roomb right)
1511: (move roomb rooma)
1512: (pick ball505 rooma left)
1513: (pick ball506 rooma right)
1514: (move rooma roomb)
1515: (drop ball505 roomb left)
1516: (drop ball506 roomb right)
1517: (move roomb rooma)
1518: (pick ball507 rooma left)
1519: (pick ball508 rooma right)
1520: (move rooma roomb)
1521: (drop ball507 roomb left)
1522: (drop ball508 roomb right)
1523: (move roomb rooma)
1524: (pick ball509 rooma left)
1525: (pick ball510 rooma right)
1526: (move rooma roomb)
1527: (drop ball509 roomb left)
1528: (drop ball510 roomb right)
1529: (move roomb rooma)
1530: (pick ball511 rooma left)
1531: (pick ball512 rooma right)
1532: (move rooma roomb)
1533: (drop ball511 roomb left)
1534: (drop ball512 roomb right)
1535: (move roomb rooma)
1536: (pick ball513 rooma left)
1537: (pick ball514 rooma right)
1538: (move rooma roomb)
1539: (drop ball513 roomb left)
1540: (drop ball514 roomb right)
1541: (move roomb rooma)
1542: (pick ball515 rooma left)
1543: (pick ball516 rooma right)
1544: (move rooma roomb)
1545: (drop ball515 roomb left)
1546: (drop ball516 roomb right)
1547: (move roomb rooma)
1548: (pick ball517 rooma left)
1549: (pick ball518 rooma right)
1550: (move rooma roomb)
1551: (drop ball517 roomb left)
1552: (drop ball518 roomb right)
1553: (move roomb rooma)
1554: (pick ball519 rooma left)
1555: (pick ball520 rooma right)
1556: (move rooma roomb)
1557: (drop ball519 roomb left)
1558: (drop ball520 roomb right)
1559: (move roomb rooma)
1560: (pick ball521 rooma left)
1561: (pick ball522 rooma right)
1562: (move rooma roomb)
1563: (drop ball521 roomb left)
1564: (drop ball522 roomb right)
1565: (move roomb rooma)
1566: (pick ball523 rooma left)
1567: (pick ball524 rooma right)
1568: (move rooma roomb)
1569: (drop ball523 roomb left)
1570: (drop ball524 roomb right)
1571: (move roomb rooma)
1572: (pick ball525 rooma left)
1573: (pick ball526 rooma right)
1574: (move rooma roomb)
1575: (drop ball525 roomb left)
1576: (drop ball526 roomb right)
1577: (move roomb rooma)
1578: (pick ball527 rooma left)
1579: (pick ball528 rooma right)
1580: (move rooma roomb)
1581: (drop ball527 roomb left)
1582: (drop ball528 roomb right)
1583: (move roomb rooma)
1584: (pick ball529 rooma left)
1585: (pick ball530 rooma right)
1586: (move rooma roomb)
1587: (drop ball529 roomb left)
1588: (drop ball530 roomb right)
1589: (move roomb rooma)
1590: (pick ball531 rooma left)
1591: (pick ball532 rooma right)
1592: (move rooma roomb)
1593: (drop ball531 roomb left)
1594: (drop ball532 roomb right)
1595: (move roomb rooma)
1596: (pick ball533 rooma left)
1597: (pick ball534 rooma right)
1598: (move rooma roomb)
1599: (drop ball533 roomb left)
1600: (drop ball534 roomb right)
1601: (move roomb rooma)
1602: (pick ball535 rooma left)
1603: (pick ball536 rooma right)
1604: (move rooma roomb)
1605: (drop ball535 roomb left)
1606: (drop ball536 roomb right)
1607: (move roomb rooma)
1608: (pick ball537 rooma left)
1609: (pick ball538 rooma right)
1610: (move rooma roomb)
1611: (drop ball537 roomb left)
1612: (drop ball538 roomb right)
1613: (move roomb rooma)
1614: (pick ball539 rooma left)
1615: (pick ball540 rooma right)
1616: (move rooma roomb)
1617: (drop ball539 roomb left)
1618: (drop ball540 roomb right)
1619: (move roomb rooma)
1620: (pick ball541 rooma left)
1621: (pick ball542 rooma right)
1622: (move rooma roomb)
1623: (drop ball541 roomb left)
1624: (drop ball542 roomb right)
1625: (move roomb rooma)
1626: (pick ball543 rooma left)
1627: (pick ball544 rooma right)
1628: (move rooma roomb)
1629: (drop ball543 roomb left)
1630: (drop ball544 roomb right)
1631: (move roomb rooma)
1632: (pick ball545 rooma left)
1633: (pick ball546 rooma right)
1634: (move rooma roomb)
1635: (drop ball545 roomb left)
1636: (drop ball546 roomb right)
1637: (move roomb rooma)
1638: (pick ball547 rooma left)
1639: (pick ball548 rooma right)
1640: (move rooma roomb)
1641: (drop ball547 roomb left)
1642: (drop ball548 roomb right)
1643: (move roomb rooma)
1644: (pick ball549 rooma left)
1645: (pick ball550 rooma right)
1646: (move rooma roomb)
1647: (drop ball549 roomb left)
1648: (drop ball550 roomb right)


