
Compact plan:
0: (up f0 f66)
1: (board f66 p0)
2: (up f66 f562)
3: (depart f562 p0)
4: (down f562 f460)
5: (board f460 p1)
6: (down f460 f347)
7: (depart f347 p1)
8: (up f347 f350)
9: (board f350 p2)
10: (up f350 f372)
11: (depart f372 p2)
12: (up f372 f401)
13: (board f401 p3)
14: (down f401 f193)
15: (depart f193 p3)
16: (up f193 f423)
17: (board f423 p4)
18: (down f423 f68)
19: (depart f68 p4)
20: (up f68 f524)
21: (board f524 p5)
22: (down f524 f104)
23: (depart f104 p5)
24: (up f104 f226)
25: (board f226 p6)
26: (up f226 f301)
27: (depart f301 p6)
28: (up f301 f511)
29: (board f511 p7)
30: (down f511 f438)
31: (depart f438 p7)
32: (down f438 f21)
33: (board f21 p8)
34: (up f21 f63)
35: (depart f63 p8)
36: (up f63 f579)
37: (board f579 p9)
38: (down f579 f505)
39: (depart f505 p9)
40: (down f505 f321)
41: (board f321 p10)
42: (down f321 f95)
43: (depart f95 p10)
44: (up f95 f585)
45: (board f585 p11)
46: (down f585 f250)
47: (depart f250 p11)
48: (up f250 f314)
49: (board f314 p12)
50: (down f314 f94)
51: (depart f94 p12)
52: (up f94 f141)
53: (board f141 p13)
54: (up f141 f561)
55: (depart f561 p13)
56: (down f561 f63)
57: (board f63 p14)
58: (down f63 f62)
59: (depart f62 p14)
60: (up f62 f92)
61: (board f92 p15)
62: (up f92 f423)
63: (depart f423 p15)
64: (up f423 f577)
65: (board f577 p16)
66: (down f577 f245)
67: (depart f245 p16)
68: (up f245 f400)
69: (board f400 p17)
70: (down f400 f214)
71: (depart f214 p17)
72: (up f214 f547)
73: (board f547 p18)
74: (up f547 f592)
75: (depart f592 p18)
76: (down f592 f224)
77: (board f224 p19)
78: (up f224 f338)
79: (depart f338 p19)
80: (up f338 f344)
81: (board f344 p20)
82: (down f344 f317)
83: (depart f317 p20)
84: (down f317 f65)
85: (board f65 p21)
86: (up f65 f415)
87: (depart f415 p21)
88: (down f415 f244)
89: (board f244 p22)
90: (up f244 f268)
91: (depart f268 p22)
92: (up f268 f421)
93: (board f421 p23)
94: (down f421 f358)
95: (depart f358 p23)
96: (up f358 f473)
97: (board f473 p24)
98: (down f473 f258)
99: (depart f258 p24)
100: (down f258 f31)
101: (board f31 p25)
102: (up f31 f274)
103: (depart f274 p25)
104: (up f274 f487)
105: (board f487 p26)
106: (down f487 f307)
107: (depart f307 p26)
108: (down f307 f18)
109: (board f18 p27)
110: (up f18 f357)
111: (depart f357 p27)
112: (down f357 f147)
113: (board f147 p28)
114: (up f147 f195)
115: (depart f195 p28)
116: (up f195 f361)
117: (board f361 p29)
118: (up f361 f593)
119: (depart f593 p29)
120: (down f593 f429)
121: (board f429 p30)
122: (down f429 f18)
123: (depart f18 p30)
124: (up f18 f210)
125: (board f210 p31)
126: (up f210 f412)
127: (depart f412 p31)
128: (down f412 f350)
129: (board f350 p32)
130: (down f350 f215)
131: (depart f215 p32)
132: (down f215 f26)
133: (board f26 p33)
134: (down f26 f19)
135: (depart f19 p33)
136: (up f19 f407)
137: (board f407 p34)
138: (up f407 f594)
139: (depart f594 p34)
140: (down f594 f121)
141: (board f121 p35)
142: (up f121 f193)
143: (depart f193 p35)
144: (down f193 f37)
145: (board f37 p36)
146: (up f37 f141)
147: (depart f141 p36)
148: (up f141 f260)
149: (board f260 p37)
150: (up f260 f587)
151: (depart f587 p37)
152: (down f587 f93)
153: (board f93 p38)
154: (up f93 f294)
155: (depart f294 p38)
156: (up f294 f560)
157: (board f560 p39)
158: (down f560 f201)
159: (depart f201 p39)
160: (up f201 f488)
161: (board f488 p40)
162: (up f488 f557)
163: (depart f557 p40)
164: (down f557 f265)
165: (board f265 p41)
166: (down f265 f139)
167: (depart f139 p41)
168: (up f139 f540)
169: (board f540 p42)
170: (down f540 f50)
171: (depart f50 p42)
172: (down f50 f36)
173: (board f36 p43)
174: (up f36 f362)
175: (depart f362 p43)
176: (down f362 f191)
177: (board f191 p44)
178: (up f191 f350)
179: (depart f350 p44)
180: (up f350 f530)
181: (board f530 p45)
182: (up f530 f588)
183: (depart f588 p45)
184: (down f588 f263)
185: (board f263 p46)
186: (up f263 f518)
187: (depart f518 p46)
188: (down f518 f193)
189: (board f193 p47)
190: (down f193 f84)
191: (depart f84 p47)
192: (up f84 f440)
193: (board f440 p48)
194: (down f440 f114)
195: (depart f114 p48)
196: (up f114 f147)
197: (board f147 p49)
198: (up f147 f253)
199: (depart f253 p49)
200: (up f253 f364)
201: (board f364 p50)
202: (down f364 f238)
203: (depart f238 p50)
204: (up f238 f584)
205: (board f584 p51)
206: (down f584 f236)
207: (depart f236 p51)
208: (down f236 f68)
209: (board f68 p52)
210: (up f68 f265)
211: (depart f265 p52)
212: (down f265 f32)
213: (board f32 p53)
214: (up f32 f597)
215: (depart f597 p53)
216: (down f597 f51)
217: (board f51 p54)
218: (down f51 f23)
219: (depart f23 p54)
220: (up f23 f164)
221: (board f164 p55)
222: (up f164 f471)
223: (depart f471 p55)
224: (down f471 f102)
225: (board f102 p56)
226: (up f102 f231)
227: (depart f231 p56)
228: (up f231 f274)
229: (board f274 p57)
230: (down f274 f41)
231: (depart f41 p57)
232: (up f41 f86)
233: (board f86 p58)
234: (up f86 f129)
235: (depart f129 p58)
236: (down f129 f100)
237: (board f100 p59)
238: (up f100 f257)
239: (depart f257 p59)
240: (down f257 f196)
241: (board f196 p60)
242: (up f196 f465)
243: (depart f465 p60)
244: (down f465 f35)
245: (board f35 p61)
246: (up f35 f138)
247: (depart f138 p61)
248: (up f138 f279)
249: (board f279 p62)
250: (up f279 f363)
251: (depart f363 p62)
252: (down f363 f52)
253: (board f52 p63)
254: (up f52 f298)
255: (depart f298 p63)
256: (down f298 f60)
257: (board f60 p64)
258: (up f60 f160)
259: (depart f160 p64)
260: (up f160 f302)
261: (board f302 p65)
262: (down f302 f239)
263: (depart f239 p65)
264: (up f239 f512)
265: (board f512 p66)
266: (down f512 f497)
267: (depart f497 p66)
268: (down f497 f132)
269: (board f132 p67)
270: (up f132 f289)
271: (depart f289 p67)
272: (up f289 f568)
273: (board f568 p68)
274: (down f568 f226)
275: (depart f226 p68)
276: (down f226 f34)
277: (board f34 p69)
278: (up f34 f290)
279: (depart f290 p69)
280: (up f290 f557)
281: (board f557 p70)
282: (down f557 f49)
283: (depart f49 p70)
284: (up f49 f476)
285: (board f476 p71)
286: (down f476 f105)
287: (depart f105 p71)
288: (up f105 f534)
289: (board f534 p72)
290: (down f534 f25)
291: (depart f25 p72)
292: (up f25 f149)
293: (board f149 p73)
294: (up f149 f181)
295: (depart f181 p73)
296: (up f181 f593)
297: (board f593 p74)
298: (down f593 f295)
299: (depart f295 p74)
300: (down f295 f287)
301: (board f287 p75)
302: (down f287 f40)
303: (depart f40 p75)
304: (up f40 f436)
305: (board f436 p76)
306: (down f436 f4)
307: (depart f4 p76)
308: (up f4 f482)
309: (board f482 p77)
310: (down f482 f129)
311: (depart f129 p77)
312: (up f129 f599)
313: (board f599 p78)
314: (down f599 f571)
315: (depart f571 p78)
316: (down f571 f566)
317: (board f566 p79)
318: (down f566 f388)
319: (depart f388 p79)
320: (down f388 f276)
321: (board f276 p80)
322: (up f276 f470)
323: (depart f470 p80)
324: (down f470 f214)
325: (board f214 p81)
326: (up f214 f334)
327: (depart f334 p81)
328: (up f334 f467)
329: (board f467 p82)
330: (down f467 f399)
331: (depart f399 p82)
332: (down f399 f281)
333: (board f281 p83)
334: (down f281 f49)
335: (depart f49 p83)
336: (up f49 f295)
337: (board f295 p84)
338: (down f295 f31)
339: (depart f31 p84)
340: (up f31 f594)
341: (board f594 p85)
342: (down f594 f131)
343: (depart f131 p85)
344: (up f131 f288)
345: (board f288 p86)
346: (down f288 f41)
347: (depart f41 p86)
348: (up f41 f166)
349: (board f166 p87)
350: (up f166 f577)
351: (depart f577 p87)
352: (down f577 f297)
353: (board f297 p88)
354: (down f297 f35)
355: (depart f35 p88)
356: (up f35 f402)
357: (board f402 p89)
358: (up f402 f553)
359: (depart f553 p89)
360: (down f553 f336)
361: (board f336 p90)
362: (down f336 f304)
363: (depart f304 p90)
364: (down f304 f222)
365: (board f222 p91)
366: (up f222 f251)
367: (depart f251 p91)
368: (down f251 f84)
369: (board f84 p92)
370: (up f84 f130)
371: (depart f130 p92)
372: (up f130 f201)
373: (board f201 p93)
374: (up f201 f255)
375: (depart f255 p93)
376: (down f255 f25)
377: (board f25 p94)
378: (down f25 f8)
379: (depart f8 p94)
380: (up f8 f565)
381: (board f565 p95)
382: (down f565 f120)
383: (depart f120 p95)
384: (up f120 f370)
385: (board f370 p96)
386: (down f370 f187)
387: (depart f187 p96)
388: (down f187 f32)
389: (board f32 p97)
390: (up f32 f596)
391: (depart f596 p97)
392: (down f596 f489)
393: (board f489 p98)
394: (down f489 f170)
395: (depart f170 p98)
396: (up f170 f175)
397: (board f175 p99)
398: (up f175 f243)
399: (depart f243 p99)


