
Compact plan:
0: (up f0 f143)
1: (board f143 p0)
2: (down f143 f74)
3: (depart f74 p0)
4: (up f74 f175)
5: (board f175 p1)
6: (up f175 f177)
7: (depart f177 p1)
8: (down f177 f59)
9: (board f59 p2)
10: (down f59 f51)
11: (depart f51 p2)
12: (up f51 f109)
13: (board f109 p3)
14: (down f109 f27)
15: (depart f27 p3)
16: (up f27 f195)
17: (board f195 p4)
18: (down f195 f73)
19: (depart f73 p4)
20: (down f73 f26)
21: (board f26 p5)
22: (down f26 f16)
23: (depart f16 p5)
24: (up f16 f201)
25: (board f201 p6)
26: (up f201 f203)
27: (depart f203 p6)
28: (down f203 f95)
29: (board f95 p7)
30: (up f95 f199)
31: (depart f199 p7)
32: (down f199 f113)
33: (board f113 p8)
34: (up f113 f233)
35: (depart f233 p8)
36: (up f233 f269)
37: (board f269 p9)
38: (down f269 f267)
39: (depart f267 p9)
40: (down f267 f58)
41: (board f58 p10)
42: (up f58 f208)
43: (depart f208 p10)
44: (down f208 f123)
45: (board f123 p11)
46: (up f123 f125)
47: (depart f125 p11)
48: (down f125 f65)
49: (board f65 p12)
50: (up f65 f138)
51: (depart f138 p12)
52: (down f138 f103)
53: (board f103 p13)
54: (up f103 f298)
55: (depart f298 p13)
56: (down f298 f139)
57: (board f139 p14)
58: (up f139 f290)
59: (depart f290 p14)
60: (down f290 f104)
61: (board f104 p15)
62: (down f104 f11)
63: (depart f11 p15)
64: (up f11 f52)
65: (board f52 p16)
66: (down f52 f4)
67: (depart f4 p16)
68: (up f4 f102)
69: (board f102 p17)
70: (up f102 f227)
71: (depart f227 p17)
72: (down f227 f103)
73: (board f103 p18)
74: (down f103 f31)
75: (depart f31 p18)
76: (up f31 f210)
77: (board f210 p19)
78: (down f210 f207)
79: (depart f207 p19)
80: (up f207 f247)
81: (board f247 p20)
82: (down f247 f78)
83: (depart f78 p20)
84: (up f78 f149)
85: (board f149 p21)
86: (up f149 f226)
87: (depart f226 p21)
88: (down f226 f17)
89: (board f17 p22)
90: (up f17 f136)
91: (depart f136 p22)
92: (up f136 f231)
93: (board f231 p23)
94: (down f231 f114)
95: (depart f114 p23)
96: (down f114 f31)
97: (board f31 p24)
98: (up f31 f155)
99: (depart f155 p24)
100: (up f155 f157)
101: (board f157 p25)
102: (down f157 f108)
103: (depart f108 p25)
104: (down f108 f40)
105: (board f40 p26)
106: (up f40 f103)
107: (depart f103 p26)
108: (up f103 f217)
109: (board f217 p27)
110: (down f217 f104)
111: (depart f104 p27)
112: (up f104 f151)
113: (board f151 p28)
114: (up f151 f208)
115: (depart f208 p28)
116: (up f208 f295)
117: (board f295 p29)
118: (down f295 f25)
119: (depart f25 p29)
120: (up f25 f208)
121: (board f208 p30)
122: (down f208 f75)
123: (depart f75 p30)
124: (up f75 f83)
125: (board f83 p31)
126: (up f83 f278)
127: (depart f278 p31)
128: (down f278 f54)
129: (board f54 p32)
130: (up f54 f81)
131: (depart f81 p32)
132: (up f81 f219)
133: (board f219 p33)
134: (down f219 f36)
135: (depart f36 p33)
136: (up f36 f117)
137: (board f117 p34)
138: (down f117 f69)
139: (depart f69 p34)
140: (up f69 f113)
141: (board f113 p35)
142: (up f113 f211)
143: (depart f211 p35)
144: (up f211 f260)
145: (board f260 p36)
146: (down f260 f170)
147: (depart f170 p36)
148: (up f170 f236)
149: (board f236 p37)
150: (down f236 f144)
151: (depart f144 p37)
152: (up f144 f255)
153: (board f255 p38)
154: (down f255 f58)
155: (depart f58 p38)
156: (up f58 f234)
157: (board f234 p39)
158: (down f234 f153)
159: (depart f153 p39)
160: (down f153 f79)
161: (board f79 p40)
162: (down f79 f37)
163: (depart f37 p40)
164: (down f37 f1)
165: (board f1 p41)
166: (up f1 f232)
167: (depart f232 p41)
168: (up f232 f275)
169: (board f275 p42)
170: (down f275 f42)
171: (depart f42 p42)
172: (up f42 f54)
173: (board f54 p43)
174: (up f54 f254)
175: (depart f254 p43)
176: (down f254 f26)
177: (board f26 p44)
178: (up f26 f53)
179: (depart f53 p44)
180: (up f53 f99)
181: (board f99 p45)
182: (up f99 f278)
183: (depart f278 p45)
184: (down f278 f29)
185: (board f29 p46)
186: (up f29 f93)
187: (depart f93 p46)
188: (down f93 f18)
189: (board f18 p47)
190: (up f18 f109)
191: (depart f109 p47)
192: (up f109 f210)
193: (board f210 p48)
194: (down f210 f55)
195: (depart f55 p48)
196: (up f55 f268)
197: (board f268 p49)
198: (down f268 f85)
199: (depart f85 p49)
200: (up f85 f179)
201: (board f179 p50)
202: (down f179 f107)
203: (depart f107 p50)
204: (up f107 f151)
205: (board f151 p51)
206: (up f151 f203)
207: (depart f203 p51)
208: (down f203 f119)
209: (board f119 p52)
210: (up f119 f264)
211: (depart f264 p52)
212: (down f264 f149)
213: (board f149 p53)
214: (down f149 f10)
215: (depart f10 p53)
216: (up f10 f184)
217: (board f184 p54)
218: (down f184 f158)
219: (depart f158 p54)
220: (down f158 f139)
221: (board f139 p55)
222: (down f139 f28)
223: (depart f28 p55)
224: (down f28 f24)
225: (board f24 p56)
226: (up f24 f188)
227: (depart f188 p56)
228: (down f188 f149)
229: (board f149 p57)
230: (down f149 f36)
231: (depart f36 p57)
232: (up f36 f90)
233: (board f90 p58)
234: (up f90 f171)
235: (depart f171 p58)
236: (up f171 f203)
237: (board f203 p59)
238: (down f203 f34)
239: (depart f34 p59)
240: (up f34 f172)
241: (board f172 p60)
242: (down f172 f112)
243: (depart f112 p60)
244: (up f112 f280)
245: (board f280 p61)
246: (down f280 f247)
247: (depart f247 p61)
248: (down f247 f153)
249: (board f153 p62)
250: (up f153 f200)
251: (depart f200 p62)
252: (down f200 f53)
253: (board f53 p63)
254: (up f53 f189)
255: (depart f189 p63)
256: (down f189 f33)
257: (board f33 p64)
258: (up f33 f296)
259: (depart f296 p64)
260: (down f296 f237)
261: (board f237 p65)
262: (down f237 f98)
263: (depart f98 p65)
264: (up f98 f234)
265: (board f234 p66)
266: (down f234 f65)
267: (depart f65 p66)
268: (up f65 f279)
269: (board f279 p67)
270: (down f279 f136)
271: (depart f136 p67)
272: (down f136 f33)
273: (board f33 p68)
274: (up f33 f114)
275: (depart f114 p68)
276: (up f114 f183)
277: (board f183 p69)
278: (down f183 f5)
279: (depart f5 p69)
280: (up f5 f160)
281: (board f160 p70)
282: (down f160 f142)
283: (depart f142 p70)
284: (up f142 f245)
285: (board f245 p71)
286: (down f245 f214)
287: (depart f214 p71)
288: (down f214 f21)
289: (board f21 p72)
290: (up f21 f47)
291: (depart f47 p72)
292: (up f47 f269)
293: (board f269 p73)
294: (up f269 f277)
295: (depart f277 p73)
296: (down f277 f58)
297: (board f58 p74)
298: (up f58 f253)
299: (depart f253 p74)


