
Compact plan:
0: (up f0 f43)
1: (board f43 p0)
2: (down f43 f0)
3: (depart f0 p0)
4: (up f0 f4)
5: (board f4 p1)
6: (up f4 f42)
7: (depart f42 p1)
8: (down f42 f9)
9: (board f9 p2)
10: (up f9 f30)
11: (depart f30 p2)
12: (up f30 f38)
13: (board f38 p3)
14: (down f38 f14)
15: (depart f14 p3)
16: (up f14 f31)
17: (board f31 p4)
18: (up f31 f39)
19: (depart f39 p4)
20: (down f39 f26)
21: (board f26 p5)
22: (down f26 f11)
23: (depart f11 p5)
24: (up f11 f31)
25: (board f31 p6)
26: (down f31 f2)
27: (depart f2 p6)
28: (up f2 f18)
29: (board f18 p7)
30: (up f18 f30)
31: (depart f30 p7)
32: (down f30 f25)
33: (board f25 p8)
34: (down f25 f15)
35: (depart f15 p8)
36: (down f15 f12)
37: (board f12 p9)
38: (up f12 f24)
39: (depart f24 p9)
40: (up f24 f25)
41: (board f25 p10)
42: (up f25 f32)
43: (depart f32 p10)
44: (up f32 f40)
45: (board f40 p11)
46: (down f40 f0)
47: (depart f0 p11)
48: (up f0 f17)
49: (board f17 p12)
50: (down f17 f3)
51: (depart f3 p12)
52: (up f3 f38)
53: (board f38 p13)
54: (down f38 f30)
55: (depart f30 p13)
56: (up f30 f39)
57: (board f39 p14)
58: (down f39 f19)
59: (depart f19 p14)
60: (up f19 f30)
61: (board f30 p15)
62: (down f30 f3)
63: (depart f3 p15)
64: (up f3 f19)
65: (board f19 p16)
66: (up f19 f34)
67: (depart f34 p16)
68: (down f34 f13)
69: (board f13 p17)
70: (up f13 f45)
71: (depart f45 p17)
72: (down f45 f17)
73: (board f17 p18)
74: (down f17 f3)
75: (depart f3 p18)
76: (up f3 f11)
77: (board f11 p19)
78: (up f11 f16)
79: (depart f16 p19)
80: (up f16 f42)
81: (board f42 p20)
82: (down f42 f5)
83: (depart f5 p20)
84: (up f5 f44)
85: (board f44 p21)
86: (down f44 f42)
87: (depart f42 p21)
88: (down f42 f7)
89: (board f7 p22)
90: (up f7 f14)
91: (depart f14 p22)
92: (up f14 f24)
93: (board f24 p23)
94: (up f24 f32)
95: (depart f32 p23)


