
Compact plan:
0: (up f0 f13)
1: (board f13 p0)
2: (up f13 f22)
3: (depart f22 p0)
4: (down f22 f11)
5: (board f11 p1)
6: (up f11 f17)
7: (depart f17 p1)
8: (down f17 f1)
9: (board f1 p2)
10: (up f1 f12)
11: (depart f12 p2)
12: (up f12 f16)
13: (board f16 p3)
14: (down f16 f1)
15: (depart f1 p3)
16: (up f1 f7)
17: (board f7 p4)
18: (down f7 f2)
19: (depart f2 p4)
20: (up f2 f3)
21: (board f3 p5)
22: (down f3 f0)
23: (depart f0 p5)
24: (up f0 f17)
25: (board f17 p6)
26: (up f17 f25)
27: (depart f25 p6)
28: (down f25 f14)
29: (board f14 p7)
30: (up f14 f22)
31: (depart f22 p7)
32: (down f22 f10)
33: (board f10 p8)
34: (up f10 f24)
35: (depart f24 p8)
36: (down f24 f7)
37: (board f7 p9)
38: (up f7 f8)
39: (depart f8 p9)
40: (down f8 f3)
41: (board f3 p10)
42: (up f3 f16)
43: (depart f16 p10)
44: (up f16 f18)
45: (board f18 p11)
46: (down f18 f2)
47: (depart f2 p11)
48: (up f2 f3)
49: (board f3 p12)
50: (up f3 f23)
51: (depart f23 p12)


