
Compact plan:
0: (unstack b15 b7)
1: (put-down b15)
2: (unstack b7 b1)
3: (put-down b7)
4: (unstack b1 b14)
5: (put-down b1)
6: (pick-up b14)
7: (stack b14 b7)
8: (pick-up b15)
9: (stack b15 b14)
10: (unstack b5 b11)
11: (stack b5 b15)
12: (pick-up b1)
13: (stack b1 b5)
14: (unstack b3 b4)
15: (put-down b3)
16: (unstack b4 b2)
17: (put-down b4)
18: (unstack b2 b6)
19: (put-down b2)
20: (unstack b6 b9)
21: (put-down b6)
22: (unstack b9 b8)
23: (put-down b9)
24: (pick-up b8)
25: (stack b8 b1)
26: (unstack b12 b13)
27: (put-down b12)
28: (unstack b13 b10)
29: (put-down b13)
30: (pick-up b2)
31: (stack b2 b13)
32: (pick-up b9)
33: (stack b9 b2)
34: (pick-up b12)
35: (stack b12 b6)
36: (pick-up b3)
37: (stack b3 b12)
38: (pick-up b4)
39: (stack b4 b3)
40: (pick-up b11)
41: (stack b11 b4)
42: (pick-up b10)
43: (stack b10 b11)


