
Compact plan:
0: (up f0 f91)
1: (board f91 p0)
2: (down f91 f58)
3: (depart f58 p0)
4: (down f58 f39)
5: (board f39 p1)
6: (up f39 f87)
7: (depart f87 p1)
8: (up f87 f113)
9: (board f113 p2)
10: (up f113 f124)
11: (depart f124 p2)
12: (down f124 f117)
13: (board f117 p3)
14: (down f117 f66)
15: (depart f66 p3)
16: (down f66 f18)
17: (board f18 p4)
18: (up f18 f44)
19: (depart f44 p4)
20: (down f44 f7)
21: (board f7 p5)
22: (up f7 f115)
23: (depart f115 p5)
24: (up f115 f184)
25: (board f184 p6)
26: (down f184 f33)
27: (depart f33 p6)
28: (down f33 f2)
29: (board f2 p7)
30: (up f2 f66)
31: (depart f66 p7)
32: (down f66 f20)
33: (board f20 p8)
34: (up f20 f157)
35: (depart f157 p8)
36: (down f157 f25)
37: (board f25 p9)
38: (down f25 f2)
39: (depart f2 p9)
40: (up f2 f38)
41: (board f38 p10)
42: (up f38 f175)
43: (depart f175 p10)
44: (down f175 f10)
45: (board f10 p11)
46: (up f10 f198)
47: (depart f198 p11)
48: (down f198 f32)
49: (board f32 p12)
50: (up f32 f49)
51: (depart f49 p12)
52: (up f49 f162)
53: (board f162 p13)
54: (down f162 f34)
55: (depart f34 p13)
56: (up f34 f186)
57: (board f186 p14)
58: (down f186 f149)
59: (depart f149 p14)
60: (up f149 f172)
61: (board f172 p15)
62: (down f172 f62)
63: (depart f62 p15)
64: (up f62 f153)
65: (board f153 p16)
66: (down f153 f63)
67: (depart f63 p16)
68: (up f63 f136)
69: (board f136 p17)
70: (down f136 f86)
71: (depart f86 p17)
72: (down f86 f49)
73: (board f49 p18)
74: (up f49 f198)
75: (depart f198 p18)
76: (down f198 f22)
77: (board f22 p19)
78: (up f22 f120)
79: (depart f120 p19)
80: (down f120 f20)
81: (board f20 p20)
82: (up f20 f171)
83: (depart f171 p20)
84: (down f171 f62)
85: (board f62 p21)
86: (up f62 f99)
87: (depart f99 p21)
88: (down f99 f39)
89: (board f39 p22)
90: (down f39 f27)
91: (depart f27 p22)
92: (up f27 f180)
93: (board f180 p23)
94: (down f180 f95)
95: (depart f95 p23)
96: (up f95 f151)
97: (board f151 p24)
98: (down f151 f5)
99: (depart f5 p24)
100: (up f5 f185)
101: (board f185 p25)
102: (down f185 f68)
103: (depart f68 p25)
104: (down f68 f10)
105: (board f10 p26)
106: (up f10 f70)
107: (depart f70 p26)
108: (down f70 f56)
109: (board f56 p27)
110: (up f56 f159)
111: (depart f159 p27)
112: (down f159 f63)
113: (board f63 p28)
114: (up f63 f168)
115: (depart f168 p28)
116: (down f168 f156)
117: (board f156 p29)
118: (down f156 f15)
119: (depart f15 p29)
120: (up f15 f85)
121: (board f85 p30)
122: (up f85 f123)
123: (depart f123 p30)
124: (down f123 f56)
125: (board f56 p31)
126: (up f56 f103)
127: (depart f103 p31)
128: (down f103 f42)
129: (board f42 p32)
130: (up f42 f77)
131: (depart f77 p32)
132: (up f77 f85)
133: (board f85 p33)
134: (up f85 f140)
135: (depart f140 p33)
136: (down f140 f59)
137: (board f59 p34)
138: (up f59 f189)
139: (depart f189 p34)
140: (down f189 f62)
141: (board f62 p35)
142: (down f62 f2)
143: (depart f2 p35)
144: (up f2 f70)
145: (board f70 p36)
146: (down f70 f29)
147: (depart f29 p36)
148: (up f29 f68)
149: (board f68 p37)
150: (up f68 f135)
151: (depart f135 p37)
152: (down f135 f30)
153: (board f30 p38)
154: (up f30 f150)
155: (depart f150 p38)
156: (up f150 f184)
157: (board f184 p39)
158: (down f184 f84)
159: (depart f84 p39)
160: (down f84 f25)
161: (board f25 p40)
162: (up f25 f192)
163: (depart f192 p40)
164: (down f192 f9)
165: (board f9 p41)
166: (up f9 f170)
167: (depart f170 p41)
168: (down f170 f88)
169: (board f88 p42)
170: (up f88 f100)
171: (depart f100 p42)
172: (up f100 f128)
173: (board f128 p43)
174: (down f128 f10)
175: (depart f10 p43)
176: (up f10 f80)
177: (board f80 p44)
178: (up f80 f189)
179: (depart f189 p44)
180: (down f189 f126)
181: (board f126 p45)
182: (down f126 f93)
183: (depart f93 p45)
184: (up f93 f179)
185: (board f179 p46)
186: (down f179 f75)
187: (depart f75 p46)
188: (down f75 f9)
189: (board f9 p47)
190: (up f9 f162)
191: (depart f162 p47)
192: (down f162 f129)
193: (board f129 p48)
194: (down f129 f84)
195: (depart f84 p48)
196: (down f84 f62)
197: (board f62 p49)
198: (up f62 f161)
199: (depart f161 p49)
200: (down f161 f69)
201: (board f69 p50)
202: (down f69 f61)
203: (depart f61 p50)
204: (down f61 f3)
205: (board f3 p51)
206: (up f3 f169)
207: (depart f169 p51)
208: (down f169 f6)
209: (board f6 p52)
210: (up f6 f63)
211: (depart f63 p52)
212: (up f63 f149)
213: (board f149 p53)
214: (down f149 f34)
215: (depart f34 p53)
216: (up f34 f185)
217: (board f185 p54)
218: (down f185 f58)
219: (depart f58 p54)
220: (down f58 f26)
221: (board f26 p55)
222: (down f26 f2)
223: (depart f2 p55)
224: (up f2 f145)
225: (board f145 p56)
226: (up f145 f157)
227: (depart f157 p56)
228: (down f157 f88)
229: (board f88 p57)
230: (up f88 f187)
231: (depart f187 p57)
232: (down f187 f120)
233: (board f120 p58)
234: (down f120 f29)
235: (depart f29 p58)
236: (up f29 f85)
237: (board f85 p59)
238: (down f85 f52)
239: (depart f52 p59)
240: (up f52 f100)
241: (board f100 p60)
242: (down f100 f97)
243: (depart f97 p60)
244: (down f97 f72)
245: (board f72 p61)
246: (up f72 f182)
247: (depart f182 p61)
248: (down f182 f99)
249: (board f99 p62)
250: (up f99 f154)
251: (depart f154 p62)
252: (down f154 f41)
253: (board f41 p63)
254: (down f41 f30)
255: (depart f30 p63)
256: (up f30 f85)
257: (board f85 p64)
258: (down f85 f7)
259: (depart f7 p64)
260: (up f7 f142)
261: (board f142 p65)
262: (down f142 f118)
263: (depart f118 p65)
264: (up f118 f161)
265: (board f161 p66)
266: (down f161 f47)
267: (depart f47 p66)
268: (up f47 f149)
269: (board f149 p67)
270: (up f149 f183)
271: (depart f183 p67)
272: (down f183 f84)
273: (board f84 p68)
274: (up f84 f120)
275: (depart f120 p68)
276: (up f120 f130)
277: (board f130 p69)
278: (up f130 f163)
279: (depart f163 p69)
280: (up f163 f169)
281: (board f169 p70)
282: (down f169 f82)
283: (depart f82 p70)
284: (up f82 f188)
285: (board f188 p71)
286: (down f188 f78)
287: (depart f78 p71)
288: (up f78 f162)
289: (board f162 p72)
290: (up f162 f172)
291: (depart f172 p72)
292: (down f172 f10)
293: (board f10 p73)
294: (up f10 f74)
295: (depart f74 p73)
296: (down f74 f11)
297: (board f11 p74)
298: (up f11 f99)
299: (depart f99 p74)


