Rover 01 T-REX -i {-P,-b8192}
Rover 02 T-REX -i {-P,-b8192}
Rover 03 T-REX -i {-P,-b8192}
Rover 04 T-REX -i {-P,-b8192}
Rover 05 T-REX -i {-P,-b8192}
Rover 06 T-REX -i {-P,-b8192}
Rover 07 T-REX -i {-P,-b8192}
Rover 08 T-REX -i {-P,-b8192}
Rover 09 T-REX -i {-P,-b8192}
Rover 10 T-REX -i {-P,-b8192}
Rover 11 T-REX -i {-P,-b8192}
Rover 12 T-REX -i {-P,-b8192}
Rover 13 T-REX -i {-P,-b8192}
Rover 14 T-REX -i {-P,-b8192}
Rover 15 T-REX -i {-P,-b8192}
Rover 16 T-REX -i {-P,-b8192}
Rover 17 T-REX -i {-P,-b8192}
Rover 18 T-REX -i {-P,-b8192}
Rover 19 T-REX -i {-P,-b8192}
Rover 20 T-REX -i {-P,-b8192}
