
Compact plan:
0: (up f0 f11)
1: (board f11 p0)
2: (down f11 f0)
3: (depart f0 p0)
4: (up f0 f13)
5: (board f13 p1)
6: (down f13 f3)
7: (depart f3 p1)
8: (up f3 f6)
9: (board f6 p2)
10: (down f6 f5)
11: (depart f5 p2)
12: (up f5 f6)
13: (board f6 p3)
14: (up f6 f15)
15: (depart f15 p3)
16: (down f15 f14)
17: (board f14 p4)
18: (down f14 f7)
19: (depart f7 p4)
20: (down f7 f6)
21: (board f6 p5)
22: (up f6 f16)
23: (depart f16 p5)
24: (down f16 f12)
25: (board f12 p6)
26: (down f12 f4)
27: (depart f4 p6)
28: (down f4 f1)
29: (board f1 p7)
30: (up f1 f8)
31: (depart f8 p7)
32: (down f8 f1)
33: (board f1 p8)
34: (up f1 f8)
35: (depart f8 p8)


