
Compact plan:
0: (up f0 f7)
1: (board f7 p0)
2: (up f7 f22)
3: (depart f22 p0)
4: (down f22 f9)
5: (board f9 p1)
6: (up f9 f19)
7: (depart f19 p1)
8: (down f19 f17)
9: (board f17 p2)
10: (down f17 f7)
11: (depart f7 p2)
12: (up f7 f10)
13: (board f10 p3)
14: (up f10 f12)
15: (depart f12 p3)
16: (down f12 f9)
17: (board f9 p4)
18: (up f9 f13)
19: (depart f13 p4)
20: (down f13 f2)
21: (board f2 p5)
22: (up f2 f19)
23: (depart f19 p5)
24: (down f19 f2)
25: (board f2 p6)
26: (up f2 f19)
27: (depart f19 p6)
28: (down f19 f11)
29: (board f11 p7)
30: (up f11 f22)
31: (depart f22 p7)
32: (down f22 f12)
33: (board f12 p8)
34: (up f12 f18)
35: (depart f18 p8)
36: (down f18 f4)
37: (board f4 p9)
38: (up f4 f16)
39: (depart f16 p9)
40: (down f16 f11)
41: (board f11 p10)
42: (down f11 f8)
43: (depart f8 p10)
44: (up f8 f15)
45: (board f15 p11)
46: (up f15 f21)
47: (depart f21 p11)


