
Compact plan:
0: (unstack b6 b15)
1: (put-down b6)
2: (unstack b15 b13)
3: (put-down b15)
4: (unstack b13 b17)
5: (put-down b13)
6: (unstack b17 b19)
7: (put-down b17)
8: (unstack b19 b8)
9: (put-down b19)
10: (unstack b8 b7)
11: (put-down b8)
12: (unstack b7 b16)
13: (put-down b7)
14: (unstack b16 b31)
15: (stack b16 b23)
16: (unstack b21 b27)
17: (put-down b21)
18: (unstack b27 b22)
19: (put-down b27)
20: (unstack b22 b9)
21: (stack b22 b16)
22: (unstack b9 b14)
23: (put-down b9)
24: (unstack b14 b11)
25: (put-down b14)
26: (unstack b11 b28)
27: (put-down b11)
28: (unstack b28 b26)
29: (put-down b28)
30: (unstack b26 b24)
31: (put-down b26)
32: (unstack b24 b10)
33: (put-down b24)
34: (unstack b10 b25)
35: (put-down b10)
36: (pick-up b21)
37: (stack b21 b25)
38: (unstack b22 b16)
39: (put-down b22)
40: (unstack b16 b23)
41: (put-down b16)
42: (unstack b23 b20)
43: (put-down b23)
44: (pick-up b7)
45: (stack b7 b20)
46: (unstack b21 b25)
47: (put-down b21)
48: (unstack b25 b18)
49: (put-down b25)
50: (unstack b18 b12)
51: (put-down b18)
52: (unstack b12 b3)
53: (put-down b12)
54: (pick-up b15)
55: (stack b15 b12)
56: (pick-up b23)
57: (stack b23 b15)
58: (pick-up b16)
59: (stack b16 b23)
60: (pick-up b22)
61: (stack b22 b16)
62: (pick-up b25)
63: (stack b25 b22)
64: (pick-up b21)
65: (stack b21 b25)
66: (pick-up b17)
67: (stack b17 b21)
68: (unstack b31 b29)
69: (stack b31 b17)
70: (unstack b7 b20)
71: (put-down b7)
72: (unstack b20 b30)
73: (stack b20 b31)
74: (pick-up b7)
75: (stack b7 b20)
76: (unstack b3 b4)
77: (stack b3 b7)
78: (pick-up b28)
79: (stack b28 b3)
80: (pick-up b27)
81: (stack b27 b28)
82: (unstack b29 b5)
83: (stack b29 b27)
84: (unstack b4 b1)
85: (stack b4 b29)
86: (pick-up b18)
87: (stack b18 b10)
88: (pick-up b8)
89: (stack b8 b18)
90: (pick-up b14)
91: (stack b14 b8)
92: (pick-up b11)
93: (stack b11 b13)
94: (pick-up b24)
95: (stack b24 b11)
96: (pick-up b19)
97: (stack b19 b24)
98: (pick-up b26)
99: (stack b26 b2)
100: (pick-up b30)
101: (stack b30 b5)


