
Compact plan:
0: (up f0 f292)
1: (board f292 p0)
2: (down f292 f260)
3: (depart f260 p0)
4: (down f260 f140)
5: (board f140 p1)
6: (up f140 f424)
7: (depart f424 p1)
8: (down f424 f25)
9: (board f25 p2)
10: (up f25 f487)
11: (depart f487 p2)
12: (down f487 f107)
13: (board f107 p3)
14: (down f107 f12)
15: (depart f12 p3)
16: (up f12 f26)
17: (board f26 p4)
18: (up f26 f454)
19: (depart f454 p4)
20: (down f454 f362)
21: (board f362 p5)
22: (down f362 f161)
23: (depart f161 p5)
24: (up f161 f447)
25: (board f447 p6)
26: (down f447 f268)
27: (depart f268 p6)
28: (down f268 f81)
29: (board f81 p7)
30: (up f81 f352)
31: (depart f352 p7)
32: (down f352 f312)
33: (board f312 p8)
34: (down f312 f289)
35: (depart f289 p8)
36: (down f289 f236)
37: (board f236 p9)
38: (up f236 f385)
39: (depart f385 p9)
40: (down f385 f108)
41: (board f108 p10)
42: (up f108 f449)
43: (depart f449 p10)
44: (down f449 f97)
45: (board f97 p11)
46: (down f97 f44)
47: (depart f44 p11)
48: (up f44 f55)
49: (board f55 p12)
50: (up f55 f355)
51: (depart f355 p12)
52: (down f355 f4)
53: (board f4 p13)
54: (up f4 f198)
55: (depart f198 p13)
56: (up f198 f363)
57: (board f363 p14)
58: (up f363 f452)
59: (depart f452 p14)
60: (down f452 f434)
61: (board f434 p15)
62: (up f434 f493)
63: (depart f493 p15)
64: (down f493 f247)
65: (board f247 p16)
66: (up f247 f427)
67: (depart f427 p16)
68: (down f427 f35)
69: (board f35 p17)
70: (up f35 f310)
71: (depart f310 p17)
72: (up f310 f420)
73: (board f420 p18)
74: (up f420 f433)
75: (depart f433 p18)
76: (down f433 f338)
77: (board f338 p19)
78: (down f338 f237)
79: (depart f237 p19)
80: (up f237 f374)
81: (board f374 p20)
82: (up f374 f440)
83: (depart f440 p20)
84: (down f440 f418)
85: (board f418 p21)
86: (down f418 f296)
87: (depart f296 p21)
88: (down f296 f0)
89: (board f0 p22)
90: (up f0 f23)
91: (depart f23 p22)
92: (up f23 f420)
93: (board f420 p23)
94: (up f420 f422)
95: (depart f422 p23)
96: (down f422 f280)
97: (board f280 p24)
98: (up f280 f385)
99: (depart f385 p24)
100: (down f385 f337)
101: (board f337 p25)
102: (down f337 f12)
103: (depart f12 p25)
104: (up f12 f371)
105: (board f371 p26)
106: (up f371 f395)
107: (depart f395 p26)
108: (down f395 f210)
109: (board f210 p27)
110: (up f210 f385)
111: (depart f385 p27)
112: (up f385 f430)
113: (board f430 p28)
114: (down f430 f132)
115: (depart f132 p28)
116: (up f132 f355)
117: (board f355 p29)
118: (down f355 f252)
119: (depart f252 p29)
120: (up f252 f313)
121: (board f313 p30)
122: (up f313 f436)
123: (depart f436 p30)
124: (down f436 f266)
125: (board f266 p31)
126: (down f266 f10)
127: (depart f10 p31)
128: (up f10 f168)
129: (board f168 p32)
130: (up f168 f250)
131: (depart f250 p32)
132: (up f250 f278)
133: (board f278 p33)
134: (down f278 f23)
135: (depart f23 p33)
136: (up f23 f31)
137: (board f31 p34)
138: (up f31 f482)
139: (depart f482 p34)
140: (down f482 f63)
141: (board f63 p35)
142: (up f63 f489)
143: (depart f489 p35)
144: (down f489 f22)
145: (board f22 p36)
146: (up f22 f188)
147: (depart f188 p36)
148: (up f188 f394)
149: (board f394 p37)
150: (up f394 f481)
151: (depart f481 p37)
152: (down f481 f110)
153: (board f110 p38)
154: (down f110 f16)
155: (depart f16 p38)
156: (up f16 f288)
157: (board f288 p39)
158: (down f288 f281)
159: (depart f281 p39)
160: (down f281 f111)
161: (board f111 p40)
162: (up f111 f488)
163: (depart f488 p40)
164: (down f488 f157)
165: (board f157 p41)
166: (up f157 f394)
167: (depart f394 p41)
168: (down f394 f115)
169: (board f115 p42)
170: (up f115 f471)
171: (depart f471 p42)
172: (down f471 f349)
173: (board f349 p43)
174: (down f349 f2)
175: (depart f2 p43)
176: (up f2 f362)
177: (board f362 p44)
178: (down f362 f18)
179: (depart f18 p44)
180: (down f18 f13)
181: (board f13 p45)
182: (up f13 f416)
183: (depart f416 p45)
184: (down f416 f400)
185: (board f400 p46)
186: (down f400 f171)
187: (depart f171 p46)
188: (down f171 f129)
189: (board f129 p47)
190: (down f129 f6)
191: (depart f6 p47)
192: (up f6 f46)
193: (board f46 p48)
194: (up f46 f485)
195: (depart f485 p48)
196: (down f485 f352)
197: (board f352 p49)
198: (up f352 f386)
199: (depart f386 p49)
200: (down f386 f354)
201: (board f354 p50)
202: (down f354 f119)
203: (depart f119 p50)
204: (up f119 f290)
205: (board f290 p51)
206: (down f290 f163)
207: (depart f163 p51)
208: (down f163 f106)
209: (board f106 p52)
210: (up f106 f120)
211: (depart f120 p52)
212: (up f120 f216)
213: (board f216 p53)
214: (up f216 f338)
215: (depart f338 p53)
216: (down f338 f231)
217: (board f231 p54)
218: (up f231 f303)
219: (depart f303 p54)
220: (up f303 f456)
221: (board f456 p55)
222: (down f456 f22)
223: (depart f22 p55)
224: (up f22 f264)
225: (board f264 p56)
226: (down f264 f18)
227: (depart f18 p56)
228: (up f18 f407)
229: (board f407 p57)
230: (down f407 f318)
231: (depart f318 p57)
232: (up f318 f337)
233: (board f337 p58)
234: (up f337 f495)
235: (depart f495 p58)
236: (down f495 f79)
237: (board f79 p59)
238: (up f79 f126)
239: (depart f126 p59)
240: (up f126 f387)
241: (board f387 p60)
242: (down f387 f270)
243: (depart f270 p60)
244: (down f270 f267)
245: (board f267 p61)
246: (up f267 f287)
247: (depart f287 p61)
248: (down f287 f278)
249: (board f278 p62)
250: (down f278 f97)
251: (depart f97 p62)
252: (up f97 f112)
253: (board f112 p63)
254: (up f112 f259)
255: (depart f259 p63)
256: (down f259 f95)
257: (board f95 p64)
258: (up f95 f159)
259: (depart f159 p64)
260: (down f159 f1)
261: (board f1 p65)
262: (up f1 f101)
263: (depart f101 p65)
264: (down f101 f83)
265: (board f83 p66)
266: (up f83 f162)
267: (depart f162 p66)
268: (up f162 f294)
269: (board f294 p67)
270: (up f294 f482)
271: (depart f482 p67)
272: (down f482 f199)
273: (board f199 p68)
274: (up f199 f350)
275: (depart f350 p68)
276: (down f350 f133)
277: (board f133 p69)
278: (down f133 f17)
279: (depart f17 p69)
280: (up f17 f249)
281: (board f249 p70)
282: (up f249 f260)
283: (depart f260 p70)
284: (up f260 f428)
285: (board f428 p71)
286: (down f428 f427)
287: (depart f427 p71)
288: (down f427 f375)
289: (board f375 p72)
290: (down f375 f314)
291: (depart f314 p72)
292: (down f314 f13)
293: (board f13 p73)
294: (down f13 f3)
295: (depart f3 p73)
296: (up f3 f186)
297: (board f186 p74)
298: (up f186 f263)
299: (depart f263 p74)


