
Compact plan:
0: (up f0 f38)
1: (board f38 p0)
2: (up f38 f41)
3: (depart f41 p0)
4: (down f41 f35)
5: (board f35 p1)
6: (up f35 f38)
7: (depart f38 p1)
8: (up f38 f52)
9: (board f52 p2)
10: (down f52 f37)
11: (depart f37 p2)
12: (down f37 f1)
13: (board f1 p3)
14: (up f1 f46)
15: (depart f46 p3)
16: (down f46 f31)
17: (board f31 p4)
18: (down f31 f25)
19: (depart f25 p4)
20: (down f25 f18)
21: (board f18 p5)
22: (up f18 f22)
23: (depart f22 p5)
24: (up f22 f35)
25: (board f35 p6)
26: (down f35 f17)
27: (depart f17 p6)
28: (up f17 f36)
29: (board f36 p7)
30: (up f36 f43)
31: (depart f43 p7)
32: (down f43 f10)
33: (board f10 p8)
34: (up f10 f24)
35: (depart f24 p8)
36: (up f24 f48)
37: (board f48 p9)
38: (down f48 f33)
39: (depart f33 p9)
40: (down f33 f10)
41: (board f10 p10)
42: (up f10 f29)
43: (depart f29 p10)
44: (up f29 f46)
45: (board f46 p11)
46: (up f46 f47)
47: (depart f47 p11)
48: (down f47 f0)
49: (board f0 p12)
50: (up f0 f7)
51: (depart f7 p12)
52: (board f7 p13)
53: (up f7 f9)
54: (depart f9 p13)
55: (up f9 f53)
56: (board f53 p14)
57: (down f53 f20)
58: (depart f20 p14)
59: (up f20 f38)
60: (board f38 p15)
61: (down f38 f23)
62: (depart f23 p15)
63: (down f23 f19)
64: (board f19 p16)
65: (up f19 f38)
66: (depart f38 p16)
67: (down f38 f21)
68: (board f21 p17)
69: (down f21 f2)
70: (depart f2 p17)
71: (board f2 p18)
72: (up f2 f30)
73: (depart f30 p18)
74: (up f30 f49)
75: (board f49 p19)
76: (down f49 f27)
77: (depart f27 p19)
78: (up f27 f48)
79: (board f48 p20)
80: (down f48 f17)
81: (depart f17 p20)
82: (up f17 f24)
83: (board f24 p21)
84: (up f24 f28)
85: (depart f28 p21)
86: (down f28 f15)
87: (board f15 p22)
88: (down f15 f14)
89: (depart f14 p22)
90: (up f14 f38)
91: (board f38 p23)
92: (up f38 f40)
93: (depart f40 p23)
94: (down f40 f8)
95: (board f8 p24)
96: (up f8 f33)
97: (depart f33 p24)
98: (down f33 f12)
99: (board f12 p25)
100: (up f12 f53)
101: (depart f53 p25)
102: (down f53 f25)
103: (board f25 p26)
104: (down f25 f22)
105: (depart f22 p26)


