
Compact plan:
0: (up f0 f32)
1: (board f32 p0)
2: (up f32 f61)
3: (depart f61 p0)
4: (down f61 f45)
5: (board f45 p1)
6: (down f45 f15)
7: (depart f15 p1)
8: (up f15 f56)
9: (board f56 p2)
10: (down f56 f40)
11: (depart f40 p2)
12: (up f40 f63)
13: (board f63 p3)
14: (up f63 f79)
15: (depart f79 p3)
16: (down f79 f26)
17: (board f26 p4)
18: (up f26 f76)
19: (depart f76 p4)
20: (down f76 f19)
21: (board f19 p5)
22: (up f19 f76)
23: (depart f76 p5)
24: (down f76 f48)
25: (board f48 p6)
26: (down f48 f2)
27: (depart f2 p6)
28: (up f2 f24)
29: (board f24 p7)
30: (up f24 f88)
31: (depart f88 p7)
32: (down f88 f79)
33: (board f79 p8)
34: (down f79 f53)
35: (depart f53 p8)
36: (up f53 f63)
37: (board f63 p9)
38: (down f63 f8)
39: (depart f8 p9)
40: (up f8 f71)
41: (board f71 p10)
42: (down f71 f2)
43: (depart f2 p10)
44: (up f2 f95)
45: (board f95 p11)
46: (down f95 f62)
47: (depart f62 p11)
48: (up f62 f70)
49: (board f70 p12)
50: (down f70 f45)
51: (depart f45 p12)
52: (up f45 f63)
53: (board f63 p13)
54: (down f63 f31)
55: (depart f31 p13)
56: (up f31 f87)
57: (board f87 p14)
58: (down f87 f52)
59: (depart f52 p14)
60: (down f52 f42)
61: (board f42 p15)
62: (up f42 f45)
63: (depart f45 p15)
64: (up f45 f94)
65: (board f94 p16)
66: (down f94 f88)
67: (depart f88 p16)
68: (down f88 f44)
69: (board f44 p17)
70: (up f44 f98)
71: (depart f98 p17)
72: (down f98 f33)
73: (board f33 p18)
74: (down f33 f18)
75: (depart f18 p18)
76: (down f18 f4)
77: (board f4 p19)
78: (up f4 f73)
79: (depart f73 p19)
80: (up f73 f95)
81: (board f95 p20)
82: (down f95 f57)
83: (depart f57 p20)
84: (up f57 f87)
85: (board f87 p21)
86: (down f87 f73)
87: (depart f73 p21)
88: (down f73 f62)
89: (board f62 p22)
90: (down f62 f39)
91: (depart f39 p22)
92: (up f39 f81)
93: (board f81 p23)
94: (down f81 f13)
95: (depart f13 p23)
96: (up f13 f28)
97: (board f28 p24)
98: (down f28 f11)
99: (depart f11 p24)
100: (up f11 f74)
101: (board f74 p25)
102: (down f74 f20)
103: (depart f20 p25)
104: (up f20 f80)
105: (board f80 p26)
106: (down f80 f40)
107: (depart f40 p26)
108: (up f40 f50)
109: (board f50 p27)
110: (down f50 f41)
111: (depart f41 p27)
112: (up f41 f62)
113: (board f62 p28)
114: (up f62 f83)
115: (depart f83 p28)
116: (up f83 f97)
117: (board f97 p29)
118: (down f97 f37)
119: (depart f37 p29)
120: (up f37 f64)
121: (board f64 p30)
122: (down f64 f18)
123: (depart f18 p30)
124: (down f18 f7)
125: (board f7 p31)
126: (up f7 f36)
127: (depart f36 p31)
128: (up f36 f70)
129: (board f70 p32)
130: (down f70 f29)
131: (depart f29 p32)
132: (up f29 f72)
133: (board f72 p33)
134: (down f72 f59)
135: (depart f59 p33)
136: (down f59 f4)
137: (board f4 p34)
138: (up f4 f30)
139: (depart f30 p34)
140: (down f30 f16)
141: (board f16 p35)
142: (up f16 f52)
143: (depart f52 p35)
144: (down f52 f4)
145: (board f4 p36)
146: (up f4 f9)
147: (depart f9 p36)
148: (up f9 f68)
149: (board f68 p37)
150: (down f68 f12)
151: (depart f12 p37)
152: (up f12 f54)
153: (board f54 p38)
154: (down f54 f3)
155: (depart f3 p38)
156: (up f3 f16)
157: (board f16 p39)
158: (up f16 f51)
159: (depart f51 p39)
160: (down f51 f18)
161: (board f18 p40)
162: (up f18 f86)
163: (depart f86 p40)
164: (down f86 f65)
165: (board f65 p41)
166: (down f65 f27)
167: (depart f27 p41)
168: (up f27 f82)
169: (board f82 p42)
170: (up f82 f94)
171: (depart f94 p42)
172: (down f94 f3)
173: (board f3 p43)
174: (up f3 f29)
175: (depart f29 p43)
176: (up f29 f92)
177: (board f92 p44)
178: (down f92 f43)
179: (depart f43 p44)
180: (up f43 f87)
181: (board f87 p45)
182: (down f87 f71)
183: (depart f71 p45)
184: (down f71 f48)
185: (board f48 p46)
186: (up f48 f65)
187: (depart f65 p46)
188: (down f65 f10)
189: (board f10 p47)
190: (up f10 f40)
191: (depart f40 p47)
192: (down f40 f6)
193: (board f6 p48)
194: (up f6 f53)
195: (depart f53 p48)
196: (down f53 f8)
197: (board f8 p49)
198: (up f8 f36)
199: (depart f36 p49)
200: (up f36 f94)
201: (board f94 p50)
202: (down f94 f10)
203: (depart f10 p50)
204: (up f10 f45)
205: (board f45 p51)
206: (up f45 f90)
207: (depart f90 p51)
208: (down f90 f85)
209: (board f85 p52)
210: (down f85 f18)
211: (depart f18 p52)
212: (up f18 f99)
213: (board f99 p53)
214: (down f99 f17)
215: (depart f17 p53)
216: (up f17 f85)
217: (board f85 p54)
218: (down f85 f50)
219: (depart f50 p54)
220: (down f50 f33)
221: (board f33 p55)
222: (up f33 f35)
223: (depart f35 p55)
224: (up f35 f51)
225: (board f51 p56)
226: (up f51 f79)
227: (depart f79 p56)
228: (board f79 p57)
229: (down f79 f76)
230: (depart f76 p57)
231: (down f76 f28)
232: (board f28 p58)
233: (down f28 f16)
234: (depart f16 p58)
235: (up f16 f68)
236: (board f68 p59)
237: (up f68 f78)
238: (depart f78 p59)
239: (down f78 f66)
240: (board f66 p60)
241: (down f66 f65)
242: (depart f65 p60)
243: (up f65 f66)
244: (board f66 p61)
245: (down f66 f39)
246: (depart f39 p61)
247: (down f39 f23)
248: (board f23 p62)
249: (down f23 f8)
250: (depart f8 p62)
251: (up f8 f66)
252: (board f66 p63)
253: (down f66 f43)
254: (depart f43 p63)
255: (up f43 f70)
256: (board f70 p64)
257: (down f70 f9)
258: (depart f9 p64)
259: (up f9 f69)
260: (board f69 p65)
261: (down f69 f23)
262: (depart f23 p65)
263: (up f23 f54)
264: (board f54 p66)
265: (up f54 f71)
266: (depart f71 p66)
267: (down f71 f3)
268: (board f3 p67)
269: (up f3 f72)
270: (depart f72 p67)
271: (up f72 f79)
272: (board f79 p68)
273: (down f79 f61)
274: (depart f61 p68)
275: (down f61 f29)
276: (board f29 p69)
277: (up f29 f50)
278: (depart f50 p69)
279: (down f50 f21)
280: (board f21 p70)
281: (up f21 f42)
282: (depart f42 p70)
283: (up f42 f80)
284: (board f80 p71)
285: (down f80 f26)
286: (depart f26 p71)
287: (down f26 f3)
288: (board f3 p72)
289: (up f3 f67)
290: (depart f67 p72)
291: (down f67 f19)
292: (board f19 p73)
293: (up f19 f42)
294: (depart f42 p73)
295: (up f42 f86)
296: (board f86 p74)
297: (down f86 f59)
298: (depart f59 p74)
299: (up f59 f67)
300: (board f67 p75)
301: (down f67 f14)
302: (depart f14 p75)
303: (up f14 f75)
304: (board f75 p76)
305: (up f75 f86)
306: (depart f86 p76)
307: (down f86 f75)
308: (board f75 p77)
309: (down f75 f71)
310: (depart f71 p77)
311: (down f71 f41)
312: (board f41 p78)
313: (up f41 f49)
314: (depart f49 p78)
315: (down f49 f26)
316: (board f26 p79)
317: (up f26 f68)
318: (depart f68 p79)
319: (up f68 f93)
320: (board f93 p80)
321: (down f93 f88)
322: (depart f88 p80)
323: (down f88 f72)
324: (board f72 p81)
325: (down f72 f36)
326: (depart f36 p81)
327: (up f36 f74)
328: (board f74 p82)
329: (down f74 f28)
330: (depart f28 p82)
331: (down f28 f3)
332: (board f3 p83)
333: (up f3 f52)
334: (depart f52 p83)
335: (down f52 f9)
336: (board f9 p84)
337: (up f9 f55)
338: (depart f55 p84)
339: (up f55 f78)
340: (board f78 p85)
341: (up f78 f81)
342: (depart f81 p85)
343: (up f81 f83)
344: (board f83 p86)
345: (down f83 f53)
346: (depart f53 p86)
347: (down f53 f46)
348: (board f46 p87)
349: (up f46 f69)
350: (depart f69 p87)
351: (down f69 f24)
352: (board f24 p88)
353: (down f24 f4)
354: (depart f4 p88)
355: (up f4 f79)
356: (board f79 p89)
357: (down f79 f44)
358: (depart f44 p89)
359: (up f44 f51)
360: (board f51 p90)
361: (up f51 f83)
362: (depart f83 p90)
363: (down f83 f71)
364: (board f71 p91)
365: (down f71 f42)
366: (depart f42 p91)
367: (up f42 f64)
368: (board f64 p92)
369: (down f64 f2)
370: (depart f2 p92)
371: (up f2 f46)
372: (board f46 p93)
373: (down f46 f22)
374: (depart f22 p93)
375: (up f22 f81)
376: (board f81 p94)
377: (down f81 f17)
378: (depart f17 p94)
379: (down f17 f1)
380: (board f1 p95)
381: (up f1 f16)
382: (depart f16 p95)
383: (up f16 f33)
384: (board f33 p96)
385: (down f33 f12)
386: (depart f12 p96)
387: (up f12 f89)
388: (board f89 p97)
389: (down f89 f22)
390: (depart f22 p97)
391: (up f22 f52)
392: (board f52 p98)
393: (down f52 f24)
394: (depart f24 p98)
395: (up f24 f53)
396: (board f53 p99)
397: (down f53 f0)
398: (depart f0 p99)


