
Compact plan:
0: (up f0 f16)
1: (board f16 p2)
2: (board f16 p11)
3: (down f16 f7)
4: (depart f7 p2)
5: (board f7 p1)
6: (down f7 f3)
7: (board f3 p13)
8: (up f3 f13)
9: (board f13 p3)
10: (up f13 f14)
11: (board f14 p12)
12: (down f14 f8)
13: (board f8 p0)
14: (down f8 f2)
15: (depart f2 p3)
16: (board f2 p10)
17: (up f2 f22)
18: (board f22 p9)
19: (board f22 p7)
20: (down f22 f12)
21: (board f12 p8)
22: (up f12 f20)
23: (board f20 p5)
24: (down f20 f9)
25: (up f9 f26)
26: (depart f26 p8)
27: (down f26 f21)
28: (depart f21 p7)
29: (down f21 f9)
30: (depart f9 p13)
31: (board f9 p4)
32: (depart f9 p12)
33: (up f9 f24)
34: (depart f24 p1)
35: (down f24 f1)
36: (board f1 p6)
37: (depart f1 p0)
38: (up f1 f19)
39: (depart f19 p4)
40: (depart f19 p9)
41: (depart f19 p6)
42: (down f19 f17)
43: (depart f17 p10)
44: (down f17 f4)
45: (depart f4 p5)
46: (up f4 f23)
47: (depart f23 p11)


