Elevator 01 T-REX -i {-P,-b8192}
Elevator 02 T-REX -i {-P,-b8192}
Elevator 03 T-REX -i {-P,-b8192}
Elevator 04 T-REX -i {-P,-b8192}
Elevator 05 T-REX -i {-P,-b8192}
Elevator 06 T-REX -i {-P,-b8192}
Elevator 07 T-REX -i {-P,-b8192}
Elevator 08 T-REX -i {-P,-b8192}
Elevator 09 T-REX -i {-P,-b8192}
Elevator 10 T-REX -i {-P,-b8192}
Elevator 11 T-REX -i {-P,-b8192}
Elevator 12 T-REX -i {-P,-b8192}
Elevator 13 T-REX -i {-P,-b8192}
Elevator 14 T-REX -i {-P,-b8192}
Elevator 15 T-REX -i {-P,-b8192}
Elevator 16 T-REX -i {-P,-b8192}
Elevator 17 T-REX -i {-P,-b8192}
Elevator 18 T-REX -i {-P,-b8192}
Elevator 19 T-REX -i {-P,-b8192}
Elevator 20 T-REX -i {-P,-b8192}
