
Compact plan:
0: (up f0 f9)
1: (board f9 p0)
2: (down f9 f7)
3: (depart f7 p0)
4: (up f7 f10)
5: (board f10 p1)
6: (up f10 f38)
7: (depart f38 p1)
8: (down f38 f10)
9: (board f10 p2)
10: (up f10 f18)
11: (depart f18 p2)
12: (up f18 f20)
13: (board f20 p3)
14: (down f20 f9)
15: (depart f9 p3)
16: (down f9 f7)
17: (board f7 p4)
18: (up f7 f11)
19: (depart f11 p4)
20: (up f11 f14)
21: (board f14 p5)
22: (down f14 f4)
23: (depart f4 p5)
24: (up f4 f27)
25: (board f27 p6)
26: (down f27 f22)
27: (depart f22 p6)
28: (down f22 f13)
29: (board f13 p7)
30: (up f13 f20)
31: (depart f20 p7)
32: (up f20 f23)
33: (board f23 p8)
34: (up f23 f24)
35: (depart f24 p8)
36: (up f24 f41)
37: (board f41 p9)
38: (down f41 f5)
39: (depart f5 p9)
40: (up f5 f39)
41: (board f39 p10)
42: (up f39 f42)
43: (depart f42 p10)
44: (down f42 f27)
45: (board f27 p11)
46: (down f27 f16)
47: (depart f16 p11)
48: (down f16 f4)
49: (board f4 p12)
50: (up f4 f11)
51: (depart f11 p12)
52: (up f11 f14)
53: (board f14 p13)
54: (up f14 f41)
55: (depart f41 p13)
56: (down f41 f19)
57: (board f19 p14)
58: (up f19 f22)
59: (depart f22 p14)
60: (down f22 f12)
61: (board f12 p15)
62: (up f12 f23)
63: (depart f23 p15)
64: (up f23 f29)
65: (board f29 p16)
66: (down f29 f22)
67: (depart f22 p16)
68: (down f22 f15)
69: (board f15 p17)
70: (up f15 f33)
71: (depart f33 p17)
72: (up f33 f35)
73: (board f35 p18)
74: (down f35 f30)
75: (depart f30 p18)
76: (up f30 f36)
77: (board f36 p19)
78: (up f36 f42)
79: (depart f42 p19)
80: (down f42 f35)
81: (board f35 p20)
82: (down f35 f4)
83: (depart f4 p20)
84: (up f4 f40)
85: (board f40 p21)
86: (down f40 f16)
87: (depart f16 p21)
88: (up f16 f20)
89: (board f20 p22)
90: (down f20 f7)
91: (depart f7 p22)


