
Compact plan:
0: (unstack b28 b17)
1: (put-down b28)
2: (unstack b17 b22)
3: (put-down b17)
4: (unstack b10 b3)
5: (put-down b10)
6: (unstack b3 b32)
7: (put-down b3)
8: (pick-up b22)
9: (stack b22 b3)
10: (unstack b32 b13)
11: (put-down b32)
12: (pick-up b37)
13: (stack b37 b13)
14: (unstack b9 b34)
15: (put-down b9)
16: (unstack b34 b33)
17: (put-down b34)
18: (unstack b33 b12)
19: (put-down b33)
20: (unstack b12 b8)
21: (put-down b12)
22: (unstack b8 b25)
23: (put-down b8)
24: (unstack b25 b31)
25: (put-down b25)
26: (unstack b31 b36)
27: (stack b31 b17)
28: (unstack b16 b24)
29: (put-down b16)
30: (unstack b24 b29)
31: (put-down b24)
32: (unstack b29 b14)
33: (put-down b29)
34: (unstack b14 b4)
35: (put-down b14)
36: (pick-up b10)
37: (stack b10 b14)
38: (unstack b20 b26)
39: (put-down b20)
40: (unstack b26 b35)
41: (put-down b26)
42: (unstack b35 b18)
43: (put-down b35)
44: (unstack b10 b14)
45: (put-down b10)
46: (unstack b18 b23)
47: (stack b18 b10)
48: (unstack b21 b1)
49: (put-down b21)
50: (unstack b18 b10)
51: (put-down b18)
52: (unstack b1 b39)
53: (stack b1 b18)
54: (unstack b1 b18)
55: (put-down b1)
56: (pick-up b32)
57: (stack b32 b1)
58: (unstack b32 b1)
59: (put-down b32)
60: (pick-up b33)
61: (stack b33 b32)
62: (unstack b23 b7)
63: (put-down b23)
64: (unstack b7 b19)
65: (put-down b7)
66: (unstack b19 b2)
67: (put-down b19)
68: (unstack b2 b11)
69: (put-down b2)
70: (unstack b11 b30)
71: (put-down b11)
72: (unstack b30 b15)
73: (put-down b30)
74: (pick-up b15)
75: (stack b15 b36)
76: (pick-up b21)
77: (stack b21 b15)
78: (unstack b37 b13)
79: (put-down b37)
80: (unstack b13 b38)
81: (put-down b13)
82: (unstack b38 b27)
83: (put-down b38)
84: (unstack b27 b5)
85: (stack b27 b21)
86: (unstack b22 b3)
87: (put-down b22)
88: (pick-up b3)
89: (stack b3 b27)
90: (pick-up b22)
91: (stack b22 b3)
92: (pick-up b13)
93: (stack b13 b22)
94: (pick-up b37)
95: (stack b37 b13)
96: (unstack b4 b6)
97: (put-down b4)
98: (pick-up b6)
99: (stack b6 b37)
100: (pick-up b9)
101: (stack b9 b6)
102: (pick-up b11)
103: (stack b11 b9)
104: (pick-up b25)
105: (stack b25 b11)
106: (unstack b31 b17)
107: (put-down b31)
108: (pick-up b17)
109: (stack b17 b25)
110: (pick-up b31)
111: (stack b31 b17)
112: (pick-up b14)
113: (stack b14 b31)
114: (pick-up b10)
115: (stack b10 b14)
116: (pick-up b18)
117: (stack b18 b10)
118: (pick-up b1)
119: (stack b1 b18)
120: (unstack b33 b32)
121: (put-down b33)
122: (pick-up b32)
123: (stack b32 b1)
124: (pick-up b33)
125: (stack b33 b32)
126: (pick-up b4)
127: (stack b4 b33)
128: (pick-up b12)
129: (stack b12 b4)
130: (pick-up b26)
131: (stack b26 b8)
132: (pick-up b19)
133: (stack b19 b26)
134: (pick-up b30)
135: (stack b30 b19)
136: (pick-up b24)
137: (stack b24 b30)
138: (pick-up b5)
139: (stack b5 b24)
140: (pick-up b28)
141: (stack b28 b5)
142: (pick-up b16)
143: (stack b16 b29)
144: (pick-up b39)
145: (stack b39 b35)
146: (pick-up b20)
147: (stack b20 b39)
148: (pick-up b2)
149: (stack b2 b20)
150: (pick-up b7)
151: (stack b7 b2)
152: (pick-up b34)
153: (stack b34 b7)
154: (pick-up b23)
155: (stack b23 b34)


