0.09
0.092
0.092
0.091
0.093
0.102
0.101
0.099
0.099
0.099
0.109
0.105
0.108
0.108
0.107
0.116
0.116
0.116
0.113
0.114
0.146
0.125
0.122
0.135
0.184
0.14
0.139
0.137
0.139
0.146
0.148
0.157
0.172
0.149
0.168
0.177
0.173
0.177
0.17
0.197
0.198
0.204
0.198
0.203
0.192
0.212
0.216
0.216
0.207
0.218
0.24
0.228
0.236
0.229
0.23
0.254
0.253
0.26
0.254
0.254
0.278
0.278
0.272
0.276
0.283
0.289
0.34
0.313
0.307
0.348
0.332
0.33
0.373
0.337
0.351
0.372
0.365
0.364
0.367
0.346
0.437
0.401
0.409
0.41
0.383
0.441
0.44
0.492
0.465
0.436
0.492
0.449
0.483
0.481
0.49
0.518
0.528
0.526
0.542
0.522
0.609
0.57
0.554
0.601
0.579
0.659
0.665
0.614
0.662
0.636
0.723
0.719
0.724
0.714
0.651
0.81
0.736
0.779
0.816
0.822
0.894
0.883
0.806
0.86
0.891
0.883
0.918
0.901
0.856
0.961
0.968
0.915
0.899
0.897
0.827
1.018
0.958
0.921
0.957
0.995
1.039
1.075
0.955
0.992
0.977
1.129
1.117
1.135
1.144
1.129
