3
2
3
3
3
7
6
6
7
6
11
10
11
11
10
15
14
14
14
14
19
18
19
18
19
23
23
23
23
22
27
27
26
27
27
31
31
30
30
31
35
34
35
35
34
39
38
39
38
39
43
42
43
43
42
47
47
47
47
47
51
50
50
51
51
55
55
54
54
55
59
58
59
59
59
63
63
63
62
62
67
67
66
67
66
71
71
71
71
71
75
75
74
75
75
79
78
78
78
79
83
83
83
83
83
87
86
87
87
86
91
91
91
88
91
94
95
95
95
95
99
99
99
99
99
103
102
101
103
103
107
105
107
107
107
110
111
109
111
110
114
115
115
115
115
118
119
119
119
119
