
Compact plan:
0: (unstack b32 b15)
1: (put-down b32)
2: (unstack b15 b16)
3: (put-down b15)
4: (unstack b23 b21)
5: (stack b23 b15)
6: (unstack b3 b28)
7: (put-down b3)
8: (unstack b28 b22)
9: (put-down b28)
10: (unstack b22 b29)
11: (put-down b22)
12: (unstack b29 b20)
13: (put-down b29)
14: (unstack b20 b1)
15: (put-down b20)
16: (pick-up b20)
17: (stack b20 b1)
18: (unstack b21 b19)
19: (put-down b21)
20: (unstack b19 b8)
21: (put-down b19)
22: (unstack b8 b26)
23: (put-down b8)
24: (unstack b26 b9)
25: (stack b26 b20)
26: (unstack b2 b6)
27: (put-down b2)
28: (pick-up b3)
29: (stack b3 b2)
30: (unstack b16 b7)
31: (put-down b16)
32: (unstack b7 b13)
33: (put-down b7)
34: (unstack b13 b14)
35: (put-down b13)
36: (unstack b14 b11)
37: (stack b14 b3)
38: (unstack b27 b33)
39: (put-down b27)
40: (unstack b33 b10)
41: (put-down b33)
42: (unstack b10 b25)
43: (put-down b10)
44: (unstack b25 b24)
45: (put-down b25)
46: (unstack b24 b17)
47: (stack b24 b14)
48: (unstack b26 b20)
49: (put-down b26)
50: (unstack b20 b1)
51: (put-down b20)
52: (unstack b1 b5)
53: (put-down b1)
54: (unstack b5 b31)
55: (put-down b5)
56: (pick-up b31)
57: (stack b31 b5)
58: (unstack b23 b15)
59: (put-down b23)
60: (pick-up b15)
61: (stack b15 b31)
62: (pick-up b23)
63: (stack b23 b15)
64: (pick-up b1)
65: (stack b1 b23)
66: (pick-up b20)
67: (stack b20 b1)
68: (pick-up b26)
69: (stack b26 b20)
70: (pick-up b19)
71: (stack b19 b26)
72: (unstack b12 b18)
73: (stack b12 b19)
74: (pick-up b32)
75: (stack b32 b12)
76: (unstack b18 b4)
77: (stack b18 b32)
78: (pick-up b10)
79: (stack b10 b18)
80: (pick-up b29)
81: (stack b29 b10)
82: (unstack b9 b30)
83: (put-down b9)
84: (pick-up b30)
85: (stack b30 b29)
86: (pick-up b7)
87: (stack b7 b30)
88: (pick-up b13)
89: (stack b13 b17)
90: (pick-up b9)
91: (stack b9 b13)
92: (pick-up b11)
93: (stack b11 b9)
94: (pick-up b33)
95: (stack b33 b11)
96: (pick-up b6)
97: (stack b6 b33)
98: (pick-up b28)
99: (stack b28 b6)
100: (pick-up b25)
101: (stack b25 b28)
102: (pick-up b21)
103: (stack b21 b25)
104: (pick-up b22)
105: (stack b22 b4)
106: (pick-up b27)
107: (stack b27 b8)


