Command : ./interpreter_t-rex_binary_haribo -P -b8192 -i f.cnf 
[0.000] This is T-REX interpreter, prototype version 04/2018.
[0.000] Reading problem encoding from file "f.cnf".
[0.009] Parsed head comment information.
[0.254] Processed problem encoding.
[0.287] Calculated possible fact changes of composite elements.
[0.313] Initialized instantiation procedure.
[0.313] 
[0.313] *************************************
[0.313] * * *   M a k e s p a n     0   * * *
[0.313] *************************************
[0.388] Instantiated 61,598 initial clauses.
[0.388] The encoding contains a total of 31,102 distinct variables.
[0.388] Attempting solve with solver <glucose4> ...
c 101 assumptions
[0.388] Executed solver; result: UNSAT.
[0.388] 
[0.388] *************************************
[0.388] * * *   M a k e s p a n     1   * * *
[0.388] *************************************
[0.547] Computed next depth properties: array size of 201.
[0.608] Instantiated 60,500 transitional clauses.
[0.898] Instantiated 274,496 universal clauses.
[0.898] Instantiated and added clauses for a total of 396,594 clauses.
[0.898] The encoding contains a total of 124,620 distinct variables.
[0.898] Attempting solve with solver <glucose4> ...
c 201 assumptions
[0.900] Executed solver; result: UNSAT.
[0.900] 
[0.900] *************************************
[0.900] * * *   M a k e s p a n     2   * * *
[0.900] *************************************
[1.199] Computed next depth properties: array size of 401.
[1.415] Instantiated 180,000 transitional clauses.
[1.969] Instantiated 1,444,996 universal clauses.
[1.969] Instantiated and added clauses for a total of 2,021,590 clauses.
[1.969] The encoding contains a total of 248,722 distinct variables.
[1.969] Attempting solve with solver <glucose4> ...
c 401 assumptions
c last restart ## conflicts  :  0 421 
[1.970] Executed solver; result: SAT.
[1.970] Solver returned SAT; a solution has been found at makespan 2.
400
solution 43320 1
12145 2 10822 25218 12507 3 34203 25219 12683 4 25429 25220 578 5 20974 25221 704 6 21587 25222 1044 7 25606 25223 862 8 25702 25224 1227 9 25958 25225 1459 10 34707 25226 13140 11 34998 25227 13300 12 35257 25228 1784 13 35338 25229 13715 14 26662 25230 2206 15 14682 25231 2363 16 23255 25232 2564 17 26808 25233 2888 18 27015 25234 14175 19 12303 25235 3315 20 27131 25236 14374 21 36017 25237 14511 22 36274 25238 14550 23 27391 25239 14810 24 36560 25240 4187 25 13107 25241 4349 26 27854 25242 15151 27 36933 25243 15214 28 36942 25244 4683 29 37113 25245 15595 30 3703 25246 15684 31 37422 25247 16000 32 28696 25248 5189 33 12527 25249 5247 34 16822 25250 5465 35 28792 25251 16839 36 36617 25252 4464 37 37586 25253 16905 38 29003 25254 5839 39 37933 25255 17301 40 29638 25256 6028 41 38050 25257 6093 42 37045 25258 17641 43 8067 25259 3799 44 14615 25260 5461 45 29895 25261 6414 46 38273 25262 6511 47 37870 25263 18331 48 3570 25264 6787 49 38449 25265 18449 50 30413 25266 18855 51 38774 25267 7253 52 3153 25268 18967 53 30744 25269 7650 54 18994 25270 7832 55 30861 25271 7693 56 31048 25272 15141 57 39358 25273 17231 58 39553 25274 19239 59 39804 25275 19569 60 38961 25276 4381 61 19003 25277 2775 62 12805 25278 8064 63 39814 25279 20037 64 6150 25280 3719 65 13017 25281 20130 66 9368 25282 8381 67 40022 25283 20387 68 9288 25284 7788 69 25432 25285 8773 70 40392 25286 20808 71 7630 25287 20940 72 40575 25288 21253 73 40699 25289 9257 74 32025 25290 9524 75 40986 25291 15479 76 40097 25292 19186 77 1735 25293 21692 78 41497 25294 21710 79 10273 25295 9888 80 23202 25296 10017 81 27205 25297 22275 82 3563 25298 22450 83 41612 25299 10308 84 20226 25300 10650 85 801 25301 22791 86 30552 25302 20270 87 41722 25303 23068 88 3456 25304 19331 89 41875 25305 23318 90 41993 25306 23404 91 32993 25307 11157 92 42249 25308 23860 93 42412 25309 11253 94 12047 25310 11377 95 33401 25311 24413 96 42859 25312 811 97 33484 25313 24629 98 43320 25314 24984 99 2089 25315 11774 100 33694 25316 12002 101 33901 25317 
[1.992] Exiting.
