Hiking 01 T-REX -i {-P,-b8192,-e}
Hiking 02 T-REX -i {-P,-b8192,-e}
Hiking 03 T-REX -i {-P,-b8192,-e}
Hiking 04 T-REX -i {-P,-b8192,-e}
Hiking 05 T-REX -i {-P,-b8192,-e}
Hiking 06 T-REX -i {-P,-b8192,-e}
Hiking 07 T-REX -i {-P,-b8192,-e}
Hiking 08 T-REX -i {-P,-b8192,-e}
Hiking 09 T-REX -i {-P,-b8192,-e}
Hiking 10 T-REX -i {-P,-b8192,-e}
Hiking 11 T-REX -i {-P,-b8192,-e}
Hiking 12 T-REX -i {-P,-b8192,-e}
Hiking 13 T-REX -i {-P,-b8192,-e}
Hiking 14 T-REX -i {-P,-b8192,-e}
Hiking 15 T-REX -i {-P,-b8192,-e}
Hiking 16 T-REX -i {-P,-b8192,-e}
Hiking 17 T-REX -i {-P,-b8192,-e}
Hiking 18 T-REX -i {-P,-b8192,-e}
Hiking 19 T-REX -i {-P,-b8192,-e}
Hiking 20 T-REX -i {-P,-b8192,-e}
