htn_pb01       88      117       63      106     0,04     0,00    0,01     0,05     0,00     0,00       19    23
htn_pb02       98      114       70      108     0,04     0,00    0,01     0,05     0,00     0,00       19    24
htn_pb03      136      217       94      207     0,06     0,00    0,01     0,06     0,00     0,00       20    26
htn_pb04      154      275      151      263     0,06     0,00    0,01     0,07     0,00     0,00       78    60
htn_pb05      272      732      342      894     0,10     0,00    0,01     0,10     0,00     0,00       64    87
htn_pb06      274     1143      374     1507     0,12     0,00    0,01     0,13     0,00     0,00       54    73
htn_pb07      312     1460      547     2181     0,19     0,00    0,01     0,20     0,00     0,00       74    97
htn_pb08      440     1815      697     2934     0,20     0,00    0,01     0,21     0,00     0,00      160   187
htn_pb09      864     5632     1867    11117     0,77     0,00    0,02     0,79     0,00     0,00      278   251
htn_pb10     1108    13405     4012    25820     1,81     0,00    0,06     1,87     0,00     0,00      529   401
htn_pb11     1390    17385     6012    36103     2,78     0,00    0,05     2,83     0,00     0,00      476   316
htn_pb12     1472    18293     4010    40900     2,79     0,00    0,04     2,83     0,00     0,00      412   343
htn_pb13     1382    15777     4353    33665     2,59     0,00    0,06     2,65     0,00     0,00      769   553
htn_pb14     1788    22423     5019    54527     3,79     0,00    0,04     3,83     0,00     0,00      450   386
htn_pb15     1912    26219     7288    59068     4,33     0,00    0,05     4,38     0,00     0,00      777   490
htn_pb16     2048    36050     9854    77846     5,02     0,00    0,06     5,08     0,00     0,00      863   469
htn_pb17     2234    40244     9742    94471     6,78     0,00    0,04     6,82     0,00     0,00      657   349
htn_pb18     2610    46203    10530   114282     8,63     0,00    0,09     8,72     0,00     0,00     1079   637
htn_pb19     3376    74725    14869   193236    17,09     0,00    0,08    17,17     0,00     0,00     1831   895
htn_pb20     3530    81624    14597   221302    20,70     0,00    0,10    20,80     0,00     0,00     1690   958
htn_pb21     4218    92799    17361   254912    25,78     0,00    0,19    25,97     0,00     0,00     5304  1140
htn_pb22     3962   106851    19610   296576    31,45     0,00    0,32    31,76     0,00     0,00     4693  1818
htn_pb23     6574   202049    32810   597543    83,65     0,00    0,78    84,43     0,00     0,00     7844  2225
