
Compact plan:
0: (up f0 f10)
1: (board f10 p0)
2: (up f10 f27)
3: (depart f27 p0)
4: (down f27 f23)
5: (board f23 p1)
6: (down f23 f18)
7: (depart f18 p1)
8: (up f18 f24)
9: (board f24 p2)
10: (up f24 f35)
11: (depart f35 p2)
12: (up f35 f45)
13: (board f45 p3)
14: (down f45 f26)
15: (depart f26 p3)
16: (down f26 f11)
17: (board f11 p4)
18: (up f11 f19)
19: (depart f19 p4)
20: (up f19 f28)
21: (board f28 p5)
22: (up f28 f36)
23: (depart f36 p5)
24: (down f36 f15)
25: (board f15 p6)
26: (down f15 f11)
27: (depart f11 p6)
28: (up f11 f26)
29: (board f26 p7)
30: (up f26 f45)
31: (depart f45 p7)
32: (down f45 f30)
33: (board f30 p8)
34: (up f30 f36)
35: (depart f36 p8)
36: (down f36 f18)
37: (board f18 p9)
38: (down f18 f3)
39: (depart f3 p9)
40: (up f3 f24)
41: (board f24 p10)
42: (up f24 f27)
43: (depart f27 p10)
44: (down f27 f6)
45: (board f6 p11)
46: (up f6 f9)
47: (depart f9 p11)
48: (up f9 f14)
49: (board f14 p12)
50: (up f14 f31)
51: (depart f31 p12)
52: (down f31 f23)
53: (board f23 p13)
54: (down f23 f1)
55: (depart f1 p13)
56: (up f1 f27)
57: (board f27 p14)
58: (up f27 f44)
59: (depart f44 p14)
60: (down f44 f30)
61: (board f30 p15)
62: (up f30 f38)
63: (depart f38 p15)
64: (down f38 f19)
65: (board f19 p16)
66: (down f19 f7)
67: (depart f7 p16)
68: (down f7 f4)
69: (board f4 p17)
70: (up f4 f43)
71: (depart f43 p17)
72: (down f43 f42)
73: (board f42 p18)
74: (up f42 f44)
75: (depart f44 p18)
76: (down f44 f18)
77: (board f18 p19)
78: (down f18 f1)
79: (depart f1 p19)
80: (up f1 f17)
81: (board f17 p20)
82: (down f17 f0)
83: (depart f0 p20)
84: (up f0 f37)
85: (board f37 p21)
86: (down f37 f26)
87: (depart f26 p21)
88: (down f26 f6)
89: (board f6 p22)
90: (up f6 f11)
91: (depart f11 p22)


