
Compact plan:
0: (up f0 f39)
1: (board f39 p0)
2: (down f39 f10)
3: (depart f10 p0)
4: (up f10 f17)
5: (board f17 p1)
6: (up f17 f35)
7: (depart f35 p1)
8: (down f35 f1)
9: (board f1 p2)
10: (up f1 f15)
11: (depart f15 p2)
12: (up f15 f22)
13: (board f22 p3)
14: (up f22 f28)
15: (depart f28 p3)
16: (down f28 f25)
17: (board f25 p4)
18: (down f25 f1)
19: (depart f1 p4)
20: (up f1 f30)
21: (board f30 p5)
22: (down f30 f7)
23: (depart f7 p5)
24: (up f7 f38)
25: (board f38 p6)
26: (down f38 f3)
27: (depart f3 p6)
28: (up f3 f7)
29: (board f7 p7)
30: (up f7 f26)
31: (depart f26 p7)
32: (down f26 f20)
33: (board f20 p8)
34: (down f20 f10)
35: (depart f10 p8)
36: (up f10 f24)
37: (board f24 p9)
38: (down f24 f0)
39: (depart f0 p9)
40: (up f0 f43)
41: (board f43 p10)
42: (down f43 f8)
43: (depart f8 p10)
44: (up f8 f27)
45: (board f27 p11)
46: (up f27 f33)
47: (depart f33 p11)
48: (down f33 f26)
49: (board f26 p12)
50: (down f26 f6)
51: (depart f6 p12)
52: (up f6 f22)
53: (board f22 p13)
54: (up f22 f43)
55: (depart f43 p13)
56: (down f43 f3)
57: (board f3 p14)
58: (up f3 f43)
59: (depart f43 p14)
60: (down f43 f21)
61: (board f21 p15)
62: (down f21 f18)
63: (depart f18 p15)
64: (down f18 f10)
65: (board f10 p16)
66: (up f10 f14)
67: (depart f14 p16)
68: (up f14 f29)
69: (board f29 p17)
70: (up f29 f31)
71: (depart f31 p17)
72: (down f31 f29)
73: (board f29 p18)
74: (down f29 f8)
75: (depart f8 p18)
76: (up f8 f35)
77: (board f35 p19)
78: (down f35 f10)
79: (depart f10 p19)
80: (up f10 f29)
81: (board f29 p20)
82: (down f29 f21)
83: (depart f21 p20)
84: (up f21 f37)
85: (board f37 p21)
86: (down f37 f23)
87: (depart f23 p21)


