
Compact plan:
0: (up f0 f33)
1: (board f33 p0)
2: (down f33 f15)
3: (depart f15 p0)
4: (down f15 f6)
5: (board f6 p1)
6: (up f6 f19)
7: (depart f19 p1)
8: (board f19 p2)
9: (up f19 f28)
10: (depart f28 p2)
11: (down f28 f5)
12: (board f5 p3)
13: (up f5 f8)
14: (depart f8 p3)
15: (up f8 f11)
16: (board f11 p4)
17: (up f11 f32)
18: (depart f32 p4)
19: (down f32 f31)
20: (board f31 p5)
21: (down f31 f14)
22: (depart f14 p5)
23: (up f14 f24)
24: (board f24 p6)
25: (down f24 f6)
26: (depart f6 p6)
27: (down f6 f2)
28: (board f2 p7)
29: (up f2 f27)
30: (depart f27 p7)
31: (up f27 f28)
32: (board f28 p8)
33: (down f28 f23)
34: (depart f23 p8)
35: (up f23 f30)
36: (board f30 p9)
37: (down f30 f28)
38: (depart f28 p9)
39: (down f28 f8)
40: (board f8 p10)
41: (up f8 f13)
42: (depart f13 p10)
43: (up f13 f32)
44: (board f32 p11)
45: (down f32 f19)
46: (depart f19 p11)
47: (down f19 f8)
48: (board f8 p12)
49: (up f8 f22)
50: (depart f22 p12)
51: (up f22 f38)
52: (board f38 p13)
53: (down f38 f2)
54: (depart f2 p13)
55: (up f2 f37)
56: (board f37 p14)
57: (down f37 f33)
58: (depart f33 p14)
59: (down f33 f15)
60: (board f15 p15)
61: (up f15 f30)
62: (depart f30 p15)
63: (down f30 f8)
64: (board f8 p16)
65: (up f8 f13)
66: (depart f13 p16)
67: (down f13 f2)
68: (board f2 p17)
69: (up f2 f20)
70: (depart f20 p17)
71: (down f20 f1)
72: (board f1 p18)
73: (up f1 f7)
74: (depart f7 p18)
75: (up f7 f20)
76: (board f20 p19)
77: (down f20 f13)
78: (depart f13 p19)


