
Compact plan:
0: (up f0 f29)
1: (board f29 p0)
2: (down f29 f1)
3: (depart f1 p0)
4: (up f1 f22)
5: (board f22 p1)
6: (down f22 f9)
7: (depart f9 p1)
8: (down f9 f3)
9: (board f3 p2)
10: (up f3 f14)
11: (depart f14 p2)
12: (up f14 f27)
13: (board f27 p3)
14: (down f27 f18)
15: (depart f18 p3)
16: (down f18 f1)
17: (board f1 p4)
18: (up f1 f6)
19: (depart f6 p4)
20: (up f6 f33)
21: (board f33 p5)
22: (down f33 f0)
23: (depart f0 p5)
24: (up f0 f28)
25: (board f28 p6)
26: (down f28 f8)
27: (depart f8 p6)
28: (up f8 f28)
29: (board f28 p7)
30: (down f28 f23)
31: (depart f23 p7)
32: (up f23 f30)
33: (board f30 p8)
34: (down f30 f1)
35: (depart f1 p8)
36: (up f1 f2)
37: (board f2 p9)
38: (up f2 f18)
39: (depart f18 p9)
40: (down f18 f12)
41: (board f12 p10)
42: (down f12 f3)
43: (depart f3 p10)
44: (up f3 f8)
45: (board f8 p11)
46: (up f8 f25)
47: (depart f25 p11)
48: (down f25 f4)
49: (board f4 p12)
50: (up f4 f18)
51: (depart f18 p12)
52: (down f18 f16)
53: (board f16 p13)
54: (up f16 f24)
55: (depart f24 p13)
56: (up f24 f29)
57: (board f29 p14)
58: (down f29 f13)
59: (depart f13 p14)
60: (up f13 f29)
61: (board f29 p15)
62: (down f29 f20)
63: (depart f20 p15)
64: (down f20 f14)
65: (board f14 p16)
66: (up f14 f29)
67: (depart f29 p16)
68: (down f29 f8)
69: (board f8 p17)
70: (up f8 f34)
71: (depart f34 p17)
72: (down f34 f5)
73: (board f5 p18)
74: (up f5 f35)
75: (depart f35 p18)


