
Compact plan:
0: (up f0 f8)
1: (board f8 p0)
2: (up f8 f29)
3: (depart f29 p0)
4: (down f29 f7)
5: (board f7 p1)
6: (up f7 f52)
7: (depart f52 p1)
8: (down f52 f16)
9: (board f16 p2)
10: (down f16 f7)
11: (depart f7 p2)
12: (up f7 f41)
13: (board f41 p3)
14: (down f41 f30)
15: (depart f30 p3)
16: (up f30 f37)
17: (board f37 p4)
18: (down f37 f19)
19: (depart f19 p4)
20: (up f19 f20)
21: (board f20 p5)
22: (down f20 f4)
23: (depart f4 p5)
24: (up f4 f29)
25: (board f29 p6)
26: (down f29 f19)
27: (depart f19 p6)
28: (up f19 f50)
29: (board f50 p7)
30: (down f50 f21)
31: (depart f21 p7)
32: (down f21 f12)
33: (board f12 p8)
34: (up f12 f26)
35: (depart f26 p8)
36: (down f26 f22)
37: (board f22 p9)
38: (up f22 f47)
39: (depart f47 p9)
40: (down f47 f30)
41: (board f30 p10)
42: (up f30 f45)
43: (depart f45 p10)
44: (down f45 f44)
45: (board f44 p11)
46: (down f44 f23)
47: (depart f23 p11)
48: (up f23 f42)
49: (board f42 p12)
50: (down f42 f37)
51: (depart f37 p12)
52: (down f37 f3)
53: (board f3 p13)
54: (up f3 f9)
55: (depart f9 p13)
56: (down f9 f3)
57: (board f3 p14)
58: (up f3 f28)
59: (depart f28 p14)
60: (up f28 f38)
61: (board f38 p15)
62: (down f38 f12)
63: (depart f12 p15)
64: (up f12 f41)
65: (board f41 p16)
66: (up f41 f45)
67: (depart f45 p16)
68: (up f45 f48)
69: (board f48 p17)
70: (down f48 f1)
71: (depart f1 p17)
72: (up f1 f52)
73: (board f52 p18)
74: (down f52 f18)
75: (depart f18 p18)
76: (down f18 f16)
77: (board f16 p19)
78: (up f16 f17)
79: (depart f17 p19)
80: (up f17 f37)
81: (board f37 p20)
82: (down f37 f36)
83: (depart f36 p20)
84: (down f36 f21)
85: (board f21 p21)
86: (up f21 f50)
87: (depart f50 p21)
88: (down f50 f40)
89: (board f40 p22)
90: (up f40 f55)
91: (depart f55 p22)
92: (down f55 f16)
93: (board f16 p23)
94: (up f16 f52)
95: (depart f52 p23)
96: (down f52 f26)
97: (board f26 p24)
98: (up f26 f38)
99: (depart f38 p24)
100: (down f38 f27)
101: (board f27 p25)
102: (up f27 f40)
103: (depart f40 p25)
104: (down f40 f11)
105: (board f11 p26)
106: (up f11 f15)
107: (depart f15 p26)
108: (up f15 f48)
109: (board f48 p27)
110: (up f48 f53)
111: (depart f53 p27)


