
Compact plan:
0: (board f0 p0)
1: (up f0 f5)
2: (depart f5 p0)
3: (up f5 f7)
4: (board f7 p1)
5: (down f7 f4)
6: (depart f4 p1)
7: (down f4 f0)
8: (board f0 p2)
9: (up f0 f7)
10: (depart f7 p2)
11: (down f7 f1)
12: (board f1 p3)
13: (up f1 f6)
14: (depart f6 p3)


