
Compact plan:
0: (up f0 f17)
1: (board f17 p0)
2: (down f17 f15)
3: (depart f15 p0)
4: (up f15 f54)
5: (board f54 p1)
6: (down f54 f20)
7: (depart f20 p1)
8: (up f20 f34)
9: (board f34 p2)
10: (down f34 f8)
11: (depart f8 p2)
12: (up f8 f56)
13: (board f56 p3)
14: (down f56 f29)
15: (depart f29 p3)
16: (up f29 f39)
17: (board f39 p4)
18: (down f39 f27)
19: (depart f27 p4)
20: (down f27 f2)
21: (board f2 p5)
22: (up f2 f10)
23: (depart f10 p5)
24: (up f10 f47)
25: (board f47 p6)
26: (down f47 f28)
27: (depart f28 p6)
28: (up f28 f35)
29: (board f35 p7)
30: (up f35 f40)
31: (depart f40 p7)
32: (down f40 f21)
33: (board f21 p8)
34: (up f21 f30)
35: (depart f30 p8)
36: (down f30 f21)
37: (board f21 p9)
38: (down f21 f5)
39: (depart f5 p9)
40: (up f5 f7)
41: (board f7 p10)
42: (up f7 f24)
43: (depart f24 p10)
44: (down f24 f3)
45: (board f3 p11)
46: (up f3 f50)
47: (depart f50 p11)
48: (down f50 f12)
49: (board f12 p12)
50: (down f12 f9)
51: (depart f9 p12)
52: (up f9 f32)
53: (board f32 p13)
54: (down f32 f5)
55: (depart f5 p13)
56: (up f5 f19)
57: (board f19 p14)
58: (down f19 f4)
59: (depart f4 p14)
60: (up f4 f16)
61: (board f16 p15)
62: (up f16 f29)
63: (depart f29 p15)
64: (down f29 f19)
65: (board f19 p16)
66: (down f19 f12)
67: (depart f12 p16)
68: (up f12 f49)
69: (board f49 p17)
70: (down f49 f45)
71: (depart f45 p17)
72: (down f45 f13)
73: (board f13 p18)
74: (up f13 f40)
75: (depart f40 p18)
76: (down f40 f8)
77: (board f8 p19)
78: (up f8 f52)
79: (depart f52 p19)
80: (down f52 f1)
81: (board f1 p20)
82: (up f1 f10)
83: (depart f10 p20)
84: (up f10 f54)
85: (board f54 p21)
86: (down f54 f48)
87: (depart f48 p21)
88: (down f48 f30)
89: (board f30 p22)
90: (up f30 f31)
91: (depart f31 p22)
92: (down f31 f22)
93: (board f22 p23)
94: (up f22 f43)
95: (depart f43 p23)
96: (down f43 f4)
97: (board f4 p24)
98: (up f4 f35)
99: (depart f35 p24)
100: (up f35 f48)
101: (board f48 p25)
102: (down f48 f3)
103: (depart f3 p25)
104: (up f3 f51)
105: (board f51 p26)
106: (down f51 f46)
107: (depart f46 p26)
108: (up f46 f55)
109: (board f55 p27)
110: (down f55 f3)
111: (depart f3 p27)
112: (up f3 f20)
113: (board f20 p28)
114: (down f20 f2)
115: (depart f2 p28)


