htn_pb01      854     2517     2324     2100     0.58     0.00    0.01     0.59     0.00     0.00       51   174     87930      18270      18270 
htn_pb02      920     2577     2624     2130     0.71     0.00    0.01     0.72     0.00     0.00       48   163    139680      22260      22260 
htn_pb03      974     2808     2794     2272     0.70     0.00    0.01     0.71     0.00     0.00       61   210    148992      23744      23744 
htn_pb04      724     2055     1940     1664     0.42     0.00    0.01     0.43     0.00     0.00       46   157     69316      14404      14404 
htn_pb05      854     2517     2324     2100     0.53     0.00    0.01     0.54     0.00     0.00       54   185     87930      18270      18270 
htn_pb06      920     2697     2624     2130     0.75     0.00    0.02     0.76     0.00     0.00       57   196    139680      22260      22260 
htn_pb07      974     2808     2794     2272     0.74     0.00    0.01     0.75     0.00     0.00       58   199    148992      23744      23744 
htn_pb08     1028     2911     2964     2414     0.75     0.00    0.01     0.77     0.00     0.00       56   191    158304      25228      25228 
htn_pb09      724     2003     1940     1664     0.43     0.00    0.01     0.44     0.00     0.00       46   157     69316      14404      14404 
htn_pb10      854     2517     2324     2100     0.51     0.00    0.01     0.52     0.00     0.00       54   185     87930      18270      18270 
htn_pb11      920     2637     2624     2130     0.66     0.00    0.01     0.67     0.00     0.00       48   163    139680      22260      22260 
htn_pb12      974     2872     2794     2272     0.70     0.00    0.01     0.71     0.00     0.00       61   210    148992      23744      23744 
htn_pb13     1028     3047     2964     2414     0.74     0.00    0.01     0.75     0.00     0.00       62   213    158304      25228      25228 
htn_pb14      804     2298     2174     1960     0.48     0.00    0.01     0.49     0.00     0.00       50   171     82068      17052      17052 
htn_pb15      854     2517     2324     2100     0.50     0.00    0.01     0.51     0.00     0.00       51   174     87930      18270      18270 
htn_pb16      920     2697     2624     2130     0.68     0.00    0.01     0.69     0.00     0.00       54   185    139680      22260      22260 
htn_pb17      724     2055     1940     1664     0.47     0.00    0.01     0.48     0.00     0.00       46   157     69316      14404      14404 
htn_pb18      854     2517     2324     2100     0.53     0.00    0.01     0.54     0.00     0.00       51   174     87930      18270      18270 
htn_pb19      920     2697     2624     2130     0.71     0.00    0.01     0.72     0.00     0.00       51   174    139680      22260      22260 
htn_pb20      974     2744     2794     2272     0.74     0.00    0.01     0.75     0.00     0.00       58   199    148992      23744      23744 
