 pb01       58       79       54       80     0.03     0.00    0.01     0.04     0.00     0.00       21     9       100        100        100 
 pb02      102      153      104      174     0.04     0.00    0.01     0.04     0.00     0.00       30    13       196        196        196 
 pb03      134      317      190      416     0.06     0.00    0.01     0.06     0.00     0.00       27    11       784        608        608 
 pb04      470     3070     1786     4208     0.18     0.00    0.01     0.20     0.00     0.00      280    52     19320       9460       9460 
 pb05      640     5259     3557     6820     0.24     0.00    0.02     0.26     0.00     0.00      310    59     25725      13825      13825 
 pb06      706     6661     4313     8821     0.30     0.00    0.01     0.32     0.00     0.00      143    44     39894      18994      18994 
 pb07      988    14040     7196    20676     0.73     0.00    0.02     0.74     0.00     0.00      331    64    184960      54235      54235 
 pb08      658     5756     3591     7991     0.30     0.00    0.01     0.31     0.00     0.00      153    38     37380      17230      17230 
 pb09     1014     9128     4439    17053     0.64     0.00    0.07     0.70     0.00     0.00     1828   181    155665      55665      55665 
 pb10     1040    18366    14819    21588     0.48     0.00    0.04     0.51     0.00     0.00     1664   146     56545      31211      31211 
 pb11     1730    48850    39394    57878     1.10     0.00    0.06     1.16     0.00     0.00      343   139    198478      86058      86058 
 pb12     2084    60689    46534    74940     1.52     0.00    0.14     1.65     0.00     0.00     6159   263    363808     131004     131004 
 pb13     3342   143543   114419   173013     3.47     0.00    0.16     3.63     0.00     0.00     5527   289    891930     294060     294060 
 pb18     4172   221601   211788   229854     4.00     0.00    0.77     4.77     0.00     0.00    17819   452    317820     270260     270260 
 pb19     5878   373680   342195   404215     6.24     0.00    0.74     6.98     0.00     0.00    31600   677    966216     554166     554166 
 pb14     5506   303944   239470   367402     7.06     0.00    0.17     7.23     0.00     0.00     5980   315   2502180     709680     709680 
 pb20     6748   482452   428111   536761     8.43     0.00    0.78     9.21     0.00     0.00    18167   527   1882360     810005     810005 
 pb15     6760   446323   368992   521775     9.70     0.00    0.17     9.87     0.00     0.00    10166   392   3011775     929815     929815 
 pb16     8860   740796   638667   840600    17.30     0.00    1.42    18.72     0.00     0.00    46550   734   4136775    1383215    1383215 
 pb17    10990  1136660   989252  1284520    48.82     0.00    2.95    51.77     0.00     0.00     1674   466   6733050    2070630    2070630 
