
Compact plan:
0: (up f0 f19)
1: (board f19 p0)
2: (up f19 f28)
3: (depart f28 p0)
4: (up f28 f44)
5: (board f44 p1)
6: (down f44 f2)
7: (depart f2 p1)
8: (up f2 f13)
9: (board f13 p2)
10: (up f13 f14)
11: (depart f14 p2)
12: (down f14 f10)
13: (board f10 p3)
14: (up f10 f46)
15: (depart f46 p3)
16: (down f46 f39)
17: (board f39 p4)
18: (down f39 f31)
19: (depart f31 p4)
20: (down f31 f18)
21: (board f18 p5)
22: (down f18 f7)
23: (depart f7 p5)
24: (up f7 f19)
25: (board f19 p6)
26: (up f19 f34)
27: (depart f34 p6)
28: (board f34 p7)
29: (down f34 f30)
30: (depart f30 p7)
31: (down f30 f25)
32: (board f25 p8)
33: (up f25 f27)
34: (depart f27 p8)
35: (down f27 f12)
36: (board f12 p9)
37: (up f12 f41)
38: (depart f41 p9)
39: (down f41 f16)
40: (board f16 p10)
41: (up f16 f32)
42: (depart f32 p10)
43: (up f32 f48)
44: (board f48 p11)
45: (up f48 f49)
46: (depart f49 p11)
47: (down f49 f35)
48: (board f35 p12)
49: (down f35 f6)
50: (depart f6 p12)
51: (up f6 f14)
52: (board f14 p13)
53: (up f14 f51)
54: (depart f51 p13)
55: (down f51 f27)
56: (board f27 p14)
57: (up f27 f50)
58: (depart f50 p14)
59: (down f50 f47)
60: (board f47 p15)
61: (down f47 f3)
62: (depart f3 p15)
63: (up f3 f42)
64: (board f42 p16)
65: (down f42 f25)
66: (depart f25 p16)
67: (up f25 f45)
68: (board f45 p17)
69: (down f45 f5)
70: (depart f5 p17)
71: (up f5 f35)
72: (board f35 p18)
73: (up f35 f39)
74: (depart f39 p18)
75: (down f39 f20)
76: (board f20 p19)
77: (down f20 f14)
78: (depart f14 p19)
79: (up f14 f33)
80: (board f33 p20)
81: (down f33 f4)
82: (depart f4 p20)
83: (up f4 f10)
84: (board f10 p21)
85: (up f10 f15)
86: (depart f15 p21)
87: (up f15 f38)
88: (board f38 p22)
89: (up f38 f40)
90: (depart f40 p22)
91: (board f40 p23)
92: (up f40 f41)
93: (depart f41 p23)
94: (down f41 f28)
95: (board f28 p24)
96: (up f28 f29)
97: (depart f29 p24)
98: (down f29 f6)
99: (board f6 p25)
100: (up f6 f45)
101: (depart f45 p25)


