
Compact plan:
0: (up f0 f49)
1: (board f49 p0)
2: (down f49 f47)
3: (depart f47 p0)
4: (down f47 f14)
5: (board f14 p1)
6: (up f14 f27)
7: (depart f27 p1)
8: (up f27 f51)
9: (board f51 p2)
10: (down f51 f20)
11: (depart f20 p2)
12: (up f20 f21)
13: (board f21 p3)
14: (down f21 f16)
15: (depart f16 p3)
16: (up f16 f27)
17: (board f27 p4)
18: (up f27 f40)
19: (depart f40 p4)
20: (up f40 f47)
21: (board f47 p5)
22: (up f47 f54)
23: (depart f54 p5)
24: (down f54 f0)
25: (board f0 p6)
26: (up f0 f22)
27: (depart f22 p6)
28: (up f22 f50)
29: (board f50 p7)
30: (down f50 f43)
31: (depart f43 p7)
32: (down f43 f20)
33: (board f20 p8)
34: (down f20 f15)
35: (depart f15 p8)
36: (up f15 f46)
37: (board f46 p9)
38: (down f46 f44)
39: (depart f44 p9)
40: (down f44 f8)
41: (board f8 p10)
42: (up f8 f21)
43: (depart f21 p10)
44: (down f21 f8)
45: (board f8 p11)
46: (up f8 f27)
47: (depart f27 p11)
48: (up f27 f40)
49: (board f40 p12)
50: (down f40 f38)
51: (depart f38 p12)
52: (up f38 f46)
53: (board f46 p13)
54: (down f46 f42)
55: (depart f42 p13)
56: (down f42 f13)
57: (board f13 p14)
58: (up f13 f49)
59: (depart f49 p14)
60: (down f49 f23)
61: (board f23 p15)
62: (down f23 f6)
63: (depart f6 p15)
64: (up f6 f40)
65: (board f40 p16)
66: (down f40 f21)
67: (depart f21 p16)
68: (down f21 f18)
69: (board f18 p17)
70: (up f18 f20)
71: (depart f20 p17)
72: (up f20 f41)
73: (board f41 p18)
74: (down f41 f39)
75: (depart f39 p18)
76: (down f39 f20)
77: (board f20 p19)
78: (down f20 f13)
79: (depart f13 p19)
80: (up f13 f23)
81: (board f23 p20)
82: (down f23 f12)
83: (depart f12 p20)
84: (down f12 f11)
85: (board f11 p21)
86: (down f11 f7)
87: (depart f7 p21)
88: (up f7 f18)
89: (board f18 p22)
90: (up f18 f46)
91: (depart f46 p22)
92: (down f46 f35)
93: (board f35 p23)
94: (down f35 f23)
95: (depart f23 p23)
96: (up f23 f45)
97: (board f45 p24)
98: (down f45 f25)
99: (depart f25 p24)
100: (down f25 f11)
101: (board f11 p25)
102: (up f11 f54)
103: (depart f54 p25)
104: (down f54 f46)
105: (board f46 p26)
106: (down f46 f20)
107: (depart f20 p26)
108: (up f20 f25)
109: (board f25 p27)
110: (down f25 f15)
111: (depart f15 p27)


