pb01  	-		-			-			-
pb02 	55		34638 		8.79733	 	8.82016  
pb03 	49		451412 		100.268	 	100.29  
pb04 	62		938 		0.433567	0.458564  
pb05 	67		1163		0.67406	 	0.705412  
pb06 	70		1240 		0.867308	0.910679 
pb07 	-		-			-			-
pb08 	-		-			-			-  
pb09 	-		-			-			-  
pb10 	79  	1915 		2.4935  	2.60357  
pb11  	-		-			-			-
pb12 	-		-			-			- 
pb13 	-		-			-			- 
pb14 	-		-			-			- 
pb15  	-		-			-			-
pb16  	-		-			-			-
pb17  	-		-			-			-
pb18  	-		-			-			-
pb19  	-		-			-			-
pb20  	-		-			-			-