
Compact plan:
0: (up f0 f21)
1: (board f21 p0)
2: (down f21 f12)
3: (depart f12 p0)
4: (down f12 f2)
5: (board f2 p1)
6: (down f2 f0)
7: (depart f0 p1)
8: (up f0 f21)
9: (board f21 p2)
10: (down f21 f8)
11: (depart f8 p2)
12: (up f8 f12)
13: (board f12 p3)
14: (up f12 f20)
15: (depart f20 p3)
16: (down f20 f3)
17: (board f3 p4)
18: (up f3 f7)
19: (depart f7 p4)
20: (up f7 f16)
21: (board f16 p5)
22: (down f16 f1)
23: (depart f1 p5)
24: (up f1 f7)
25: (board f7 p6)
26: (up f7 f10)
27: (depart f10 p6)
28: (up f10 f18)
29: (board f18 p7)
30: (down f18 f10)
31: (depart f10 p7)
32: (down f10 f9)
33: (board f9 p8)
34: (down f9 f1)
35: (depart f1 p8)
36: (up f1 f16)
37: (board f16 p9)
38: (up f16 f17)
39: (depart f17 p9)
40: (down f17 f4)
41: (board f4 p10)
42: (up f4 f14)
43: (depart f14 p10)


