
Compact plan:
0: (up f0 f7)
1: (board f7 p0)
2: (down f7 f2)
3: (depart f2 p0)
4: (board f2 p1)
5: (up f2 f6)
6: (board f6 p2)
7: (down f6 f5)
8: (board f5 p3)
9: (down f5 f4)
10: (depart f4 p1)
11: (down f4 f3)
12: (depart f3 p2)
13: (down f3 f1)
14: (depart f1 p3)


