
Compact plan:
0: (up f0 f37)
1: (board f37 p0)
2: (down f37 f36)
3: (depart f36 p0)
4: (down f36 f28)
5: (board f28 p1)
6: (up f28 f30)
7: (depart f30 p1)
8: (down f30 f27)
9: (board f27 p2)
10: (up f27 f30)
11: (depart f30 p2)
12: (down f30 f2)
13: (board f2 p3)
14: (up f2 f32)
15: (depart f32 p3)
16: (down f32 f1)
17: (board f1 p4)
18: (up f1 f21)
19: (depart f21 p4)
20: (down f21 f2)
21: (board f2 p5)
22: (up f2 f23)
23: (depart f23 p5)
24: (down f23 f13)
25: (board f13 p6)
26: (up f13 f20)
27: (depart f20 p6)
28: (up f20 f24)
29: (board f24 p7)
30: (up f24 f36)
31: (depart f36 p7)
32: (down f36 f1)
33: (board f1 p8)
34: (up f1 f33)
35: (depart f33 p8)
36: (down f33 f30)
37: (board f30 p9)
38: (down f30 f7)
39: (depart f7 p9)
40: (up f7 f26)
41: (board f26 p10)
42: (up f26 f40)
43: (depart f40 p10)
44: (down f40 f18)
45: (board f18 p11)
46: (up f18 f35)
47: (depart f35 p11)
48: (down f35 f15)
49: (board f15 p12)
50: (up f15 f26)
51: (depart f26 p12)
52: (down f26 f0)
53: (board f0 p13)
54: (up f0 f3)
55: (depart f3 p13)
56: (up f3 f25)
57: (board f25 p14)
58: (down f25 f24)
59: (depart f24 p14)
60: (up f24 f39)
61: (board f39 p15)
62: (down f39 f19)
63: (depart f19 p15)
64: (down f19 f10)
65: (board f10 p16)
66: (up f10 f25)
67: (depart f25 p16)
68: (down f25 f3)
69: (board f3 p17)
70: (up f3 f41)
71: (depart f41 p17)
72: (down f41 f27)
73: (board f27 p18)
74: (up f27 f35)
75: (depart f35 p18)
76: (up f35 f40)
77: (board f40 p19)
78: (down f40 f6)
79: (depart f6 p19)
80: (up f6 f35)
81: (board f35 p20)
82: (down f35 f20)
83: (depart f20 p20)


