
Compact plan:
0: (up f0 f7)
1: (board f7 p0)
2: (down f7 f6)
3: (depart f6 p0)
4: (down f6 f1)
5: (board f1 p1)
6: (up f1 f3)
7: (depart f3 p1)
8: (down f3 f1)
9: (board f1 p2)
10: (up f1 f7)
11: (depart f7 p2)
12: (down f7 f2)
13: (board f2 p3)
14: (up f2 f4)
15: (depart f4 p3)


