
Compact plan:
0: (unstack b2 b3)
1: (put-down b2)
2: (unstack b3 b5)
3: (put-down b3)
4: (unstack b5 b4)
5: (put-down b5)
6: (unstack b4 b1)
7: (stack b4 b2)
8: (pick-up b1)
9: (stack b1 b4)
10: (pick-up b3)
11: (stack b3 b1)


