
Compact plan:
0: (pick ball1 rooma left)
1: (pick ball2 rooma right)
2: (move rooma roomb)
3: (drop ball1 roomb left)
4: (drop ball2 roomb right)
5: (move roomb rooma)
6: (pick ball3 rooma left)
7: (pick ball4 rooma right)
8: (move rooma roomb)
9: (drop ball3 roomb left)
10: (drop ball4 roomb right)
11: (move roomb rooma)
12: (pick ball5 rooma left)
13: (pick ball6 rooma right)
14: (move rooma roomb)
15: (drop ball5 roomb left)
16: (drop ball6 roomb right)
17: (move roomb rooma)
18: (pick ball7 rooma left)
19: (pick ball8 rooma right)
20: (move rooma roomb)
21: (drop ball7 roomb left)
22: (drop ball8 roomb right)
23: (move roomb rooma)
24: (pick ball9 rooma left)
25: (pick ball10 rooma right)
26: (move rooma roomb)
27: (drop ball9 roomb left)
28: (drop ball10 roomb right)
29: (move roomb rooma)
30: (pick ball11 rooma left)
31: (pick ball12 rooma right)
32: (move rooma roomb)
33: (drop ball11 roomb left)
34: (drop ball12 roomb right)
35: (move roomb rooma)
36: (pick ball13 rooma left)
37: (pick ball14 rooma right)
38: (move rooma roomb)
39: (drop ball13 roomb left)
40: (drop ball14 roomb right)
41: (move roomb rooma)
42: (pick ball15 rooma left)
43: (pick ball16 rooma right)
44: (move rooma roomb)
45: (drop ball15 roomb left)
46: (drop ball16 roomb right)
47: (move roomb rooma)
48: (pick ball17 rooma left)
49: (pick ball18 rooma right)
50: (move rooma roomb)
51: (drop ball17 roomb left)
52: (drop ball18 roomb right)
53: (move roomb rooma)
54: (pick ball19 rooma left)
55: (pick ball20 rooma right)
56: (move rooma roomb)
57: (drop ball19 roomb left)
58: (drop ball20 roomb right)
59: (move roomb rooma)
60: (pick ball21 rooma left)
61: (pick ball22 rooma right)
62: (move rooma roomb)
63: (drop ball21 roomb left)
64: (drop ball22 roomb right)
65: (move roomb rooma)
66: (pick ball23 rooma left)
67: (pick ball24 rooma right)
68: (move rooma roomb)
69: (drop ball23 roomb left)
70: (drop ball24 roomb right)
71: (move roomb rooma)
72: (pick ball25 rooma left)
73: (pick ball26 rooma right)
74: (move rooma roomb)
75: (drop ball25 roomb left)
76: (drop ball26 roomb right)
77: (move roomb rooma)
78: (pick ball27 rooma left)
79: (pick ball28 rooma right)
80: (move rooma roomb)
81: (drop ball27 roomb left)
82: (drop ball28 roomb right)
83: (move roomb rooma)
84: (pick ball29 rooma left)
85: (pick ball30 rooma right)
86: (move rooma roomb)
87: (drop ball29 roomb left)
88: (drop ball30 roomb right)
89: (move roomb rooma)
90: (pick ball31 rooma left)
91: (pick ball32 rooma right)
92: (move rooma roomb)
93: (drop ball31 roomb left)
94: (drop ball32 roomb right)
95: (move roomb rooma)
96: (pick ball33 rooma left)
97: (pick ball34 rooma right)
98: (move rooma roomb)
99: (drop ball33 roomb left)
100: (drop ball34 roomb right)
101: (move roomb rooma)
102: (pick ball35 rooma left)
103: (pick ball36 rooma right)
104: (move rooma roomb)
105: (drop ball35 roomb left)
106: (drop ball36 roomb right)
107: (move roomb rooma)
108: (pick ball37 rooma left)
109: (pick ball38 rooma right)
110: (move rooma roomb)
111: (drop ball37 roomb left)
112: (drop ball38 roomb right)
113: (move roomb rooma)
114: (pick ball39 rooma left)
115: (pick ball40 rooma right)
116: (move rooma roomb)
117: (drop ball39 roomb left)
118: (drop ball40 roomb right)
119: (move roomb rooma)
120: (pick ball41 rooma left)
121: (pick ball42 rooma right)
122: (move rooma roomb)
123: (drop ball41 roomb left)
124: (drop ball42 roomb right)
125: (move roomb rooma)
126: (pick ball43 rooma left)
127: (pick ball44 rooma right)
128: (move rooma roomb)
129: (drop ball43 roomb left)
130: (drop ball44 roomb right)
131: (move roomb rooma)
132: (pick ball45 rooma left)
133: (pick ball46 rooma right)
134: (move rooma roomb)
135: (drop ball45 roomb left)
136: (drop ball46 roomb right)
137: (move roomb rooma)
138: (pick ball47 rooma left)
139: (pick ball48 rooma right)
140: (move rooma roomb)
141: (drop ball47 roomb left)
142: (drop ball48 roomb right)
143: (move roomb rooma)
144: (pick ball49 rooma left)
145: (pick ball50 rooma right)
146: (move rooma roomb)
147: (drop ball49 roomb left)
148: (drop ball50 roomb right)
149: (move roomb rooma)
150: (pick ball51 rooma left)
151: (pick ball52 rooma right)
152: (move rooma roomb)
153: (drop ball51 roomb left)
154: (drop ball52 roomb right)
155: (move roomb rooma)
156: (pick ball53 rooma left)
157: (pick ball54 rooma right)
158: (move rooma roomb)
159: (drop ball53 roomb left)
160: (drop ball54 roomb right)
161: (move roomb rooma)
162: (pick ball55 rooma left)
163: (pick ball56 rooma right)
164: (move rooma roomb)
165: (drop ball55 roomb left)
166: (drop ball56 roomb right)
167: (move roomb rooma)
168: (pick ball57 rooma left)
169: (pick ball58 rooma right)
170: (move rooma roomb)
171: (drop ball57 roomb left)
172: (drop ball58 roomb right)
173: (move roomb rooma)
174: (pick ball59 rooma left)
175: (pick ball60 rooma right)
176: (move rooma roomb)
177: (drop ball59 roomb left)
178: (drop ball60 roomb right)
179: (move roomb rooma)
180: (pick ball61 rooma left)
181: (pick ball62 rooma right)
182: (move rooma roomb)
183: (drop ball61 roomb left)
184: (drop ball62 roomb right)
185: (move roomb rooma)
186: (pick ball63 rooma left)
187: (pick ball64 rooma right)
188: (move rooma roomb)
189: (drop ball63 roomb left)
190: (drop ball64 roomb right)
191: (move roomb rooma)
192: (pick ball65 rooma left)
193: (pick ball66 rooma right)
194: (move rooma roomb)
195: (drop ball65 roomb left)
196: (drop ball66 roomb right)
197: (move roomb rooma)
198: (pick ball67 rooma left)
199: (pick ball68 rooma right)
200: (move rooma roomb)
201: (drop ball67 roomb left)
202: (drop ball68 roomb right)
203: (move roomb rooma)
204: (pick ball69 rooma left)
205: (pick ball70 rooma right)
206: (move rooma roomb)
207: (drop ball69 roomb left)
208: (drop ball70 roomb right)
209: (move roomb rooma)
210: (pick ball71 rooma left)
211: (pick ball72 rooma right)
212: (move rooma roomb)
213: (drop ball71 roomb left)
214: (drop ball72 roomb right)
215: (move roomb rooma)
216: (pick ball73 rooma left)
217: (pick ball74 rooma right)
218: (move rooma roomb)
219: (drop ball73 roomb left)
220: (drop ball74 roomb right)
221: (move roomb rooma)
222: (pick ball75 rooma left)
223: (pick ball76 rooma right)
224: (move rooma roomb)
225: (drop ball75 roomb left)
226: (drop ball76 roomb right)
227: (move roomb rooma)
228: (pick ball77 rooma left)
229: (pick ball78 rooma right)
230: (move rooma roomb)
231: (drop ball77 roomb left)
232: (drop ball78 roomb right)
233: (move roomb rooma)
234: (pick ball79 rooma left)
235: (pick ball80 rooma right)
236: (move rooma roomb)
237: (drop ball79 roomb left)
238: (drop ball80 roomb right)
239: (move roomb rooma)
240: (pick ball81 rooma left)
241: (pick ball82 rooma right)
242: (move rooma roomb)
243: (drop ball81 roomb left)
244: (drop ball82 roomb right)
245: (move roomb rooma)
246: (pick ball83 rooma left)
247: (pick ball84 rooma right)
248: (move rooma roomb)
249: (drop ball83 roomb left)
250: (drop ball84 roomb right)
251: (move roomb rooma)
252: (pick ball85 rooma left)
253: (pick ball86 rooma right)
254: (move rooma roomb)
255: (drop ball85 roomb left)
256: (drop ball86 roomb right)
257: (move roomb rooma)
258: (pick ball87 rooma left)
259: (pick ball88 rooma right)
260: (move rooma roomb)
261: (drop ball87 roomb left)
262: (drop ball88 roomb right)
263: (move roomb rooma)
264: (pick ball89 rooma left)
265: (pick ball90 rooma right)
266: (move rooma roomb)
267: (drop ball89 roomb left)
268: (drop ball90 roomb right)
269: (move roomb rooma)
270: (pick ball91 rooma left)
271: (pick ball92 rooma right)
272: (move rooma roomb)
273: (drop ball91 roomb left)
274: (drop ball92 roomb right)
275: (move roomb rooma)
276: (pick ball93 rooma left)
277: (pick ball94 rooma right)
278: (move rooma roomb)
279: (drop ball93 roomb left)
280: (drop ball94 roomb right)
281: (move roomb rooma)
282: (pick ball95 rooma left)
283: (pick ball96 rooma right)
284: (move rooma roomb)
285: (drop ball95 roomb left)
286: (drop ball96 roomb right)
287: (move roomb rooma)
288: (pick ball97 rooma left)
289: (pick ball98 rooma right)
290: (move rooma roomb)
291: (drop ball97 roomb left)
292: (drop ball98 roomb right)
293: (move roomb rooma)
294: (pick ball99 rooma left)
295: (pick ball100 rooma right)
296: (move rooma roomb)
297: (drop ball99 roomb left)
298: (drop ball100 roomb right)
299: (move roomb rooma)
300: (pick ball101 rooma left)
301: (pick ball102 rooma right)
302: (move rooma roomb)
303: (drop ball101 roomb left)
304: (drop ball102 roomb right)
305: (move roomb rooma)
306: (pick ball103 rooma left)
307: (pick ball104 rooma right)
308: (move rooma roomb)
309: (drop ball103 roomb left)
310: (drop ball104 roomb right)
311: (move roomb rooma)
312: (pick ball105 rooma left)
313: (pick ball106 rooma right)
314: (move rooma roomb)
315: (drop ball105 roomb left)
316: (drop ball106 roomb right)
317: (move roomb rooma)
318: (pick ball107 rooma left)
319: (pick ball108 rooma right)
320: (move rooma roomb)
321: (drop ball107 roomb left)
322: (drop ball108 roomb right)
323: (move roomb rooma)
324: (pick ball109 rooma left)
325: (pick ball110 rooma right)
326: (move rooma roomb)
327: (drop ball109 roomb left)
328: (drop ball110 roomb right)
329: (move roomb rooma)
330: (pick ball111 rooma left)
331: (pick ball112 rooma right)
332: (move rooma roomb)
333: (drop ball111 roomb left)
334: (drop ball112 roomb right)
335: (move roomb rooma)
336: (pick ball113 rooma left)
337: (pick ball114 rooma right)
338: (move rooma roomb)
339: (drop ball113 roomb left)
340: (drop ball114 roomb right)
341: (move roomb rooma)
342: (pick ball115 rooma left)
343: (pick ball116 rooma right)
344: (move rooma roomb)
345: (drop ball115 roomb left)
346: (drop ball116 roomb right)
347: (move roomb rooma)
348: (pick ball117 rooma left)
349: (pick ball118 rooma right)
350: (move rooma roomb)
351: (drop ball117 roomb left)
352: (drop ball118 roomb right)
353: (move roomb rooma)
354: (pick ball119 rooma left)
355: (pick ball120 rooma right)
356: (move rooma roomb)
357: (drop ball119 roomb left)
358: (drop ball120 roomb right)
359: (move roomb rooma)
360: (pick ball121 rooma left)
361: (pick ball122 rooma right)
362: (move rooma roomb)
363: (drop ball121 roomb left)
364: (drop ball122 roomb right)
365: (move roomb rooma)
366: (pick ball123 rooma left)
367: (pick ball124 rooma right)
368: (move rooma roomb)
369: (drop ball123 roomb left)
370: (drop ball124 roomb right)
371: (move roomb rooma)
372: (pick ball125 rooma left)
373: (pick ball126 rooma right)
374: (move rooma roomb)
375: (drop ball125 roomb left)
376: (drop ball126 roomb right)
377: (move roomb rooma)
378: (pick ball127 rooma left)
379: (pick ball128 rooma right)
380: (move rooma roomb)
381: (drop ball127 roomb left)
382: (drop ball128 roomb right)
383: (move roomb rooma)
384: (pick ball129 rooma left)
385: (pick ball130 rooma right)
386: (move rooma roomb)
387: (drop ball129 roomb left)
388: (drop ball130 roomb right)
389: (move roomb rooma)
390: (pick ball131 rooma left)
391: (pick ball132 rooma right)
392: (move rooma roomb)
393: (drop ball131 roomb left)
394: (drop ball132 roomb right)
395: (move roomb rooma)
396: (pick ball133 rooma left)
397: (pick ball134 rooma right)
398: (move rooma roomb)
399: (drop ball133 roomb left)
400: (drop ball134 roomb right)
401: (move roomb rooma)
402: (pick ball135 rooma left)
403: (pick ball136 rooma right)
404: (move rooma roomb)
405: (drop ball135 roomb left)
406: (drop ball136 roomb right)
407: (move roomb rooma)
408: (pick ball137 rooma left)
409: (pick ball138 rooma right)
410: (move rooma roomb)
411: (drop ball137 roomb left)
412: (drop ball138 roomb right)
413: (move roomb rooma)
414: (pick ball139 rooma left)
415: (pick ball140 rooma right)
416: (move rooma roomb)
417: (drop ball139 roomb left)
418: (drop ball140 roomb right)
419: (move roomb rooma)
420: (pick ball141 rooma left)
421: (pick ball142 rooma right)
422: (move rooma roomb)
423: (drop ball141 roomb left)
424: (drop ball142 roomb right)
425: (move roomb rooma)
426: (pick ball143 rooma left)
427: (pick ball144 rooma right)
428: (move rooma roomb)
429: (drop ball143 roomb left)
430: (drop ball144 roomb right)
431: (move roomb rooma)
432: (pick ball145 rooma left)
433: (pick ball146 rooma right)
434: (move rooma roomb)
435: (drop ball145 roomb left)
436: (drop ball146 roomb right)
437: (move roomb rooma)
438: (pick ball147 rooma left)
439: (pick ball148 rooma right)
440: (move rooma roomb)
441: (drop ball147 roomb left)
442: (drop ball148 roomb right)
443: (move roomb rooma)
444: (pick ball149 rooma left)
445: (pick ball150 rooma right)
446: (move rooma roomb)
447: (drop ball149 roomb left)
448: (drop ball150 roomb right)
449: (move roomb rooma)
450: (pick ball151 rooma left)
451: (pick ball152 rooma right)
452: (move rooma roomb)
453: (drop ball151 roomb left)
454: (drop ball152 roomb right)
455: (move roomb rooma)
456: (pick ball153 rooma left)
457: (pick ball154 rooma right)
458: (move rooma roomb)
459: (drop ball153 roomb left)
460: (drop ball154 roomb right)
461: (move roomb rooma)
462: (pick ball155 rooma left)
463: (pick ball156 rooma right)
464: (move rooma roomb)
465: (drop ball155 roomb left)
466: (drop ball156 roomb right)
467: (move roomb rooma)
468: (pick ball157 rooma left)
469: (pick ball158 rooma right)
470: (move rooma roomb)
471: (drop ball157 roomb left)
472: (drop ball158 roomb right)
473: (move roomb rooma)
474: (pick ball159 rooma left)
475: (pick ball160 rooma right)
476: (move rooma roomb)
477: (drop ball159 roomb left)
478: (drop ball160 roomb right)
479: (move roomb rooma)
480: (pick ball161 rooma left)
481: (pick ball162 rooma right)
482: (move rooma roomb)
483: (drop ball161 roomb left)
484: (drop ball162 roomb right)
485: (move roomb rooma)
486: (pick ball163 rooma left)
487: (pick ball164 rooma right)
488: (move rooma roomb)
489: (drop ball163 roomb left)
490: (drop ball164 roomb right)
491: (move roomb rooma)
492: (pick ball165 rooma left)
493: (pick ball166 rooma right)
494: (move rooma roomb)
495: (drop ball165 roomb left)
496: (drop ball166 roomb right)
497: (move roomb rooma)
498: (pick ball167 rooma left)
499: (pick ball168 rooma right)
500: (move rooma roomb)
501: (drop ball167 roomb left)
502: (drop ball168 roomb right)
503: (move roomb rooma)
504: (pick ball169 rooma left)
505: (pick ball170 rooma right)
506: (move rooma roomb)
507: (drop ball169 roomb left)
508: (drop ball170 roomb right)
509: (move roomb rooma)
510: (pick ball171 rooma left)
511: (pick ball172 rooma right)
512: (move rooma roomb)
513: (drop ball171 roomb left)
514: (drop ball172 roomb right)
515: (move roomb rooma)
516: (pick ball173 rooma left)
517: (pick ball174 rooma right)
518: (move rooma roomb)
519: (drop ball173 roomb left)
520: (drop ball174 roomb right)
521: (move roomb rooma)
522: (pick ball175 rooma left)
523: (pick ball176 rooma right)
524: (move rooma roomb)
525: (drop ball175 roomb left)
526: (drop ball176 roomb right)
527: (move roomb rooma)
528: (pick ball177 rooma left)
529: (pick ball178 rooma right)
530: (move rooma roomb)
531: (drop ball177 roomb left)
532: (drop ball178 roomb right)
533: (move roomb rooma)
534: (pick ball179 rooma left)
535: (pick ball180 rooma right)
536: (move rooma roomb)
537: (drop ball179 roomb left)
538: (drop ball180 roomb right)
539: (move roomb rooma)
540: (pick ball181 rooma left)
541: (pick ball182 rooma right)
542: (move rooma roomb)
543: (drop ball181 roomb left)
544: (drop ball182 roomb right)
545: (move roomb rooma)
546: (pick ball183 rooma left)
547: (pick ball184 rooma right)
548: (move rooma roomb)
549: (drop ball183 roomb left)
550: (drop ball184 roomb right)
551: (move roomb rooma)
552: (pick ball185 rooma left)
553: (pick ball186 rooma right)
554: (move rooma roomb)
555: (drop ball185 roomb left)
556: (drop ball186 roomb right)
557: (move roomb rooma)
558: (pick ball187 rooma left)
559: (pick ball188 rooma right)
560: (move rooma roomb)
561: (drop ball187 roomb left)
562: (drop ball188 roomb right)
563: (move roomb rooma)
564: (pick ball189 rooma left)
565: (pick ball190 rooma right)
566: (move rooma roomb)
567: (drop ball189 roomb left)
568: (drop ball190 roomb right)
569: (move roomb rooma)
570: (pick ball191 rooma left)
571: (pick ball192 rooma right)
572: (move rooma roomb)
573: (drop ball191 roomb left)
574: (drop ball192 roomb right)
575: (move roomb rooma)
576: (pick ball193 rooma left)
577: (pick ball194 rooma right)
578: (move rooma roomb)
579: (drop ball193 roomb left)
580: (drop ball194 roomb right)
581: (move roomb rooma)
582: (pick ball195 rooma left)
583: (pick ball196 rooma right)
584: (move rooma roomb)
585: (drop ball195 roomb left)
586: (drop ball196 roomb right)
587: (move roomb rooma)
588: (pick ball197 rooma left)
589: (pick ball198 rooma right)
590: (move rooma roomb)
591: (drop ball197 roomb left)
592: (drop ball198 roomb right)
593: (move roomb rooma)
594: (pick ball199 rooma left)
595: (pick ball200 rooma right)
596: (move rooma roomb)
597: (drop ball199 roomb left)
598: (drop ball200 roomb right)
599: (move roomb rooma)
600: (pick ball201 rooma left)
601: (pick ball202 rooma right)
602: (move rooma roomb)
603: (drop ball201 roomb left)
604: (drop ball202 roomb right)
605: (move roomb rooma)
606: (pick ball203 rooma left)
607: (pick ball204 rooma right)
608: (move rooma roomb)
609: (drop ball203 roomb left)
610: (drop ball204 roomb right)
611: (move roomb rooma)
612: (pick ball205 rooma left)
613: (pick ball206 rooma right)
614: (move rooma roomb)
615: (drop ball205 roomb left)
616: (drop ball206 roomb right)
617: (move roomb rooma)
618: (pick ball207 rooma left)
619: (pick ball208 rooma right)
620: (move rooma roomb)
621: (drop ball207 roomb left)
622: (drop ball208 roomb right)
623: (move roomb rooma)
624: (pick ball209 rooma left)
625: (pick ball210 rooma right)
626: (move rooma roomb)
627: (drop ball209 roomb left)
628: (drop ball210 roomb right)
629: (move roomb rooma)
630: (pick ball211 rooma left)
631: (pick ball212 rooma right)
632: (move rooma roomb)
633: (drop ball211 roomb left)
634: (drop ball212 roomb right)
635: (move roomb rooma)
636: (pick ball213 rooma left)
637: (pick ball214 rooma right)
638: (move rooma roomb)
639: (drop ball213 roomb left)
640: (drop ball214 roomb right)
641: (move roomb rooma)
642: (pick ball215 rooma left)
643: (pick ball216 rooma right)
644: (move rooma roomb)
645: (drop ball215 roomb left)
646: (drop ball216 roomb right)
647: (move roomb rooma)
648: (pick ball217 rooma left)
649: (pick ball218 rooma right)
650: (move rooma roomb)
651: (drop ball217 roomb left)
652: (drop ball218 roomb right)
653: (move roomb rooma)
654: (pick ball219 rooma left)
655: (pick ball220 rooma right)
656: (move rooma roomb)
657: (drop ball219 roomb left)
658: (drop ball220 roomb right)
659: (move roomb rooma)
660: (pick ball221 rooma left)
661: (pick ball222 rooma right)
662: (move rooma roomb)
663: (drop ball221 roomb left)
664: (drop ball222 roomb right)
665: (move roomb rooma)
666: (pick ball223 rooma left)
667: (pick ball224 rooma right)
668: (move rooma roomb)
669: (drop ball223 roomb left)
670: (drop ball224 roomb right)
671: (move roomb rooma)
672: (pick ball225 rooma left)
673: (pick ball226 rooma right)
674: (move rooma roomb)
675: (drop ball225 roomb left)
676: (drop ball226 roomb right)
677: (move roomb rooma)
678: (pick ball227 rooma left)
679: (pick ball228 rooma right)
680: (move rooma roomb)
681: (drop ball227 roomb left)
682: (drop ball228 roomb right)
683: (move roomb rooma)
684: (pick ball229 rooma left)
685: (pick ball230 rooma right)
686: (move rooma roomb)
687: (drop ball229 roomb left)
688: (drop ball230 roomb right)
689: (move roomb rooma)
690: (pick ball231 rooma left)
691: (pick ball232 rooma right)
692: (move rooma roomb)
693: (drop ball231 roomb left)
694: (drop ball232 roomb right)
695: (move roomb rooma)
696: (pick ball233 rooma left)
697: (pick ball234 rooma right)
698: (move rooma roomb)
699: (drop ball233 roomb left)
700: (drop ball234 roomb right)
701: (move roomb rooma)
702: (pick ball235 rooma left)
703: (pick ball236 rooma right)
704: (move rooma roomb)
705: (drop ball235 roomb left)
706: (drop ball236 roomb right)
707: (move roomb rooma)
708: (pick ball237 rooma left)
709: (pick ball238 rooma right)
710: (move rooma roomb)
711: (drop ball237 roomb left)
712: (drop ball238 roomb right)
713: (move roomb rooma)
714: (pick ball239 rooma left)
715: (pick ball240 rooma right)
716: (move rooma roomb)
717: (drop ball239 roomb left)
718: (drop ball240 roomb right)
719: (move roomb rooma)
720: (pick ball241 rooma left)
721: (pick ball242 rooma right)
722: (move rooma roomb)
723: (drop ball241 roomb left)
724: (drop ball242 roomb right)
725: (move roomb rooma)
726: (pick ball243 rooma left)
727: (pick ball244 rooma right)
728: (move rooma roomb)
729: (drop ball243 roomb left)
730: (drop ball244 roomb right)
731: (move roomb rooma)
732: (pick ball245 rooma left)
733: (pick ball246 rooma right)
734: (move rooma roomb)
735: (drop ball245 roomb left)
736: (drop ball246 roomb right)
737: (move roomb rooma)
738: (pick ball247 rooma left)
739: (pick ball248 rooma right)
740: (move rooma roomb)
741: (drop ball247 roomb left)
742: (drop ball248 roomb right)
743: (move roomb rooma)
744: (pick ball249 rooma left)
745: (pick ball250 rooma right)
746: (move rooma roomb)
747: (drop ball249 roomb left)
748: (drop ball250 roomb right)


