Command : ./interpreter_t-rex_binary_haribo -P -b8192 -e -i f.cnf 
[0.000] This is T-REX interpreter, prototype version 04/2018.
[0.000] Reading problem encoding from file "f.cnf".
[0.001] Parsed head comment information.
[0.011] Processed problem encoding.
[0.011] Calculated possible fact changes of composite elements.
[0.014] Initialized instantiation procedure.
[0.014] 
[0.014] *************************************
[0.014] * * *   M a k e s p a n     0   * * *
[0.014] *************************************
[0.020] Instantiated 6,615 initial clauses.
[0.020] The encoding contains a total of 3,876 distinct variables.
[0.020] Attempting solve with solver <glucose4> ...
c 126 assumptions
[0.020] Executed solver; result: UNSAT.
[0.020] 
[0.020] *************************************
[0.020] * * *   M a k e s p a n     1   * * *
[0.020] *************************************
[0.033] Computed next depth properties: array size of 751.
[0.038] Instantiated 3,377 transitional clauses.
[0.063] 100.0% quadratic At-Most-One encodings, the rest being binary encoded.
[0.063] Instantiated 17,985 universal clauses.
[0.063] Instantiated and added clauses for a total of 27,977 clauses.
[0.063] The encoding contains a total of 8,380 distinct variables.
[0.063] Attempting solve with solver <glucose4> ...
c 751 assumptions
c last restart ## conflicts  :  0 1250 
[0.064] Executed solver; result: SAT.
[0.064] Solver returned SAT; a solution has been found at makespan 1.
749
solution 1001 1
3 4 5 6 7 2 14 16 5 15 17 2 22 24 5 23 25 2 30 32 5 31 33 2 38 40 5 39 41 2 46 48 5 47 49 2 54 56 5 55 57 2 62 64 5 63 65 2 70 72 5 71 73 2 78 80 5 79 81 2 86 88 5 87 89 2 94 96 5 95 97 2 102 104 5 103 105 2 110 112 5 111 113 2 118 120 5 119 121 2 126 128 5 127 129 2 134 136 5 135 137 2 142 144 5 143 145 2 150 152 5 151 153 2 158 160 5 159 161 2 166 168 5 167 169 2 174 176 5 175 177 2 182 184 5 183 185 2 190 192 5 191 193 2 198 200 5 199 201 2 206 208 5 207 209 2 214 216 5 215 217 2 222 224 5 223 225 2 230 232 5 231 233 2 238 240 5 239 241 2 246 248 5 247 249 2 254 256 5 255 257 2 262 264 5 263 265 2 270 272 5 271 273 2 278 280 5 279 281 2 286 288 5 287 289 2 294 296 5 295 297 2 302 304 5 303 305 2 310 312 5 311 313 2 318 320 5 319 321 2 326 328 5 327 329 2 334 336 5 335 337 2 342 344 5 343 345 2 350 352 5 351 353 2 358 360 5 359 361 2 366 368 5 367 369 2 374 376 5 375 377 2 382 384 5 383 385 2 390 392 5 391 393 2 398 400 5 399 401 2 406 408 5 407 409 2 414 416 5 415 417 2 422 424 5 423 425 2 430 432 5 431 433 2 438 440 5 439 441 2 446 448 5 447 449 2 454 456 5 455 457 2 462 464 5 463 465 2 470 472 5 471 473 2 478 480 5 479 481 2 486 488 5 487 489 2 494 496 5 495 497 2 502 504 5 503 505 2 510 512 5 511 513 2 518 520 5 519 521 2 526 528 5 527 529 2 534 536 5 535 537 2 542 544 5 543 545 2 550 552 5 551 553 2 558 560 5 559 561 2 566 568 5 567 569 2 574 576 5 575 577 2 582 584 5 583 585 2 590 592 5 591 593 2 598 600 5 599 601 2 606 608 5 607 609 2 614 616 5 615 617 2 622 624 5 623 625 2 630 632 5 631 633 2 638 640 5 639 641 2 646 648 5 647 649 2 654 656 5 655 657 2 662 664 5 663 665 2 670 672 5 671 673 2 678 680 5 679 681 2 686 688 5 687 689 2 694 696 5 695 697 2 702 704 5 703 705 2 710 712 5 711 713 2 718 720 5 719 721 2 726 728 5 727 729 2 734 736 5 735 737 2 742 744 5 743 745 2 750 752 5 751 753 2 758 760 5 759 761 2 766 768 5 767 769 2 774 776 5 775 777 2 782 784 5 783 785 2 790 792 5 791 793 2 798 800 5 799 801 2 806 808 5 807 809 2 814 816 5 815 817 2 822 824 5 823 825 2 830 832 5 831 833 2 838 840 5 839 841 2 846 848 5 847 849 2 854 856 5 855 857 2 862 864 5 863 865 2 870 872 5 871 873 2 878 880 5 879 881 2 886 888 5 887 889 2 894 896 5 895 897 2 902 904 5 903 905 2 910 912 5 911 913 2 918 920 5 919 921 2 926 928 5 927 929 2 934 936 5 935 937 2 942 944 5 943 945 2 950 952 5 951 953 2 958 960 5 959 961 2 966 968 5 967 969 2 974 976 5 975 977 2 982 984 5 983 985 2 990 992 5 991 993 2 998 1000 5 999 1001 
[0.066] Exiting.
