
Compact plan:
0: (up f0 f2)
1: (board f2 p0)
2: (up f2 f96)
3: (depart f96 p0)
4: (down f96 f70)
5: (board f70 p1)
6: (down f70 f23)
7: (depart f23 p1)
8: (down f23 f2)
9: (board f2 p2)
10: (up f2 f89)
11: (depart f89 p2)
12: (down f89 f71)
13: (board f71 p3)
14: (down f71 f9)
15: (depart f9 p3)
16: (up f9 f52)
17: (board f52 p4)
18: (up f52 f89)
19: (depart f89 p4)
20: (down f89 f31)
21: (board f31 p5)
22: (down f31 f1)
23: (depart f1 p5)
24: (up f1 f80)
25: (board f80 p6)
26: (down f80 f43)
27: (depart f43 p6)
28: (up f43 f76)
29: (board f76 p7)
30: (up f76 f99)
31: (depart f99 p7)
32: (down f99 f47)
33: (board f47 p8)
34: (down f47 f31)
35: (depart f31 p8)
36: (up f31 f63)
37: (board f63 p9)
38: (down f63 f1)
39: (depart f1 p9)
40: (up f1 f57)
41: (board f57 p10)
42: (up f57 f89)
43: (depart f89 p10)
44: (down f89 f22)
45: (board f22 p11)
46: (up f22 f77)
47: (depart f77 p11)
48: (down f77 f71)
49: (board f71 p12)
50: (down f71 f37)
51: (depart f37 p12)
52: (up f37 f75)
53: (board f75 p13)
54: (down f75 f10)
55: (depart f10 p13)
56: (up f10 f16)
57: (board f16 p14)
58: (up f16 f24)
59: (depart f24 p14)
60: (down f24 f11)
61: (board f11 p15)
62: (up f11 f58)
63: (depart f58 p15)
64: (down f58 f23)
65: (board f23 p16)
66: (up f23 f79)
67: (depart f79 p16)
68: (down f79 f7)
69: (board f7 p17)
70: (up f7 f72)
71: (depart f72 p17)
72: (down f72 f70)
73: (board f70 p18)
74: (down f70 f40)
75: (depart f40 p18)
76: (up f40 f71)
77: (board f71 p19)
78: (down f71 f29)
79: (depart f29 p19)
80: (up f29 f54)
81: (board f54 p20)
82: (down f54 f30)
83: (depart f30 p20)
84: (down f30 f26)
85: (board f26 p21)
86: (down f26 f23)
87: (depart f23 p21)
88: (down f23 f15)
89: (board f15 p22)
90: (up f15 f86)
91: (depart f86 p22)
92: (down f86 f43)
93: (board f43 p23)
94: (down f43 f39)
95: (depart f39 p23)
96: (up f39 f68)
97: (board f68 p24)
98: (down f68 f67)
99: (depart f67 p24)
100: (down f67 f60)
101: (board f60 p25)
102: (down f60 f55)
103: (depart f55 p25)
104: (down f55 f53)
105: (board f53 p26)
106: (down f53 f46)
107: (depart f46 p26)
108: (down f46 f26)
109: (board f26 p27)
110: (up f26 f84)
111: (depart f84 p27)
112: (down f84 f21)
113: (board f21 p28)
114: (up f21 f61)
115: (depart f61 p28)
116: (down f61 f30)
117: (board f30 p29)
118: (up f30 f95)
119: (depart f95 p29)
120: (down f95 f15)
121: (board f15 p30)
122: (up f15 f67)
123: (depart f67 p30)
124: (up f67 f69)
125: (board f69 p31)
126: (down f69 f40)
127: (depart f40 p31)
128: (up f40 f99)
129: (board f99 p32)
130: (down f99 f20)
131: (depart f20 p32)
132: (up f20 f49)
133: (board f49 p33)
134: (up f49 f96)
135: (depart f96 p33)
136: (down f96 f26)
137: (board f26 p34)
138: (up f26 f33)
139: (depart f33 p34)
140: (down f33 f28)
141: (board f28 p35)
142: (up f28 f30)
143: (depart f30 p35)
144: (up f30 f97)
145: (board f97 p36)
146: (down f97 f24)
147: (depart f24 p36)
148: (up f24 f73)
149: (board f73 p37)
150: (down f73 f8)
151: (depart f8 p37)
152: (up f8 f19)
153: (board f19 p38)
154: (down f19 f2)
155: (depart f2 p38)
156: (up f2 f59)
157: (board f59 p39)
158: (down f59 f11)
159: (depart f11 p39)
160: (up f11 f71)
161: (board f71 p40)
162: (up f71 f93)
163: (depart f93 p40)
164: (down f93 f32)
165: (board f32 p41)
166: (up f32 f85)
167: (depart f85 p41)
168: (down f85 f75)
169: (board f75 p42)
170: (down f75 f53)
171: (depart f53 p42)
172: (down f53 f16)
173: (board f16 p43)
174: (up f16 f28)
175: (depart f28 p43)
176: (down f28 f21)
177: (board f21 p44)
178: (up f21 f95)
179: (depart f95 p44)
180: (down f95 f74)
181: (board f74 p45)
182: (down f74 f68)
183: (depart f68 p45)
184: (up f68 f95)
185: (board f95 p46)
186: (down f95 f48)
187: (depart f48 p46)
188: (up f48 f67)
189: (board f67 p47)
190: (up f67 f76)
191: (depart f76 p47)
192: (up f76 f84)
193: (board f84 p48)
194: (down f84 f16)
195: (depart f16 p48)
196: (up f16 f69)
197: (board f69 p49)
198: (down f69 f55)
199: (depart f55 p49)
200: (down f55 f22)
201: (board f22 p50)
202: (up f22 f70)
203: (depart f70 p50)
204: (up f70 f75)
205: (board f75 p51)
206: (down f75 f3)
207: (depart f3 p51)
208: (up f3 f33)
209: (board f33 p52)
210: (up f33 f96)
211: (depart f96 p52)
212: (down f96 f55)
213: (board f55 p53)
214: (up f55 f80)
215: (depart f80 p53)
216: (up f80 f87)
217: (board f87 p54)
218: (up f87 f97)
219: (depart f97 p54)
220: (down f97 f8)
221: (board f8 p55)
222: (up f8 f96)
223: (depart f96 p55)
224: (down f96 f36)
225: (board f36 p56)
226: (up f36 f41)
227: (depart f41 p56)
228: (up f41 f67)
229: (board f67 p57)
230: (down f67 f0)
231: (depart f0 p57)
232: (up f0 f46)
233: (board f46 p58)
234: (down f46 f10)
235: (depart f10 p58)
236: (down f10 f2)
237: (board f2 p59)
238: (up f2 f45)
239: (depart f45 p59)
240: (down f45 f13)
241: (board f13 p60)
242: (up f13 f58)
243: (depart f58 p60)
244: (down f58 f24)
245: (board f24 p61)
246: (down f24 f17)
247: (depart f17 p61)
248: (up f17 f38)
249: (board f38 p62)
250: (down f38 f26)
251: (depart f26 p62)
252: (up f26 f53)
253: (board f53 p63)
254: (down f53 f47)
255: (depart f47 p63)
256: (down f47 f4)
257: (board f4 p64)
258: (up f4 f8)
259: (depart f8 p64)
260: (up f8 f71)
261: (board f71 p65)
262: (down f71 f35)
263: (depart f35 p65)
264: (up f35 f43)
265: (board f43 p66)
266: (up f43 f81)
267: (depart f81 p66)
268: (down f81 f18)
269: (board f18 p67)
270: (up f18 f65)
271: (depart f65 p67)
272: (down f65 f43)
273: (board f43 p68)
274: (up f43 f81)
275: (depart f81 p68)
276: (down f81 f41)
277: (board f41 p69)
278: (up f41 f86)
279: (depart f86 p69)
280: (up f86 f88)
281: (board f88 p70)
282: (down f88 f13)
283: (depart f13 p70)
284: (up f13 f14)
285: (board f14 p71)
286: (up f14 f35)
287: (depart f35 p71)
288: (down f35 f27)
289: (board f27 p72)
290: (up f27 f35)
291: (depart f35 p72)
292: (down f35 f19)
293: (board f19 p73)
294: (up f19 f77)
295: (depart f77 p73)
296: (down f77 f47)
297: (board f47 p74)
298: (down f47 f0)
299: (depart f0 p74)


