
Compact plan:
0: (up f0 f20)
1: (board f20 p0)
2: (down f20 f1)
3: (depart f1 p0)
4: (up f1 f35)
5: (board f35 p1)
6: (up f35 f48)
7: (depart f48 p1)
8: (down f48 f16)
9: (board f16 p2)
10: (up f16 f23)
11: (depart f23 p2)
12: (up f23 f33)
13: (board f33 p3)
14: (down f33 f22)
15: (depart f22 p3)
16: (down f22 f5)
17: (board f5 p4)
18: (down f5 f3)
19: (depart f3 p4)
20: (up f3 f12)
21: (board f12 p5)
22: (up f12 f24)
23: (depart f24 p5)
24: (up f24 f25)
25: (board f25 p6)
26: (up f25 f27)
27: (depart f27 p6)
28: (up f27 f34)
29: (board f34 p7)
30: (down f34 f21)
31: (depart f21 p7)
32: (down f21 f16)
33: (board f16 p8)
34: (up f16 f22)
35: (depart f22 p8)
36: (board f22 p9)
37: (down f22 f3)
38: (depart f3 p9)
39: (up f3 f38)
40: (board f38 p10)
41: (down f38 f29)
42: (depart f29 p10)
43: (down f29 f24)
44: (board f24 p11)
45: (up f24 f39)
46: (depart f39 p11)
47: (down f39 f22)
48: (board f22 p12)
49: (down f22 f9)
50: (depart f9 p12)
51: (up f9 f11)
52: (board f11 p13)
53: (up f11 f49)
54: (depart f49 p13)
55: (down f49 f27)
56: (board f27 p14)
57: (down f27 f24)
58: (depart f24 p14)
59: (down f24 f18)
60: (board f18 p15)
61: (up f18 f48)
62: (depart f48 p15)
63: (down f48 f1)
64: (board f1 p16)
65: (up f1 f20)
66: (depart f20 p16)
67: (down f20 f17)
68: (board f17 p17)
69: (up f17 f24)
70: (depart f24 p17)
71: (up f24 f30)
72: (board f30 p18)
73: (down f30 f16)
74: (depart f16 p18)
75: (down f16 f5)
76: (board f5 p19)
77: (up f5 f33)
78: (depart f33 p19)
79: (down f33 f28)
80: (board f28 p20)
81: (up f28 f29)
82: (depart f29 p20)
83: (up f29 f34)
84: (board f34 p21)
85: (down f34 f32)
86: (depart f32 p21)
87: (up f32 f39)
88: (board f39 p22)
89: (down f39 f4)
90: (depart f4 p22)
91: (up f4 f48)
92: (board f48 p23)
93: (down f48 f10)
94: (depart f10 p23)
95: (up f10 f26)
96: (board f26 p24)
97: (up f26 f27)
98: (depart f27 p24)
99: (down f27 f24)
100: (board f24 p25)
101: (up f24 f31)
102: (depart f31 p25)


