
Compact plan:
0: (up f0 f15)
1: (board f15 p0)
2: (down f15 f7)
3: (depart f7 p0)
4: (down f7 f2)
5: (board f2 p1)
6: (up f2 f4)
7: (depart f4 p1)
8: (up f4 f14)
9: (board f14 p2)
10: (down f14 f6)
11: (depart f6 p2)
12: (up f6 f11)
13: (board f11 p3)
14: (up f11 f13)
15: (depart f13 p3)
16: (down f13 f1)
17: (board f1 p4)
18: (down f1 f0)
19: (depart f0 p4)
20: (up f0 f6)
21: (board f6 p5)
22: (up f6 f13)
23: (depart f13 p5)
24: (down f13 f6)
25: (board f6 p6)
26: (down f6 f3)
27: (depart f3 p6)
28: (up f3 f14)
29: (board f14 p7)
30: (down f14 f13)
31: (depart f13 p7)


