
Compact plan:
0: (up f0 f31)
1: (board f31 p0)
2: (down f31 f7)
3: (depart f7 p0)
4: (up f7 f30)
5: (board f30 p1)
6: (up f30 f34)
7: (depart f34 p1)
8: (up f34 f36)
9: (board f36 p2)
10: (down f36 f34)
11: (depart f34 p2)
12: (down f34 f10)
13: (board f10 p3)
14: (up f10 f19)
15: (depart f19 p3)
16: (down f19 f17)
17: (board f17 p4)
18: (up f17 f45)
19: (depart f45 p4)
20: (down f45 f0)
21: (board f0 p5)
22: (up f0 f38)
23: (depart f38 p5)
24: (down f38 f9)
25: (board f9 p6)
26: (up f9 f22)
27: (depart f22 p6)
28: (up f22 f35)
29: (board f35 p7)
30: (down f35 f30)
31: (depart f30 p7)
32: (up f30 f33)
33: (board f33 p8)
34: (down f33 f28)
35: (depart f28 p8)
36: (down f28 f21)
37: (board f21 p9)
38: (up f21 f47)
39: (depart f47 p9)
40: (down f47 f17)
41: (board f17 p10)
42: (down f17 f6)
43: (depart f6 p10)
44: (up f6 f9)
45: (board f9 p11)
46: (up f9 f36)
47: (depart f36 p11)
48: (up f36 f50)
49: (board f50 p12)
50: (down f50 f3)
51: (depart f3 p12)
52: (up f3 f28)
53: (board f28 p13)
54: (down f28 f19)
55: (depart f19 p13)
56: (up f19 f35)
57: (board f35 p14)
58: (down f35 f26)
59: (depart f26 p14)
60: (down f26 f22)
61: (board f22 p15)
62: (up f22 f43)
63: (depart f43 p15)
64: (down f43 f33)
65: (board f33 p16)
66: (down f33 f0)
67: (depart f0 p16)
68: (up f0 f25)
69: (board f25 p17)
70: (up f25 f45)
71: (depart f45 p17)
72: (down f45 f11)
73: (board f11 p18)
74: (up f11 f12)
75: (depart f12 p18)
76: (up f12 f40)
77: (board f40 p19)
78: (down f40 f28)
79: (depart f28 p19)
80: (up f28 f33)
81: (board f33 p20)
82: (up f33 f40)
83: (depart f40 p20)
84: (up f40 f42)
85: (board f42 p21)
86: (down f42 f38)
87: (depart f38 p21)
88: (down f38 f25)
89: (board f25 p22)
90: (up f25 f48)
91: (depart f48 p22)
92: (down f48 f47)
93: (board f47 p23)
94: (down f47 f2)
95: (depart f2 p23)
96: (up f2 f45)
97: (board f45 p24)
98: (down f45 f42)
99: (depart f42 p24)
100: (up f42 f47)
101: (board f47 p25)
102: (down f47 f27)
103: (depart f27 p25)


