
Compact plan:
0: (up f0 f15)
1: (board f15 p0)
2: (down f15 f11)
3: (depart f11 p0)
4: (down f11 f2)
5: (board f2 p1)
6: (down f2 f0)
7: (depart f0 p1)
8: (up f0 f2)
9: (board f2 p2)
10: (up f2 f18)
11: (depart f18 p2)
12: (down f18 f7)
13: (board f7 p3)
14: (down f7 f5)
15: (depart f5 p3)
16: (up f5 f9)
17: (board f9 p4)
18: (down f9 f4)
19: (depart f4 p4)
20: (up f4 f10)
21: (board f10 p5)
22: (down f10 f9)
23: (depart f9 p5)
24: (down f9 f2)
25: (board f2 p6)
26: (up f2 f19)
27: (depart f19 p6)
28: (down f19 f18)
29: (board f18 p7)
30: (down f18 f13)
31: (depart f13 p7)
32: (down f13 f0)
33: (board f0 p8)
34: (up f0 f13)
35: (depart f13 p8)
36: (down f13 f3)
37: (board f3 p9)
38: (up f3 f9)
39: (depart f9 p9)


