
Compact plan:
0: (unstack b7 b1)
1: (put-down b7)
2: (unstack b1 b5)
3: (put-down b1)
4: (unstack b5 b9)
5: (put-down b5)
6: (unstack b9 b13)
7: (put-down b9)
8: (unstack b13 b12)
9: (put-down b13)
10: (pick-up b4)
11: (stack b4 b13)
12: (unstack b8 b3)
13: (stack b8 b4)
14: (pick-up b11)
15: (stack b11 b8)
16: (unstack b3 b10)
17: (put-down b3)
18: (pick-up b10)
19: (stack b10 b11)
20: (pick-up b5)
21: (stack b5 b10)
22: (pick-up b6)
23: (stack b6 b5)
24: (pick-up b12)
25: (stack b12 b6)
26: (pick-up b2)
27: (stack b2 b12)
28: (pick-up b9)
29: (stack b9 b2)
30: (pick-up b7)
31: (stack b7 b9)
32: (pick-up b3)
33: (stack b3 b7)
34: (pick-up b1)
35: (stack b1 b3)


