
Compact plan:
0: (up f0 f37)
1: (board f37 p0)
2: (up f37 f38)
3: (depart f38 p0)
4: (down f38 f3)
5: (board f3 p1)
6: (up f3 f25)
7: (depart f25 p1)
8: (down f25 f17)
9: (board f17 p2)
10: (down f17 f3)
11: (depart f3 p2)
12: (down f3 f0)
13: (board f0 p3)
14: (up f0 f24)
15: (depart f24 p3)
16: (up f24 f47)
17: (board f47 p4)
18: (up f47 f57)
19: (depart f57 p4)
20: (down f57 f46)
21: (board f46 p5)
22: (up f46 f47)
23: (depart f47 p5)
24: (down f47 f42)
25: (board f42 p6)
26: (down f42 f31)
27: (depart f31 p6)
28: (up f31 f57)
29: (board f57 p7)
30: (down f57 f52)
31: (depart f52 p7)
32: (down f52 f30)
33: (board f30 p8)
34: (up f30 f54)
35: (depart f54 p8)
36: (down f54 f44)
37: (board f44 p9)
38: (down f44 f7)
39: (depart f7 p9)
40: (up f7 f34)
41: (board f34 p10)
42: (up f34 f43)
43: (depart f43 p10)
44: (up f43 f49)
45: (board f49 p11)
46: (down f49 f10)
47: (depart f10 p11)
48: (up f10 f46)
49: (board f46 p12)
50: (down f46 f34)
51: (depart f34 p12)
52: (down f34 f1)
53: (board f1 p13)
54: (up f1 f45)
55: (depart f45 p13)
56: (down f45 f31)
57: (board f31 p14)
58: (down f31 f27)
59: (depart f27 p14)
60: (down f27 f16)
61: (board f16 p15)
62: (down f16 f12)
63: (depart f12 p15)
64: (up f12 f22)
65: (board f22 p16)
66: (up f22 f33)
67: (depart f33 p16)
68: (down f33 f21)
69: (board f21 p17)
70: (up f21 f25)
71: (depart f25 p17)
72: (up f25 f34)
73: (board f34 p18)
74: (up f34 f37)
75: (depart f37 p18)
76: (down f37 f14)
77: (board f14 p19)
78: (up f14 f25)
79: (depart f25 p19)
80: (board f25 p20)
81: (up f25 f53)
82: (depart f53 p20)
83: (down f53 f9)
84: (board f9 p21)
85: (up f9 f48)
86: (depart f48 p21)
87: (down f48 f45)
88: (board f45 p22)
89: (up f45 f54)
90: (depart f54 p22)
91: (down f54 f20)
92: (board f20 p23)
93: (up f20 f33)
94: (depart f33 p23)
95: (up f33 f40)
96: (board f40 p24)
97: (up f40 f57)
98: (depart f57 p24)
99: (down f57 f40)
100: (board f40 p25)
101: (down f40 f9)
102: (depart f9 p25)
103: (up f9 f42)
104: (board f42 p26)
105: (down f42 f32)
106: (depart f32 p26)
107: (down f32 f19)
108: (board f19 p27)
109: (up f19 f22)
110: (depart f22 p27)
111: (down f22 f0)
112: (board f0 p28)
113: (up f0 f20)
114: (depart f20 p28)


