Command : ./interpreter_t-rex_binary_haribo -P -b8192 -e -i f.cnf 
[0.000] This is T-REX interpreter, prototype version 04/2018.
[0.000] Reading problem encoding from file "f.cnf".
[0.001] Parsed head comment information.
[0.017] Processed problem encoding.
[0.018] Calculated possible fact changes of composite elements.
[0.020] Initialized instantiation procedure.
[0.020] 
[0.020] *************************************
[0.020] * * *   M a k e s p a n     0   * * *
[0.020] *************************************
[0.025] Instantiated 5,896 initial clauses.
[0.025] The encoding contains a total of 3,420 distinct variables.
[0.025] Attempting solve with solver <glucose4> ...
c 75 assumptions
[0.026] Executed solver; result: UNSAT.
[0.026] 
[0.026] *************************************
[0.026] * * *   M a k e s p a n     1   * * *
[0.026] *************************************
[0.033] Computed next depth properties: array size of 283.
[0.036] Instantiated 1,370 transitional clauses.
[0.051] 100.0% quadratic At-Most-One encodings, the rest being binary encoded.
[0.051] Instantiated 9,925 universal clauses.
[0.051] Instantiated and added clauses for a total of 17,191 clauses.
[0.051] The encoding contains a total of 6,076 distinct variables.
[0.051] Attempting solve with solver <glucose4> ...
c 283 assumptions
[0.051] Executed solver; result: UNSAT.
[0.051] 
[0.051] *************************************
[0.051] * * *   M a k e s p a n     2   * * *
[0.051] *************************************
[0.071] Computed next depth properties: array size of 883.
[0.078] Instantiated 4,490 transitional clauses.
[0.111] 100.0% quadratic At-Most-One encodings, the rest being binary encoded.
[0.111] Instantiated 32,665 universal clauses.
[0.111] Instantiated and added clauses for a total of 54,346 clauses.
[0.111] The encoding contains a total of 11,906 distinct variables.
[0.111] Attempting solve with solver <glucose4> ...
c 883 assumptions
c last restart ## conflicts  :  52 996 
[0.122] Executed solver; result: SAT.
[0.122] Solver returned SAT; a solution has been found at makespan 2.
882
solution 1650 1
3 153 569 570 155 1049 573 151 1291 1527 1528 1529 1293 1294 4 158 576 577 160 1051 574 156 1286 1408 1534 1409 1288 1289 6 164 582 583 166 1055 588 162 1286 1320 1536 1321 1288 1289 9 171 593 594 173 1061 597 169 1291 1506 1539 1507 1293 1294 11 179 601 602 177 1065 605 175 1291 1366 1541 1367 1293 1294 12 182 608 609 184 1067 606 180 1286 1530 1542 1531 1288 1289 14 190 614 615 188 1071 620 186 1286 1468 1544 1469 1288 1289 16 196 624 625 194 1075 622 192 1286 1476 1546 1477 1288 1289 19 203 633 634 201 1081 637 199 1291 1458 1549 1459 1293 1294 21 207 641 642 209 1085 645 205 1291 1378 1551 1379 1293 1294 22 212 648 649 214 1087 646 210 1286 1488 1552 1489 1288 1289 24 218 654 655 220 1091 660 216 1286 1384 1554 1385 1288 1289 26 226 662 663 224 1095 668 222 1286 1464 1556 1465 1288 1289 28 230 672 673 232 1099 670 228 1286 1348 1558 1349 1288 1289 31 239 681 682 237 1105 685 235 1291 1446 1561 1447 1293 1294 32 242 688 689 244 1107 686 240 1286 1396 1562 1397 1288 1289 34 246 694 695 250 1111 700 247 1286 1332 1564 1333 1288 1289 37 257 707 708 255 1117 703 253 1291 1418 1567 1419 1293 1294 38 262 712 713 260 1119 710 258 1286 1508 1568 1509 1288 1289 40 266 718 719 268 1123 724 264 1286 1436 1570 1437 1288 1289 42 272 728 729 274 1127 726 270 1286 1400 1572 1401 1288 1289 44 278 734 735 280 1131 740 276 1286 1452 1574 1453 1288 1289 46 286 744 745 284 1135 742 282 1286 1412 1576 1413 1288 1289 48 292 750 751 290 1139 756 288 1286 1420 1578 1421 1288 1289 50 298 760 761 296 1143 758 294 1286 1380 1580 1381 1288 1289 52 304 766 767 302 1147 772 300 1286 1516 1582 1517 1288 1289 54 306 776 777 310 1151 774 307 1286 1480 1584 1481 1288 1289 57 317 785 786 315 1157 789 313 1291 1302 1587 1303 1293 1294 59 323 795 796 321 1161 791 319 1291 1494 1589 1495 1293 1294 60 324 798 799 328 1163 804 325 1286 1500 1590 1501 1288 1289 62 332 806 807 334 1167 812 330 1286 1304 1592 1305 1288 1289 64 338 814 815 340 1171 820 336 1286 1520 1594 1521 1288 1289 66 344 824 825 346 1175 822 342 1286 1432 1596 1433 1288 1289 68 352 830 831 350 1179 836 348 1286 1340 1598 1341 1288 1289 70 356 838 839 358 1183 844 354 1286 1344 1600 1345 1288 1289 72 362 846 847 364 1187 852 360 1286 1296 1602 1297 1288 1289 74 370 854 855 368 1191 860 366 1286 1460 1604 1461 1288 1289 76 376 864 865 374 1195 862 372 1286 1360 1606 1361 1288 1289 78 382 870 871 380 1199 876 378 1286 1287 1608 1290 1288 1289 80 388 878 879 384 1203 884 385 1286 1440 1610 1441 1288 1289 82 394 886 887 392 1207 892 390 1286 1336 1612 1337 1288 1289 84 398 896 897 400 1211 894 396 1286 1312 1614 1313 1288 1289 86 406 904 905 404 1215 902 402 1286 1372 1616 1373 1288 1289 89 413 913 914 411 1221 917 409 1291 1326 1619 1327 1293 1294 91 419 923 924 417 1225 919 415 1291 1426 1621 1427 1293 1294 93 423 931 932 425 1229 927 421 1291 1486 1623 1487 1293 1294 94 430 934 935 428 1231 940 426 1286 1316 1624 1317 1288 1289 96 434 942 943 436 1235 948 432 1286 1496 1626 1497 1288 1289 98 440 950 951 442 1239 956 438 1286 1448 1628 1449 1288 1289 100 448 960 961 446 1243 958 444 1286 1356 1630 1357 1288 1289 102 452 968 969 454 1247 966 450 1286 1404 1632 1405 1288 1289 104 458 974 975 460 1251 980 456 1286 1328 1634 1329 1288 1289 106 466 982 983 464 1255 988 462 1286 1352 1636 1353 1288 1289 108 472 990 991 470 1259 996 468 1286 1512 1638 1513 1288 1289 110 478 1000 1001 476 1263 998 474 1286 1472 1640 1473 1288 1289 112 484 1008 1009 482 1267 1006 480 1286 1388 1642 1389 1288 1289 114 486 1016 1017 490 1271 1014 487 1286 1392 1644 1393 1288 1289 116 496 1022 1023 494 1275 1028 492 1286 1428 1646 1429 1288 1289 118 500 1032 1033 502 1279 1030 498 1286 1368 1648 1369 1288 1289 120 508 1038 1039 506 1283 1044 504 1286 1308 1650 1309 1288 1289 123 513 511 124 516 514 126 520 518 128 524 522 130 528 526 132 532 530 134 536 534 136 540 538 139 545 543 140 548 546 143 553 551 144 556 554 146 560 558 149 565 563 
[0.125] Exiting.
