
Compact plan:
0: (unstack b4 b1)
1: (put-down b4)
2: (unstack b1 b7)
3: (put-down b1)
4: (unstack b7 b9)
5: (put-down b7)
6: (unstack b9 b17)
7: (put-down b9)
8: (unstack b17 b13)
9: (put-down b17)
10: (unstack b13 b15)
11: (stack b13 b7)
12: (unstack b15 b5)
13: (put-down b15)
14: (unstack b5 b3)
15: (put-down b5)
16: (pick-up b1)
17: (stack b1 b5)
18: (unstack b13 b7)
19: (put-down b13)
20: (pick-up b7)
21: (stack b7 b1)
22: (pick-up b13)
23: (stack b13 b7)
24: (pick-up b11)
25: (stack b11 b13)
26: (unstack b3 b12)
27: (stack b3 b11)
28: (unstack b8 b20)
29: (put-down b8)
30: (unstack b20 b18)
31: (put-down b20)
32: (unstack b18 b6)
33: (put-down b18)
34: (unstack b6 b16)
35: (put-down b6)
36: (unstack b16 b2)
37: (put-down b16)
38: (unstack b2 b14)
39: (put-down b2)
40: (pick-up b12)
41: (stack b12 b2)
42: (pick-up b4)
43: (stack b4 b12)
44: (pick-up b20)
45: (stack b20 b4)
46: (unstack b21 b10)
47: (stack b21 b20)
48: (unstack b10 b19)
49: (stack b10 b16)
50: (pick-up b8)
51: (stack b8 b10)
52: (pick-up b9)
53: (stack b9 b8)
54: (pick-up b19)
55: (stack b19 b9)
56: (pick-up b18)
57: (stack b18 b15)
58: (pick-up b17)
59: (stack b17 b18)


