
Compact plan:
0: (up f0 f11)
1: (board f11 p0)
2: (down f11 f0)
3: (depart f0 p0)
4: (up f0 f29)
5: (board f29 p1)
6: (down f29 f25)
7: (depart f25 p1)
8: (up f25 f29)
9: (board f29 p2)
10: (down f29 f23)
11: (depart f23 p2)
12: (down f23 f14)
13: (board f14 p3)
14: (up f14 f24)
15: (depart f24 p3)
16: (down f24 f11)
17: (board f11 p4)
18: (down f11 f1)
19: (depart f1 p4)
20: (up f1 f40)
21: (board f40 p5)
22: (down f40 f39)
23: (depart f39 p5)
24: (down f39 f6)
25: (board f6 p6)
26: (up f6 f17)
27: (depart f17 p6)
28: (down f17 f9)
29: (board f9 p7)
30: (up f9 f40)
31: (depart f40 p7)
32: (down f40 f38)
33: (board f38 p8)
34: (down f38 f10)
35: (depart f10 p8)
36: (down f10 f8)
37: (board f8 p9)
38: (up f8 f12)
39: (depart f12 p9)
40: (up f12 f39)
41: (board f39 p10)
42: (down f39 f34)
43: (depart f34 p10)
44: (down f34 f25)
45: (board f25 p11)
46: (down f25 f3)
47: (depart f3 p11)
48: (up f3 f24)
49: (board f24 p12)
50: (down f24 f16)
51: (depart f16 p12)
52: (up f16 f30)
53: (board f30 p13)
54: (down f30 f27)
55: (depart f27 p13)
56: (up f27 f39)
57: (board f39 p14)
58: (down f39 f27)
59: (depart f27 p14)
60: (up f27 f45)
61: (board f45 p15)
62: (down f45 f44)
63: (depart f44 p15)
64: (down f44 f28)
65: (board f28 p16)
66: (down f28 f22)
67: (depart f22 p16)
68: (down f22 f17)
69: (board f17 p17)
70: (down f17 f5)
71: (depart f5 p17)
72: (up f5 f45)
73: (board f45 p18)
74: (down f45 f32)
75: (depart f32 p18)
76: (down f32 f23)
77: (board f23 p19)
78: (down f23 f10)
79: (depart f10 p19)
80: (up f10 f27)
81: (board f27 p20)
82: (down f27 f17)
83: (depart f17 p20)
84: (up f17 f43)
85: (board f43 p21)
86: (down f43 f33)
87: (depart f33 p21)
88: (down f33 f28)
89: (board f28 p22)
90: (down f28 f1)
91: (depart f1 p22)


