Command : ./interpreter_t-rex_binary_haribo -P -b8192 -i f.cnf 
[0.000] This is T-REX interpreter, prototype version 04/2018.
[0.000] Reading problem encoding from file "f.cnf".
[0.005] Parsed head comment information.
[0.187] Processed problem encoding.
[0.205] Calculated possible fact changes of composite elements.
[0.220] Initialized instantiation procedure.
[0.220] 
[0.220] *************************************
[0.220] * * *   M a k e s p a n     0   * * *
[0.220] *************************************
[0.264] Instantiated 41,498 initial clauses.
[0.264] The encoding contains a total of 21,002 distinct variables.
[0.264] Attempting solve with solver <glucose4> ...
c 101 assumptions
[0.265] Executed solver; result: UNSAT.
[0.265] 
[0.265] *************************************
[0.265] * * *   M a k e s p a n     1   * * *
[0.265] *************************************
[0.362] Computed next depth properties: array size of 201.
[0.405] Instantiated 40,500 transitional clauses.
[0.589] Instantiated 184,296 universal clauses.
[0.589] Instantiated and added clauses for a total of 266,294 clauses.
[0.589] The encoding contains a total of 84,319 distinct variables.
[0.589] Attempting solve with solver <glucose4> ...
c 201 assumptions
[0.590] Executed solver; result: UNSAT.
[0.590] 
[0.590] *************************************
[0.590] * * *   M a k e s p a n     2   * * *
[0.590] *************************************
[0.792] Computed next depth properties: array size of 401.
[0.942] Instantiated 120,000 transitional clauses.
[1.309] Instantiated 924,796 universal clauses.
[1.309] Instantiated and added clauses for a total of 1,311,090 clauses.
[1.309] The encoding contains a total of 168,221 distinct variables.
[1.309] Attempting solve with solver <glucose4> ...
c 401 assumptions
c last restart ## conflicts  :  0 420 
[1.310] Executed solver; result: SAT.
[1.310] Solver returned SAT; a solution has been found at makespan 2.
400
solution 25881 1
7348 2 13312 15425 455 3 15544 15426 601 4 12022 15427 727 5 20618 15428 780 6 9315 15429 7667 7 20842 15430 7738 8 15843 15431 7893 9 5676 15432 1154 10 11703 15433 1406 11 12517 15434 8117 12 1715 15435 8347 13 20966 15436 1103 14 7316 15437 8498 15 16252 15438 8717 16 16476 15439 1696 17 13845 15440 1721 18 21070 15441 8962 19 21137 15442 9042 20 21362 15443 9196 21 21450 15444 2020 22 15079 15445 9299 23 21633 15446 9394 24 21792 15447 9519 25 21925 15448 2452 26 16980 15449 9858 27 22063 15450 9954 28 17287 15451 2701 29 17374 15452 2890 30 17560 15453 10245 31 17742 15454 3062 32 22325 15455 10329 33 22565 15456 10405 34 17863 15457 3355 35 3999 15458 3468 36 22809 15459 10650 37 5813 15460 8730 38 14377 15461 10896 39 11843 15462 3754 40 7856 15463 3896 41 7968 15464 11131 42 23070 15465 11224 43 23162 15466 8465 44 23304 15467 11419 45 23389 15468 11570 46 6415 15469 11740 47 23572 15470 11908 48 21292 15471 11993 49 23640 15472 12044 50 21074 15473 12255 51 21647 15474 1546 52 18303 15475 4504 53 10205 15476 4652 54 17586 15477 8509 55 8876 15478 1958 56 1588 15479 12486 57 18473 15480 4972 58 18609 15481 12699 59 4660 15482 10737 60 22019 15483 12828 61 24121 15484 12978 62 1351 15485 10447 63 21593 15486 13100 64 980 15487 5280 65 18718 15488 5564 66 15686 15489 5490 67 18890 15490 13260 68 24359 15491 5736 69 10595 15492 13361 70 24651 15493 11225 71 9453 15494 8654 72 3100 15495 1558 73 5709 15496 13497 74 7229 15497 13700 75 17479 15498 5974 76 24689 15499 2223 77 19239 15500 3386 78 24810 15501 14065 79 23461 15502 6153 80 19350 15503 9592 81 25061 15504 10233 82 814 15505 14172 83 25141 15506 6332 84 19763 15507 6471 85 7186 15508 14535 86 25291 15509 10167 87 22591 15510 12926 88 16049 15511 6674 89 19948 15512 6241 90 11230 15513 14800 91 14904 15514 4047 92 20156 15515 14932 93 25489 15516 6822 94 25633 15517 13304 95 2545 15518 7008 96 20368 15519 7049 97 25881 15520 15311 98 20535 15521 8596 99 22280 15522 7295 100 13594 15523 14268 101 3977 15524 
[1.325] Exiting.
