
Compact plan:
0: (up f0 f3)
1: (board f3 p0)
2: (down f3 f0)
3: (depart f0 p0)
4: (up f0 f4)
5: (board f4 p1)
6: (down f4 f2)
7: (depart f2 p1)
8: (up f2 f3)
9: (board f3 p2)
10: (up f3 f4)
11: (depart f4 p2)
12: (down f4 f0)
13: (board f0 p3)
14: (up f0 f4)
15: (depart f4 p3)
16: (up f4 f9)
17: (board f9 p4)
18: (down f9 f0)
19: (depart f0 p4)


