
Compact plan:
0: (up f0 f5)
1: (board f5 p0)
2: (down f5 f1)
3: (depart f1 p0)
4: (up f1 f2)
5: (board f2 p1)
6: (down f2 f0)
7: (depart f0 p1)
8: (up f0 f2)
9: (board f2 p2)
10: (up f2 f8)
11: (depart f8 p2)
12: (down f8 f7)
13: (board f7 p3)
14: (down f7 f5)
15: (depart f5 p3)
16: (up f5 f9)
17: (board f9 p4)
18: (down f9 f4)
19: (depart f4 p4)


