htn_pb01       98      101       70       96     0,05     0,00    0,01     0,06     0,00     0,00       19    24
htn_pb02       88       97       63       88     0,05     0,00    0,01     0,06     0,00     0,00       19    23
htn_pb03      124      141       85      140     0,06     0,00       -        -        -        -        -     -
htn_pb04      136      149       94      141     0,07     0,00    0,01     0,08     0,00     0,00       20    26
htn_pb05      154      216      151      205     0,09     0,00    0,02     0,11     0,00     0,00       46    60
htn_pb06      166      287      182      358     0,11     0,00       -        -        -        -        -     -
htn_pb07      272      556      342      724     0,17     0,00    0,05     0,23     0,00     0,00       64    87
htn_pb08      286      629      372      910     0,22     0,00       -        -        -        -        -     -
htn_pb09      316      651      394      845     0,25     0,00       -        -        -        -        -     -
htn_pb10     1108     9291     4012    21710     8,91     0,00    4,51    13,42     0,00     0,00      504   401
htn_pb11     1390    13673     6012    32400    21,12     0,00    5,93    27,06     0,00     0,00      476   316
htn_pb12     1382    11775     4353    29672    19,46     0,00    9,23    28,68     0,00     0,00      685   553
htn_pb13     1912    20226     7288    53081    63,70     0,00   17,97    81,66     0,00     0,00      777   490
htn_pb14     1472    13378     4010    35998    23,41     0,00    4,35    27,75     0,00     0,00      412   343
htn_pb15     1788    17684     5019    49792    47,46     0,00    6,34    53,80     0,00     0,00      450   386
htn_pb16     2048    26187     9854    67990   101,51     0,00   26,38   127,89     0,00     0,00      863   469
htn_pb17     2234    30476     9742    84710   153,39     0,00   14,73   168,12     0,00     0,00      614   349
htn_pb18     2610    36441    10530   104526   255,72     0,00   49,95   305,67     0,00     0,00     1079   637
htn_pb19     3376    58607    14869   177131   889,13     0,00  175,40  1064,53     0,00     0,00     1771   895
