HTN_pb01       98      101       70       96     0,12     0,00    0,02     0,15     0,00     0,00       19    24
HTN_pb02       88       97       63       88     0,08     0,00    0,08     0,15     0,00     0,00       19    23
HTN_pb03      124      141       85      140     0,14     0,00       -        -        -        -        -     -
HTN_pb04      136      149       94      141     0,15     0,00    0,02     0,17     0,00     0,00       20    26
HTN_pb05      154      216      151      205     0,22     0,00    0,18     0,40     0,00     0,00       46    60
HTN_pb06      166      287      182      358     0,28     0,00       -        -        -        -        -     -
HTN_pb07      272      556      342      724     0,40     0,00    0,08     0,48     0,00     0,00       64    87
HTN_pb08      286      629      372      910     0,44     0,00       -        -        -        -        -     -
HTN_pb09      316      651      394      845     0,42     0,00       -        -        -        -        -     -
HTN_pb10     1108     9291     4012    21710    19,28     0,00    4,92    24,20     0,00     0,00      504   401
HTN_pb11     1390    13673     6012    32400    28,73     0,00    5,79    34,52     0,00     0,00      476   316
HTN_pb12     1382    11775     4353    29672    20,67     0,00   10,56    31,23     0,00     0,00      685   553
HTN_pb13     1912    20226     7288    53081    58,93     0,00   17,35    76,28     0,00     0,00      777   490
HTN_pb14     1472    13378     4010    35998    27,10     0,00    3,87    30,97     0,00     0,00      412   343
HTN_pb15     1788    17684     5019    49792    65,06     0,00    6,17    71,23     0,00     0,00      450   386
HTN_pb16     2048    26187     9854    67990   148,26     0,00   25,99   174,25     0,00     0,00      863   469
HTN_pb17     2234    30476     9742    84710   179,94     0,00   16,00   195,93     0,00     0,00      614   349
HTN_pb18     2610    36441    10530   104526   240,69     0,00   53,60   294,29     0,00     0,00     1079   637
HTN_pb19     3376    58607    14869   177131   759,70     0,00  174,90   934,61     0,00     0,00     1771   895
