htn_pb01       98       96       65       91     0,04     0,00    0,01     0,05     0,00     0,00       25    36
htn_pb02       88       95       61       86     0,04     0,00    0,01     0,05     0,00     0,00       25    33
htn_pb03      124      137       81      136     0,06     0,00       -        -        -        -        -     -
htn_pb04      136      145       90      137     0,06     0,00    0,01     0,07     0,00     0,00       22    28
htn_pb05      154      212      147      201     0,07     0,00    0,03     0,10     0,00     0,00       54    72
htn_pb06      166      280      175      351     0,10     0,00       -        -        -        -        -     -
htn_pb07      272      538      324      706     0,17     0,00    0,06     0,23     0,00     0,00       72    97
htn_pb08      286      622      365      903     0,20     0,00       -        -        -        -        -     -
htn_pb09      316      640      383      834     0,22     0,00       -        -        -        -        -     -
htn_pb10     1108     9274     3995    21693    13,35     0,00    6,04    19,40     0,00     0,00      526   425
htn_pb11     1390    13625     5964    32352    23,64     0,00    8,46    32,09     0,00     0,00      545   352
htn_pb12     1382    11744     4322    29641    21,77     0,00   13,11    34,87     0,00     0,00      751   595
htn_pb13     1912    20171     7233    53026    66,10     0,00   27,19    93,29     0,00     0,00      954   565
htn_pb14     1472    13332     3964    35952    26,65     0,00    5,34    32,00     0,00     0,00      444   373
htn_pb15     1788    17645     4980    49753    54,17     0,00    8,20    62,37     0,00     0,00      506   435
htn_pb16     2048    26135     9802    67938   104,34     0,00   34,17   138,52     0,00     0,00     1027   529
htn_pb17     2234    30434     9700    84668   169,54     0,00   18,01   187,55     0,00     0,00      666   376
htn_pb18     2610    36365    10454   104450   262,42     0,00   62,04   324,46     0,00     0,00     1154   697
htn_pb19     3376    58528    14790   177052   867,49     0,00  202,73  1070,22     0,00     0,00     1941   973
