htn_pb01       88      117       63      106     0,04     0,00    0,01     0,05     0,00     0,00       22    30
htn_pb02       98      114       70      108     0,04     0,00    0,01     0,06     0,00     0,00       25    39
htn_pb03      136      217       94      207     0,05     0,00    0,01     0,07     0,00     0,00       21    27
htn_pb04      154      275      151      263     0,06     0,00    0,05     0,11     0,00     0,00      217    73
htn_pb05      272      732      342      894     0,11     0,00    0,05     0,16     0,00     0,00       67    95
htn_pb06      274     1143      374     1507     0,18     0,00    0,07     0,26     0,00     0,00       55    72
htn_pb07      312     1460      547     2181     0,23     0,00    0,07     0,30     0,00     0,00       72    96
htn_pb08      440     1815      697     2934     0,30     0,00    0,14     0,44     0,00     0,00      139   177
htn_pb09      864     5632     1867    11117     1,14     0,00    0,49     1,63     0,00     0,00      202   210
htn_pb10     1108    13405     4012    25820     3,65     0,00    6,24     9,89     0,00     0,00      519   501
htn_pb11     1390    17385     6012    36103     5,91     0,00    4,54    10,45     0,00     0,00      339   318
htn_pb12     1472    18293     4010    40900     5,53     0,00    2,43     7,96     0,00     0,00      326   279
htn_pb13     1382    15777     4353    33665     4,99     0,00   12,30    17,29     0,00     0,00     1175   534
htn_pb14     1788    22423     5019    54527     9,61     0,00    3,81    13,42     0,00     0,00      347   402
htn_pb15     1912    26219     7288    59068    10,95     0,00    8,25    19,20     0,00     0,00      521   432
htn_pb16     2048    36050     9854    77846    16,91     0,00   10,30    27,21     0,00     0,00      494   436
htn_pb17     2234    40244     9742    94471    23,92     0,00    7,14    31,07     0,00     0,00      651   342
htn_pb18     2610    46203    10530   114282    33,19     0,00   24,67    57,86     0,00     0,00      730   591
htn_pb19     3376    74725    14869   193236    83,54     0,00  112,81   196,35     0,00     0,00     1172  1191
htn_pb20     3530    81624    14597   221302   105,96     0,00   79,08   185,04     0,00     0,00     1207   858
htn_pb21     4218    92799    17361   254912   135,98     0,00       -        -        -        -        -     -
htn_pb22     3962   106851    19610   296576   203,13     0,00  908,59  1111,72     0,00     0,00     5691  1545
htn_pb23     6574   202049    32810   597543   806,58     0,00       -        -        -        -        -     -
