htn_pb01       88      111       61      100     0,04     0,00    0,01     0,05     0,00     0,00       25    33
htn_pb02       98      108       65      102     0,04     0,00    0,01     0,05     0,00     0,00       25    36
htn_pb03      136      209       90      199     0,05     0,00    0,01     0,06     0,00     0,00       22    28
htn_pb04      154      265      147      253     0,05     0,00    0,04     0,09     0,00     0,00       94    72
htn_pb05      272      700      324      862     0,11     0,00    0,06     0,16     0,00     0,00       72    97
htn_pb06      274     1105      363     1469     0,15     0,00    0,04     0,19     0,00     0,00       57    73
htn_pb07      312     1428      541     2149     0,22     0,00    0,08     0,30     0,00     0,00       89   124
htn_pb08      440     1783      679     2902     0,29     0,00    0,19     0,47     0,00     0,00      177   211
htn_pb09      864     5596     1858    11081     1,19     0,00    0,78     1,97     0,00     0,00      281   257
htn_pb10     1108    13277     3995    25692     3,71     0,00    5,51     9,22     0,00     0,00      551   425
htn_pb11     1390    17279     5964    35997     7,17     0,00    6,96    14,13     0,00     0,00      545   352
htn_pb12     1472    18135     3964    40742     6,76     0,00    4,44    11,19     0,00     0,00      444   373
htn_pb13     1382    15685     4322    33573     5,66     0,00   11,69    17,35     0,00     0,00      835   595
htn_pb14     1788    22323     4980    54427    11,47     0,00    6,29    17,76     0,00     0,00      506   435
htn_pb15     1912    26079     7233    58928    15,28     0,00   23,87    39,14     0,00     0,00      954   565
htn_pb16     2048    35832     9802    77628    22,42     0,00   29,60    52,03     0,00     0,00     1027   529
htn_pb17     2234    40086     9700    94313    35,29     0,00   14,16    49,45     0,00     0,00      709   376
htn_pb18     2610    46023    10454   114102    48,96     0,00   53,86   102,82     0,00     0,00     1154   697
htn_pb19     3376    74489    14790   193000   141,80     0,00  173,18   314,98     0,00     0,00     2001   973
htn_pb20     3530    81410    14537   221088   176,40     0,00  150,75   327,15     0,00     0,00     1753   988
htn_pb21     4218    92559    17263   254672   236,31     0,00  950,64  1186,95     0,00     0,00     5417  1206
htn_pb22     3962   106659    19562   296384   272,24     0,00 1188,57  1460,80     0,00     0,00     4853  1873
htn_pb23     6574   201797    32721   597291  1258,79     0,00       -        -        -        -        -     -
