
Compact plan:
0: (up f0 f43)
1: (board f43 p0)
2: (up f43 f46)
3: (depart f46 p0)
4: (up f46 f57)
5: (board f57 p1)
6: (down f57 f55)
7: (depart f55 p1)
8: (down f55 f53)
9: (board f53 p2)
10: (up f53 f55)
11: (depart f55 p2)
12: (down f55 f46)
13: (board f46 p3)
14: (down f46 f12)
15: (depart f12 p3)
16: (down f12 f9)
17: (board f9 p4)
18: (down f9 f1)
19: (depart f1 p4)
20: (up f1 f2)
21: (board f2 p5)
22: (up f2 f7)
23: (depart f7 p5)
24: (up f7 f50)
25: (board f50 p6)
26: (down f50 f19)
27: (depart f19 p6)
28: (up f19 f23)
29: (board f23 p7)
30: (up f23 f46)
31: (depart f46 p7)
32: (down f46 f0)
33: (board f0 p8)
34: (up f0 f6)
35: (depart f6 p8)
36: (up f6 f52)
37: (board f52 p9)
38: (down f52 f16)
39: (depart f16 p9)
40: (down f16 f11)
41: (board f11 p10)
42: (down f11 f8)
43: (depart f8 p10)
44: (up f8 f27)
45: (board f27 p11)
46: (down f27 f9)
47: (depart f9 p11)
48: (down f9 f2)
49: (board f2 p12)
50: (up f2 f50)
51: (depart f50 p12)
52: (down f50 f2)
53: (board f2 p13)
54: (up f2 f43)
55: (depart f43 p13)
56: (down f43 f7)
57: (board f7 p14)
58: (up f7 f55)
59: (depart f55 p14)
60: (down f55 f29)
61: (board f29 p15)
62: (up f29 f42)
63: (depart f42 p15)
64: (board f42 p16)
65: (down f42 f18)
66: (depart f18 p16)
67: (up f18 f29)
68: (board f29 p17)
69: (down f29 f27)
70: (depart f27 p17)
71: (down f27 f13)
72: (board f13 p18)
73: (up f13 f16)
74: (depart f16 p18)
75: (up f16 f31)
76: (board f31 p19)
77: (down f31 f22)
78: (depart f22 p19)
79: (down f22 f9)
80: (board f9 p20)
81: (up f9 f33)
82: (depart f33 p20)
83: (down f33 f21)
84: (board f21 p21)
85: (up f21 f59)
86: (depart f59 p21)
87: (down f59 f44)
88: (board f44 p22)
89: (down f44 f37)
90: (depart f37 p22)
91: (up f37 f38)
92: (board f38 p23)
93: (up f38 f44)
94: (depart f44 p23)
95: (down f44 f35)
96: (board f35 p24)
97: (down f35 f30)
98: (depart f30 p24)
99: (up f30 f53)
100: (board f53 p25)
101: (down f53 f46)
102: (depart f46 p25)
103: (down f46 f31)
104: (board f31 p26)
105: (down f31 f20)
106: (depart f20 p26)
107: (up f20 f56)
108: (board f56 p27)
109: (down f56 f33)
110: (depart f33 p27)
111: (down f33 f2)
112: (board f2 p28)
113: (up f2 f50)
114: (depart f50 p28)
115: (down f50 f16)
116: (board f16 p29)
117: (down f16 f1)
118: (depart f1 p29)


