Elevator 01 T-REX -i {-P,-b8192,-e}
Elevator 02 T-REX -i {-P,-b8192,-e}
Elevator 03 T-REX -i {-P,-b8192,-e}
Elevator 04 T-REX -i {-P,-b8192,-e}
Elevator 05 T-REX -i {-P,-b8192,-e}
Elevator 06 T-REX -i {-P,-b8192,-e}
Elevator 07 T-REX -i {-P,-b8192,-e}
Elevator 08 T-REX -i {-P,-b8192,-e}
Elevator 09 T-REX -i {-P,-b8192,-e}
Elevator 10 T-REX -i {-P,-b8192,-e}
Elevator 11 T-REX -i {-P,-b8192,-e}
Elevator 12 T-REX -i {-P,-b8192,-e}
Elevator 13 T-REX -i {-P,-b8192,-e}
Elevator 14 T-REX -i {-P,-b8192,-e}
Elevator 15 T-REX -i {-P,-b8192,-e}
Elevator 16 T-REX -i {-P,-b8192,-e}
Elevator 17 T-REX -i {-P,-b8192,-e}
Elevator 18 T-REX -i {-P,-b8192,-e}
Elevator 19 T-REX -i {-P,-b8192,-e}
Elevator 20 T-REX -i {-P,-b8192,-e}
Elevator 21 T-REX -i {-P,-b8192,-e}
Elevator 22 T-REX -i {-P,-b8192,-e}
Elevator 23 T-REX -i {-P,-b8192,-e}
Elevator 24 T-REX -i {-P,-b8192,-e}
Elevator 25 T-REX -i {-P,-b8192,-e}
Elevator 26 T-REX -i {-P,-b8192,-e}
Elevator 27 T-REX -i {-P,-b8192,-e}
Elevator 28 T-REX -i {-P,-b8192,-e}
Elevator 29 T-REX -i {-P,-b8192,-e}
Elevator 30 T-REX -i {-P,-b8192,-e}
Elevator 31 T-REX -i {-P,-b8192,-e}
Elevator 32 T-REX -i {-P,-b8192,-e}
Elevator 33 T-REX -i {-P,-b8192,-e}
Elevator 34 T-REX -i {-P,-b8192,-e}
Elevator 35 T-REX -i {-P,-b8192,-e}
Elevator 36 T-REX -i {-P,-b8192,-e}
Elevator 37 T-REX -i {-P,-b8192,-e}
Elevator 38 T-REX -i {-P,-b8192,-e}
Elevator 39 T-REX -i {-P,-b8192,-e}
Elevator 40 T-REX -i {-P,-b8192,-e}
Elevator 41 T-REX -i {-P,-b8192,-e}
Elevator 42 T-REX -i {-P,-b8192,-e}
Elevator 43 T-REX -i {-P,-b8192,-e}
Elevator 44 T-REX -i {-P,-b8192,-e}
Elevator 45 T-REX -i {-P,-b8192,-e}
Elevator 46 T-REX -i {-P,-b8192,-e}
Elevator 47 T-REX -i {-P,-b8192,-e}
Elevator 48 T-REX -i {-P,-b8192,-e}
Elevator 49 T-REX -i {-P,-b8192,-e}
Elevator 50 T-REX -i {-P,-b8192,-e}
Elevator 51 T-REX -i {-P,-b8192,-e}
Elevator 52 T-REX -i {-P,-b8192,-e}
Elevator 53 T-REX -i {-P,-b8192,-e}
Elevator 54 T-REX -i {-P,-b8192,-e}
Elevator 55 T-REX -i {-P,-b8192,-e}
Elevator 56 T-REX -i {-P,-b8192,-e}
Elevator 57 T-REX -i {-P,-b8192,-e}
Elevator 58 T-REX -i {-P,-b8192,-e}
Elevator 59 T-REX -i {-P,-b8192,-e}
Elevator 60 T-REX -i {-P,-b8192,-e}
Elevator 61 T-REX -i {-P,-b8192,-e}
Elevator 62 T-REX -i {-P,-b8192,-e}
Elevator 63 T-REX -i {-P,-b8192,-e}
Elevator 64 T-REX -i {-P,-b8192,-e}
Elevator 65 T-REX -i {-P,-b8192,-e}
Elevator 66 T-REX -i {-P,-b8192,-e}
Elevator 67 T-REX -i {-P,-b8192,-e}
Elevator 68 T-REX -i {-P,-b8192,-e}
Elevator 69 T-REX -i {-P,-b8192,-e}
Elevator 70 T-REX -i {-P,-b8192,-e}
Elevator 71 T-REX -i {-P,-b8192,-e}
Elevator 72 T-REX -i {-P,-b8192,-e}
Elevator 73 T-REX -i {-P,-b8192,-e}
Elevator 74 T-REX -i {-P,-b8192,-e}
Elevator 75 T-REX -i {-P,-b8192,-e}
Elevator 76 T-REX -i {-P,-b8192,-e}
Elevator 77 T-REX -i {-P,-b8192,-e}
Elevator 78 T-REX -i {-P,-b8192,-e}
Elevator 79 T-REX -i {-P,-b8192,-e}
Elevator 80 T-REX -i {-P,-b8192,-e}
Elevator 81 T-REX -i {-P,-b8192,-e}
Elevator 82 T-REX -i {-P,-b8192,-e}
Elevator 83 T-REX -i {-P,-b8192,-e}
Elevator 84 T-REX -i {-P,-b8192,-e}
Elevator 85 T-REX -i {-P,-b8192,-e}
Elevator 86 T-REX -i {-P,-b8192,-e}
Elevator 87 T-REX -i {-P,-b8192,-e}
Elevator 88 T-REX -i {-P,-b8192,-e}
Elevator 89 T-REX -i {-P,-b8192,-e}
Elevator 90 T-REX -i {-P,-b8192,-e}
Elevator 91 T-REX -i {-P,-b8192,-e}
Elevator 92 T-REX -i {-P,-b8192,-e}
Elevator 93 T-REX -i {-P,-b8192,-e}
Elevator 94 T-REX -i {-P,-b8192,-e}
Elevator 95 T-REX -i {-P,-b8192,-e}
Elevator 96 T-REX -i {-P,-b8192,-e}
Elevator 97 T-REX -i {-P,-b8192,-e}
Elevator 98 T-REX -i {-P,-b8192,-e}
Elevator 99 T-REX -i {-P,-b8192,-e}
Elevator 100 T-REX -i {-P,-b8192,-e}
Elevator 101 T-REX -i {-P,-b8192,-e}
Elevator 102 T-REX -i {-P,-b8192,-e}
Elevator 103 T-REX -i {-P,-b8192,-e}
Elevator 104 T-REX -i {-P,-b8192,-e}
Elevator 105 T-REX -i {-P,-b8192,-e}
Elevator 106 T-REX -i {-P,-b8192,-e}
Elevator 107 T-REX -i {-P,-b8192,-e}
Elevator 108 T-REX -i {-P,-b8192,-e}
Elevator 109 T-REX -i {-P,-b8192,-e}
Elevator 110 T-REX -i {-P,-b8192,-e}
Elevator 111 T-REX -i {-P,-b8192,-e}
Elevator 112 T-REX -i {-P,-b8192,-e}
Elevator 113 T-REX -i {-P,-b8192,-e}
Elevator 114 T-REX -i {-P,-b8192,-e}
Elevator 115 T-REX -i {-P,-b8192,-e}
Elevator 116 T-REX -i {-P,-b8192,-e}
Elevator 117 T-REX -i {-P,-b8192,-e}
Elevator 118 T-REX -i {-P,-b8192,-e}
Elevator 119 T-REX -i {-P,-b8192,-e}
Elevator 120 T-REX -i {-P,-b8192,-e}
Elevator 121 T-REX -i {-P,-b8192,-e}
Elevator 122 T-REX -i {-P,-b8192,-e}
Elevator 123 T-REX -i {-P,-b8192,-e}
Elevator 124 T-REX -i {-P,-b8192,-e}
Elevator 125 T-REX -i {-P,-b8192,-e}
Elevator 126 T-REX -i {-P,-b8192,-e}
Elevator 127 T-REX -i {-P,-b8192,-e}
Elevator 128 T-REX -i {-P,-b8192,-e}
Elevator 129 T-REX -i {-P,-b8192,-e}
Elevator 130 T-REX -i {-P,-b8192,-e}
Elevator 131 T-REX -i {-P,-b8192,-e}
Elevator 132 T-REX -i {-P,-b8192,-e}
Elevator 133 T-REX -i {-P,-b8192,-e}
Elevator 134 T-REX -i {-P,-b8192,-e}
Elevator 135 T-REX -i {-P,-b8192,-e}
Elevator 136 T-REX -i {-P,-b8192,-e}
Elevator 137 T-REX -i {-P,-b8192,-e}
Elevator 138 T-REX -i {-P,-b8192,-e}
Elevator 139 T-REX -i {-P,-b8192,-e}
Elevator 140 T-REX -i {-P,-b8192,-e}
Elevator 141 T-REX -i {-P,-b8192,-e}
Elevator 142 T-REX -i {-P,-b8192,-e}
Elevator 143 T-REX -i {-P,-b8192,-e}
Elevator 144 T-REX -i {-P,-b8192,-e}
Elevator 145 T-REX -i {-P,-b8192,-e}
Elevator 146 T-REX -i {-P,-b8192,-e}
Elevator 147 T-REX -i {-P,-b8192,-e}
Elevator 148 T-REX -i {-P,-b8192,-e}
Elevator 149 T-REX -i {-P,-b8192,-e}
Elevator 150 T-REX -i {-P,-b8192,-e}
