
Compact plan:
0: (up f0 f17)
1: (board f17 p0)
2: (up f17 f29)
3: (depart f29 p0)
4: (down f29 f12)
5: (board f12 p1)
6: (down f12 f4)
7: (depart f4 p1)
8: (up f4 f22)
9: (board f22 p2)
10: (down f22 f16)
11: (depart f16 p2)
12: (up f16 f24)
13: (board f24 p3)
14: (up f24 f37)
15: (depart f37 p3)
16: (down f37 f17)
17: (board f17 p4)
18: (up f17 f36)
19: (depart f36 p4)
20: (down f36 f10)
21: (board f10 p5)
22: (up f10 f37)
23: (depart f37 p5)
24: (down f37 f32)
25: (board f32 p6)
26: (down f32 f7)
27: (depart f7 p6)
28: (up f7 f18)
29: (board f18 p7)
30: (up f18 f25)
31: (depart f25 p7)
32: (down f25 f20)
33: (board f20 p8)
34: (down f20 f11)
35: (depart f11 p8)
36: (down f11 f1)
37: (board f1 p9)
38: (up f1 f31)
39: (depart f31 p9)
40: (down f31 f4)
41: (board f4 p10)
42: (up f4 f35)
43: (depart f35 p10)
44: (down f35 f8)
45: (board f8 p11)
46: (up f8 f10)
47: (depart f10 p11)
48: (up f10 f33)
49: (board f33 p12)
50: (down f33 f32)
51: (depart f32 p12)
52: (down f32 f1)
53: (board f1 p13)
54: (up f1 f7)
55: (depart f7 p13)
56: (up f7 f32)
57: (board f32 p14)
58: (down f32 f18)
59: (depart f18 p14)
60: (down f18 f3)
61: (board f3 p15)
62: (up f3 f23)
63: (depart f23 p15)
64: (up f23 f30)
65: (board f30 p16)
66: (down f30 f7)
67: (depart f7 p16)
68: (up f7 f23)
69: (board f23 p17)
70: (up f23 f25)
71: (depart f25 p17)
72: (down f25 f10)
73: (board f10 p18)
74: (down f10 f0)
75: (depart f0 p18)


