
Compact plan:
0: (unstack b28 b7)
1: (put-down b28)
2: (unstack b7 b12)
3: (put-down b7)
4: (unstack b12 b1)
5: (put-down b12)
6: (unstack b8 b30)
7: (put-down b8)
8: (unstack b1 b25)
9: (stack b1 b30)
10: (unstack b31 b5)
11: (put-down b31)
12: (unstack b5 b21)
13: (put-down b5)
14: (pick-up b21)
15: (stack b21 b1)
16: (unstack b11 b14)
17: (put-down b11)
18: (unstack b14 b13)
19: (put-down b14)
20: (unstack b13 b6)
21: (put-down b13)
22: (unstack b6 b4)
23: (put-down b6)
24: (unstack b4 b26)
25: (put-down b4)
26: (unstack b26 b23)
27: (stack b26 b21)
28: (unstack b23 b20)
29: (put-down b23)
30: (unstack b20 b15)
31: (put-down b20)
32: (unstack b15 b2)
33: (put-down b15)
34: (unstack b2 b27)
35: (put-down b2)
36: (unstack b27 b22)
37: (put-down b27)
38: (unstack b22 b19)
39: (put-down b22)
40: (unstack b19 b33)
41: (put-down b19)
42: (unstack b33 b18)
43: (put-down b33)
44: (unstack b18 b9)
45: (put-down b18)
46: (unstack b9 b17)
47: (put-down b9)
48: (unstack b17 b24)
49: (put-down b17)
50: (unstack b24 b10)
51: (put-down b24)
52: (unstack b10 b3)
53: (put-down b10)
54: (unstack b3 b32)
55: (put-down b3)
56: (unstack b37 b29)
57: (stack b37 b32)
58: (pick-up b27)
59: (stack b27 b37)
60: (pick-up b5)
61: (stack b5 b27)
62: (pick-up b8)
63: (stack b8 b5)
64: (pick-up b11)
65: (stack b11 b8)
66: (pick-up b17)
67: (stack b17 b11)
68: (unstack b35 b36)
69: (put-down b35)
70: (pick-up b36)
71: (stack b36 b17)
72: (pick-up b22)
73: (stack b22 b36)
74: (pick-up b2)
75: (stack b2 b22)
76: (pick-up b18)
77: (stack b18 b7)
78: (unstack b25 b16)
79: (put-down b25)
80: (unstack b16 b34)
81: (stack b16 b18)
82: (pick-up b10)
83: (stack b10 b16)
84: (pick-up b28)
85: (stack b28 b10)
86: (pick-up b13)
87: (stack b13 b28)
88: (pick-up b6)
89: (stack b6 b13)
90: (pick-up b34)
91: (stack b34 b6)
92: (pick-up b29)
93: (stack b29 b34)
94: (pick-up b20)
95: (stack b20 b29)
96: (pick-up b14)
97: (stack b14 b20)
98: (pick-up b12)
99: (stack b12 b14)
100: (pick-up b9)
101: (stack b9 b12)
102: (pick-up b23)
103: (stack b23 b9)
104: (pick-up b15)
105: (stack b15 b23)
106: (pick-up b35)
107: (stack b35 b15)
108: (pick-up b19)
109: (stack b19 b35)
110: (pick-up b4)
111: (stack b4 b19)
112: (pick-up b3)
113: (stack b3 b4)
114: (pick-up b25)
115: (stack b25 b3)
116: (pick-up b33)
117: (stack b33 b25)
118: (pick-up b24)
119: (stack b24 b31)


