Command : ./interpreter_t-rex_binary_haribo -P -b8192 -e -i f.cnf 
[0.000] This is T-REX interpreter, prototype version 04/2018.
[0.000] Reading problem encoding from file "f.cnf".
[0.001] Parsed head comment information.
[0.021] Processed problem encoding.
[0.022] Calculated possible fact changes of composite elements.
[0.025] Initialized instantiation procedure.
[0.025] 
[0.025] *************************************
[0.025] * * *   M a k e s p a n     0   * * *
[0.025] *************************************
[0.031] Instantiated 5,681 initial clauses.
[0.031] The encoding contains a total of 3,290 distinct variables.
[0.031] Attempting solve with solver <glucose4> ...
c 70 assumptions
[0.031] Executed solver; result: UNSAT.
[0.031] 
[0.031] *************************************
[0.031] * * *   M a k e s p a n     1   * * *
[0.031] *************************************
[0.040] Computed next depth properties: array size of 268.
[0.043] Instantiated 1,310 transitional clauses.
[0.060] 100.0% quadratic At-Most-One encodings, the rest being binary encoded.
[0.060] Instantiated 9,460 universal clauses.
[0.060] Instantiated and added clauses for a total of 16,451 clauses.
[0.060] The encoding contains a total of 5,856 distinct variables.
[0.060] Attempting solve with solver <glucose4> ...
c 268 assumptions
[0.060] Executed solver; result: UNSAT.
[0.060] 
[0.060] *************************************
[0.060] * * *   M a k e s p a n     2   * * *
[0.060] *************************************
[0.083] Computed next depth properties: array size of 868.
[0.090] Instantiated 4,430 transitional clauses.
[0.129] 100.0% quadratic At-Most-One encodings, the rest being binary encoded.
[0.129] Instantiated 32,200 universal clauses.
[0.129] Instantiated and added clauses for a total of 53,081 clauses.
[0.129] The encoding contains a total of 11,641 distinct variables.
[0.129] Attempting solve with solver <glucose4> ...
c 868 assumptions
c last restart ## conflicts  :  51 1058 
[0.145] Executed solver; result: SAT.
[0.145] Solver returned SAT; a solution has been found at makespan 2.
867
solution 1620 1
2 144 538 539 142 1017 536 140 1256 1322 1323 1324 1258 1259 5 151 549 550 149 1023 545 147 1261 1490 1505 1491 1263 1264 7 155 555 556 157 1027 559 153 1261 1410 1507 1411 1263 1264 9 160 563 564 163 1031 567 161 1261 1406 1509 1407 1263 1264 11 166 571 572 169 1035 575 167 1261 1288 1511 1289 1263 1264 13 175 581 582 173 1039 577 171 1261 1386 1513 1387 1263 1264 14 178 584 585 180 1041 590 176 1256 1310 1514 1311 1258 1259 16 184 592 593 186 1045 598 182 1256 1318 1516 1319 1258 1259 18 192 600 601 190 1049 606 188 1256 1302 1518 1303 1258 1259 20 198 610 611 194 1053 608 195 1256 1344 1520 1345 1258 1259 22 204 616 617 202 1057 622 200 1256 1400 1522 1401 1258 1259 25 211 629 630 209 1063 625 207 1261 1438 1525 1439 1263 1264 27 214 635 636 217 1067 639 215 1261 1498 1527 1499 1263 1264 28 220 642 643 222 1069 640 218 1256 1476 1528 1477 1258 1259 31 226 651 652 229 1075 655 227 1261 1390 1531 1391 1263 1264 33 235 661 662 233 1079 657 231 1261 1470 1533 1471 1263 1264 34 240 664 665 238 1081 670 236 1256 1440 1534 1441 1258 1259 37 245 677 678 247 1087 673 243 1261 1300 1537 1301 1263 1264 39 250 685 686 253 1091 681 251 1261 1342 1539 1343 1263 1264 40 256 688 689 258 1093 694 254 1256 1364 1540 1365 1258 1259 42 262 696 697 264 1097 702 260 1256 1420 1542 1421 1258 1259 44 270 706 707 266 1101 704 267 1256 1282 1544 1283 1258 1259 46 272 712 713 276 1105 718 273 1256 1278 1546 1279 1258 1259 48 280 720 721 282 1109 726 278 1256 1274 1548 1275 1258 1259 50 288 730 731 286 1113 728 284 1256 1396 1550 1397 1258 1259 52 294 738 739 292 1117 736 290 1256 1380 1552 1381 1258 1259 55 298 749 750 301 1123 745 299 1261 1426 1555 1427 1263 1264 57 305 755 756 307 1127 759 303 1261 1308 1557 1309 1263 1264 58 312 762 763 310 1129 760 308 1256 1460 1558 1461 1258 1259 60 318 770 771 314 1133 768 315 1256 1328 1560 1329 1258 1259 62 324 776 777 322 1137 782 320 1256 1336 1562 1337 1258 1259 64 326 784 785 330 1141 790 327 1256 1392 1564 1393 1258 1259 66 336 794 795 334 1145 792 332 1256 1432 1566 1433 1258 1259 68 338 800 801 342 1149 806 339 1256 1480 1568 1481 1258 1259 70 348 810 811 346 1153 808 344 1256 1448 1570 1449 1258 1259 72 354 818 819 352 1157 816 350 1256 1314 1572 1315 1258 1259 74 358 826 827 360 1161 824 356 1256 1294 1574 1295 1258 1259 76 366 832 833 364 1165 838 362 1256 1368 1576 1369 1258 1259 78 372 842 843 370 1169 840 368 1256 1416 1578 1417 1258 1259 80 374 848 849 378 1173 854 375 1256 1360 1580 1361 1258 1259 82 384 856 857 382 1177 862 380 1256 1492 1582 1493 1258 1259 84 390 864 865 388 1181 870 386 1256 1266 1584 1267 1258 1259 86 394 874 875 396 1185 872 392 1256 1376 1586 1377 1258 1259 89 401 883 884 403 1191 887 399 1261 1466 1589 1467 1263 1264 90 406 888 889 408 1193 894 404 1256 1348 1590 1349 1258 1259 92 412 896 897 414 1197 902 410 1256 1452 1592 1453 1258 1259 94 418 906 907 420 1201 904 416 1256 1444 1594 1445 1258 1259 96 424 912 913 426 1205 918 422 1256 1270 1596 1271 1258 1259 98 432 922 923 430 1209 920 428 1256 1484 1598 1485 1258 1259 100 438 930 931 436 1213 928 434 1256 1290 1600 1291 1258 1259 102 442 936 937 444 1217 942 440 1256 1257 1602 1260 1258 1259 104 448 944 945 450 1221 950 446 1256 1472 1604 1473 1258 1259 106 456 954 955 454 1225 952 452 1256 1352 1606 1353 1258 1259 108 460 960 961 462 1229 966 458 1256 1412 1608 1413 1258 1259 110 466 970 971 468 1233 968 464 1256 1372 1610 1373 1258 1259 112 474 978 979 472 1237 976 470 1256 1332 1612 1333 1258 1259 114 478 984 985 480 1241 990 476 1256 1428 1614 1429 1258 1259 116 484 994 995 486 1245 992 482 1256 1456 1616 1457 1258 1259 118 490 1000 1001 492 1249 1006 488 1256 1500 1618 1501 1258 1259 120 496 1008 1009 498 1253 1014 494 1256 1356 1620 1357 1258 1259 122 502 500 124 506 504 126 510 508 128 514 512 130 518 516 133 523 521 134 526 524 137 531 529 138 534 532 
[0.149] Exiting.
