
Compact plan:
0: (unstack b7 b2)
1: (put-down b7)
2: (unstack b2 b5)
3: (put-down b2)
4: (unstack b5 b9)
5: (put-down b5)
6: (unstack b9 b8)
7: (put-down b9)
8: (unstack b8 b1)
9: (put-down b8)
10: (unstack b1 b3)
11: (put-down b1)
12: (unstack b6 b4)
13: (put-down b6)
14: (pick-up b3)
15: (stack b3 b4)
16: (pick-up b6)
17: (stack b6 b3)
18: (pick-up b2)
19: (stack b2 b6)
20: (pick-up b1)
21: (stack b1 b2)
22: (pick-up b5)
23: (stack b5 b1)


