
Compact plan:
0: (up f0 f114)
1: (board f114 p0)
2: (up f114 f353)
3: (depart f353 p0)
4: (down f353 f352)
5: (board f352 p1)
6: (down f352 f239)
7: (depart f239 p1)
8: (down f239 f49)
9: (board f49 p2)
10: (up f49 f93)
11: (depart f93 p2)
12: (up f93 f320)
13: (board f320 p3)
14: (up f320 f385)
15: (depart f385 p3)
16: (down f385 f296)
17: (board f296 p4)
18: (down f296 f190)
19: (depart f190 p4)
20: (up f190 f370)
21: (board f370 p5)
22: (up f370 f395)
23: (depart f395 p5)
24: (down f395 f89)
25: (board f89 p6)
26: (up f89 f350)
27: (depart f350 p6)
28: (down f350 f21)
29: (board f21 p7)
30: (up f21 f336)
31: (depart f336 p7)
32: (down f336 f165)
33: (board f165 p8)
34: (down f165 f18)
35: (depart f18 p8)
36: (up f18 f232)
37: (board f232 p9)
38: (up f232 f357)
39: (depart f357 p9)
40: (down f357 f108)
41: (board f108 p10)
42: (up f108 f311)
43: (depart f311 p10)
44: (down f311 f218)
45: (board f218 p11)
46: (up f218 f396)
47: (depart f396 p11)
48: (down f396 f164)
49: (board f164 p12)
50: (up f164 f210)
51: (depart f210 p12)
52: (down f210 f128)
53: (board f128 p13)
54: (up f128 f190)
55: (depart f190 p13)
56: (down f190 f91)
57: (board f91 p14)
58: (up f91 f259)
59: (depart f259 p14)
60: (up f259 f378)
61: (board f378 p15)
62: (down f378 f237)
63: (depart f237 p15)
64: (down f237 f30)
65: (board f30 p16)
66: (up f30 f310)
67: (depart f310 p16)
68: (down f310 f24)
69: (board f24 p17)
70: (up f24 f267)
71: (depart f267 p17)
72: (down f267 f238)
73: (board f238 p18)
74: (down f238 f31)
75: (depart f31 p18)
76: (up f31 f62)
77: (board f62 p19)
78: (up f62 f334)
79: (depart f334 p19)
80: (down f334 f279)
81: (board f279 p20)
82: (down f279 f96)
83: (depart f96 p20)
84: (up f96 f98)
85: (board f98 p21)
86: (up f98 f186)
87: (depart f186 p21)
88: (up f186 f367)
89: (board f367 p22)
90: (down f367 f159)
91: (depart f159 p22)
92: (up f159 f376)
93: (board f376 p23)
94: (up f376 f380)
95: (depart f380 p23)
96: (down f380 f74)
97: (board f74 p24)
98: (up f74 f238)
99: (depart f238 p24)
100: (down f238 f118)
101: (board f118 p25)
102: (up f118 f135)
103: (depart f135 p25)
104: (up f135 f167)
105: (board f167 p26)
106: (up f167 f311)
107: (depart f311 p26)
108: (up f311 f393)
109: (board f393 p27)
110: (down f393 f246)
111: (depart f246 p27)
112: (down f246 f243)
113: (board f243 p28)
114: (down f243 f72)
115: (depart f72 p28)
116: (up f72 f156)
117: (board f156 p29)
118: (down f156 f92)
119: (depart f92 p29)
120: (up f92 f375)
121: (board f375 p30)
122: (down f375 f167)
123: (depart f167 p30)
124: (down f167 f19)
125: (board f19 p31)
126: (up f19 f199)
127: (depart f199 p31)
128: (up f199 f352)
129: (board f352 p32)
130: (down f352 f145)
131: (depart f145 p32)
132: (up f145 f280)
133: (board f280 p33)
134: (down f280 f73)
135: (depart f73 p33)
136: (up f73 f389)
137: (board f389 p34)
138: (down f389 f60)
139: (depart f60 p34)
140: (up f60 f85)
141: (board f85 p35)
142: (up f85 f342)
143: (depart f342 p35)
144: (down f342 f177)
145: (board f177 p36)
146: (up f177 f282)
147: (depart f282 p36)
148: (up f282 f352)
149: (board f352 p37)
150: (down f352 f319)
151: (depart f319 p37)
152: (down f319 f98)
153: (board f98 p38)
154: (up f98 f169)
155: (depart f169 p38)
156: (up f169 f357)
157: (board f357 p39)
158: (down f357 f211)
159: (depart f211 p39)
160: (down f211 f21)
161: (board f21 p40)
162: (up f21 f284)
163: (depart f284 p40)
164: (up f284 f309)
165: (board f309 p41)
166: (down f309 f172)
167: (depart f172 p41)
168: (down f172 f148)
169: (board f148 p42)
170: (up f148 f341)
171: (depart f341 p42)
172: (down f341 f112)
173: (board f112 p43)
174: (up f112 f237)
175: (depart f237 p43)
176: (up f237 f310)
177: (board f310 p44)
178: (up f310 f325)
179: (depart f325 p44)
180: (down f325 f216)
181: (board f216 p45)
182: (up f216 f297)
183: (depart f297 p45)
184: (down f297 f276)
185: (board f276 p46)
186: (down f276 f23)
187: (depart f23 p46)
188: (up f23 f367)
189: (board f367 p47)
190: (down f367 f48)
191: (depart f48 p47)
192: (up f48 f95)
193: (board f95 p48)
194: (down f95 f64)
195: (depart f64 p48)
196: (up f64 f363)
197: (board f363 p49)
198: (down f363 f347)
199: (depart f347 p49)


