
Compact plan:
0: (unstack b32 b15)
1: (put-down b32)
2: (unstack b15 b16)
3: (put-down b15)
4: (unstack b23 b21)
5: (stack b23 b15)
6: (unstack b21 b19)
7: (put-down b21)
8: (unstack b19 b8)
9: (put-down b19)
10: (unstack b8 b26)
11: (put-down b8)
12: (unstack b3 b28)
13: (put-down b3)
14: (unstack b28 b22)
15: (put-down b28)
16: (unstack b22 b29)
17: (put-down b22)
18: (unstack b29 b20)
19: (put-down b29)
20: (unstack b26 b9)
21: (stack b26 b20)
22: (unstack b2 b6)
23: (put-down b2)
24: (pick-up b3)
25: (stack b3 b2)
26: (unstack b16 b7)
27: (put-down b16)
28: (unstack b7 b13)
29: (put-down b7)
30: (unstack b13 b14)
31: (put-down b13)
32: (unstack b14 b11)
33: (stack b14 b3)
34: (unstack b27 b33)
35: (put-down b27)
36: (unstack b33 b10)
37: (put-down b33)
38: (unstack b10 b25)
39: (put-down b10)
40: (unstack b25 b24)
41: (put-down b25)
42: (unstack b24 b17)
43: (stack b24 b14)
44: (unstack b26 b20)
45: (put-down b26)
46: (unstack b20 b1)
47: (put-down b20)
48: (unstack b1 b5)
49: (put-down b1)
50: (unstack b5 b31)
51: (put-down b5)
52: (pick-up b31)
53: (stack b31 b5)
54: (unstack b23 b15)
55: (put-down b23)
56: (pick-up b15)
57: (stack b15 b31)
58: (pick-up b23)
59: (stack b23 b15)
60: (pick-up b1)
61: (stack b1 b23)
62: (pick-up b20)
63: (stack b20 b1)
64: (pick-up b26)
65: (stack b26 b20)
66: (pick-up b19)
67: (stack b19 b26)
68: (unstack b12 b18)
69: (stack b12 b19)
70: (pick-up b32)
71: (stack b32 b12)
72: (unstack b18 b4)
73: (stack b18 b32)
74: (pick-up b10)
75: (stack b10 b18)
76: (pick-up b29)
77: (stack b29 b10)
78: (unstack b9 b30)
79: (put-down b9)
80: (pick-up b30)
81: (stack b30 b29)
82: (pick-up b7)
83: (stack b7 b30)
84: (pick-up b13)
85: (stack b13 b17)
86: (pick-up b9)
87: (stack b9 b13)
88: (pick-up b11)
89: (stack b11 b9)
90: (pick-up b33)
91: (stack b33 b11)
92: (pick-up b6)
93: (stack b6 b33)
94: (pick-up b28)
95: (stack b28 b6)
96: (pick-up b25)
97: (stack b25 b28)
98: (pick-up b21)
99: (stack b21 b25)
100: (pick-up b22)
101: (stack b22 b4)
102: (pick-up b27)
103: (stack b27 b8)


