
Compact plan:
0: (up f0 f20)
1: (board f20 p0)
2: (up f20 f41)
3: (depart f41 p0)
4: (up f41 f59)
5: (board f59 p1)
6: (down f59 f44)
7: (depart f44 p1)
8: (down f44 f16)
9: (board f16 p2)
10: (up f16 f43)
11: (depart f43 p2)
12: (down f43 f25)
13: (board f25 p3)
14: (down f25 f10)
15: (depart f10 p3)
16: (down f10 f1)
17: (board f1 p4)
18: (up f1 f31)
19: (depart f31 p4)
20: (down f31 f0)
21: (board f0 p5)
22: (up f0 f28)
23: (depart f28 p5)
24: (down f28 f17)
25: (board f17 p6)
26: (up f17 f47)
27: (depart f47 p6)
28: (down f47 f30)
29: (board f30 p7)
30: (down f30 f1)
31: (depart f1 p7)
32: (up f1 f40)
33: (board f40 p8)
34: (down f40 f18)
35: (depart f18 p8)
36: (up f18 f30)
37: (board f30 p9)
38: (down f30 f3)
39: (depart f3 p9)
40: (up f3 f34)
41: (board f34 p10)
42: (up f34 f41)
43: (depart f41 p10)
44: (up f41 f52)
45: (board f52 p11)
46: (down f52 f35)
47: (depart f35 p11)
48: (down f35 f6)
49: (board f6 p12)
50: (up f6 f13)
51: (depart f13 p12)
52: (up f13 f31)
53: (board f31 p13)
54: (up f31 f57)
55: (depart f57 p13)
56: (down f57 f47)
57: (board f47 p14)
58: (down f47 f44)
59: (depart f44 p14)
60: (down f44 f26)
61: (board f26 p15)
62: (down f26 f8)
63: (depart f8 p15)
64: (up f8 f17)
65: (board f17 p16)
66: (up f17 f25)
67: (depart f25 p16)
68: (up f25 f44)
69: (board f44 p17)
70: (down f44 f33)
71: (depart f33 p17)
72: (down f33 f8)
73: (board f8 p18)
74: (down f8 f2)
75: (depart f2 p18)
76: (up f2 f36)
77: (board f36 p19)
78: (down f36 f1)
79: (depart f1 p19)
80: (up f1 f33)
81: (board f33 p20)
82: (up f33 f36)
83: (depart f36 p20)
84: (down f36 f29)
85: (board f29 p21)
86: (up f29 f42)
87: (depart f42 p21)
88: (down f42 f16)
89: (board f16 p22)
90: (up f16 f51)
91: (depart f51 p22)
92: (down f51 f44)
93: (board f44 p23)
94: (up f44 f56)
95: (depart f56 p23)
96: (down f56 f10)
97: (board f10 p24)
98: (up f10 f14)
99: (depart f14 p24)
100: (up f14 f51)
101: (board f51 p25)
102: (down f51 f36)
103: (depart f36 p25)
104: (up f36 f47)
105: (board f47 p26)
106: (down f47 f43)
107: (depart f43 p26)
108: (down f43 f4)
109: (board f4 p27)
110: (up f4 f53)
111: (depart f53 p27)
112: (down f53 f48)
113: (board f48 p28)
114: (down f48 f27)
115: (depart f27 p28)
116: (up f27 f50)
117: (board f50 p29)
118: (down f50 f36)
119: (depart f36 p29)


