
Compact plan:
0: (up f0 f1)
1: (board f1 p3)
2: (up f1 f12)
3: (board f12 p5)
4: (down f12 f4)
5: (depart f4 p5)
6: (board f4 p11)
7: (board f4 p8)
8: (up f4 f18)
9: (board f18 p7)
10: (up f18 f23)
11: (depart f23 p11)
12: (board f23 p1)
13: (down f23 f22)
14: (board f22 p10)
15: (depart f22 p3)
16: (down f22 f6)
17: (board f6 p9)
18: (up f6 f16)
19: (board f16 p2)
20: (down f16 f8)
21: (board f8 p0)
22: (up f8 f13)
23: (down f13 f7)
24: (depart f7 p2)
25: (up f7 f13)
26: (board f13 p4)
27: (depart f13 p7)
28: (down f13 f5)
29: (depart f5 p10)
30: (depart f5 p0)
31: (board f5 p6)
32: (up f5 f18)
33: (depart f18 p8)
34: (down f18 f15)
35: (depart f15 p9)
36: (down f15 f11)
37: (depart f11 p6)
38: (up f11 f19)
39: (depart f19 p4)
40: (up f19 f20)
41: (depart f20 p1)


