
Compact plan:
0: (up f0 f47)
1: (board f47 p0)
2: (up f47 f55)
3: (depart f55 p0)
4: (down f55 f26)
5: (board f26 p1)
6: (down f26 f10)
7: (depart f10 p1)
8: (up f10 f28)
9: (board f28 p2)
10: (down f28 f14)
11: (depart f14 p2)
12: (down f14 f6)
13: (board f6 p3)
14: (up f6 f35)
15: (depart f35 p3)
16: (down f35 f29)
17: (board f29 p4)
18: (down f29 f17)
19: (depart f17 p4)
20: (up f17 f32)
21: (board f32 p5)
22: (down f32 f22)
23: (depart f22 p5)
24: (up f22 f53)
25: (board f53 p6)
26: (down f53 f22)
27: (depart f22 p6)
28: (up f22 f43)
29: (board f43 p7)
30: (down f43 f6)
31: (depart f6 p7)
32: (up f6 f37)
33: (board f37 p8)
34: (up f37 f52)
35: (depart f52 p8)
36: (down f52 f33)
37: (board f33 p9)
38: (down f33 f15)
39: (depart f15 p9)
40: (down f15 f9)
41: (board f9 p10)
42: (up f9 f42)
43: (depart f42 p10)
44: (down f42 f17)
45: (board f17 p11)
46: (up f17 f52)
47: (depart f52 p11)
48: (down f52 f50)
49: (board f50 p12)
50: (down f50 f43)
51: (depart f43 p12)
52: (up f43 f48)
53: (board f48 p13)
54: (up f48 f55)
55: (depart f55 p13)
56: (board f55 p14)
57: (down f55 f34)
58: (depart f34 p14)
59: (up f34 f46)
60: (board f46 p15)
61: (down f46 f31)
62: (depart f31 p15)
63: (up f31 f33)
64: (board f33 p16)
65: (down f33 f16)
66: (depart f16 p16)
67: (up f16 f41)
68: (board f41 p17)
69: (up f41 f45)
70: (depart f45 p17)
71: (down f45 f15)
72: (board f15 p18)
73: (up f15 f32)
74: (depart f32 p18)
75: (down f32 f8)
76: (board f8 p19)
77: (up f8 f44)
78: (depart f44 p19)
79: (down f44 f33)
80: (board f33 p20)
81: (up f33 f40)
82: (depart f40 p20)
83: (up f40 f50)
84: (board f50 p21)
85: (down f50 f30)
86: (depart f30 p21)
87: (up f30 f46)
88: (board f46 p22)
89: (down f46 f37)
90: (depart f37 p22)
91: (down f37 f20)
92: (board f20 p23)
93: (down f20 f11)
94: (depart f11 p23)
95: (up f11 f34)
96: (board f34 p24)
97: (up f34 f37)
98: (depart f37 p24)
99: (down f37 f26)
100: (board f26 p25)
101: (up f26 f27)
102: (depart f27 p25)
103: (down f27 f7)
104: (board f7 p26)
105: (up f7 f43)
106: (depart f43 p26)
107: (down f43 f8)
108: (board f8 p27)
109: (up f8 f41)
110: (depart f41 p27)


