
Compact plan:
0: (up f0 f9)
1: (board f9 p0)
2: (up f9 f15)
3: (depart f15 p0)
4: (down f15 f12)
5: (board f12 p1)
6: (down f12 f2)
7: (depart f2 p1)
8: (down f2 f0)
9: (board f0 p2)
10: (up f0 f10)
11: (depart f10 p2)
12: (up f10 f17)
13: (board f17 p3)
14: (down f17 f15)
15: (depart f15 p3)
16: (down f15 f3)
17: (board f3 p4)
18: (down f3 f2)
19: (depart f2 p4)
20: (board f2 p5)
21: (down f2 f1)
22: (depart f1 p5)
23: (up f1 f2)
24: (board f2 p6)
25: (up f2 f3)
26: (depart f3 p6)
27: (down f3 f0)
28: (board f0 p7)
29: (up f0 f15)
30: (depart f15 p7)
31: (down f15 f2)
32: (board f2 p8)
33: (up f2 f13)
34: (depart f13 p8)


