
Compact plan:
0: (up f0 f8)
1: (board f8 p0)
2: (up f8 f29)
3: (depart f29 p0)
4: (up f29 f35)
5: (board f35 p1)
6: (up f35 f38)
7: (depart f38 p1)
8: (down f38 f16)
9: (board f16 p2)
10: (down f16 f7)
11: (depart f7 p2)
12: (up f7 f13)
13: (board f13 p3)
14: (up f13 f16)
15: (depart f16 p3)
16: (up f16 f37)
17: (board f37 p4)
18: (down f37 f19)
19: (depart f19 p4)
20: (down f19 f6)
21: (board f6 p5)
22: (down f6 f4)
23: (depart f4 p5)
24: (up f4 f29)
25: (board f29 p6)
26: (down f29 f5)
27: (depart f5 p6)
28: (up f5 f36)
29: (board f36 p7)
30: (down f36 f7)
31: (depart f7 p7)
32: (up f7 f40)
33: (board f40 p8)
34: (down f40 f12)
35: (depart f12 p8)
36: (up f12 f36)
37: (board f36 p9)
38: (down f36 f33)
39: (depart f33 p9)
40: (down f33 f16)
41: (board f16 p10)
42: (up f16 f17)
43: (depart f17 p10)
44: (down f17 f16)
45: (board f16 p11)
46: (up f16 f23)
47: (depart f23 p11)
48: (down f23 f0)
49: (board f0 p12)
50: (up f0 f37)
51: (depart f37 p12)
52: (down f37 f31)
53: (board f31 p13)
54: (down f31 f9)
55: (depart f9 p13)
56: (up f9 f17)
57: (board f17 p14)
58: (down f17 f14)
59: (depart f14 p14)
60: (up f14 f38)
61: (board f38 p15)
62: (down f38 f26)
63: (depart f26 p15)
64: (up f26 f41)
65: (board f41 p16)
66: (down f41 f31)
67: (depart f31 p16)
68: (down f31 f20)
69: (board f20 p17)
70: (down f20 f15)
71: (depart f15 p17)
72: (up f15 f38)
73: (board f38 p18)
74: (down f38 f32)
75: (depart f32 p18)
76: (down f32 f30)
77: (board f30 p19)
78: (up f30 f31)
79: (depart f31 p19)
80: (down f31 f9)
81: (board f9 p20)
82: (up f9 f36)
83: (depart f36 p20)


