
Compact plan:
0: (unstack b2 b9)
1: (put-down b2)
2: (unstack b9 b4)
3: (put-down b9)
4: (unstack b4 b5)
5: (put-down b4)
6: (pick-up b2)
7: (stack b2 b5)
8: (unstack b2 b5)
9: (put-down b2)
10: (pick-up b9)
11: (stack b9 b2)
12: (unstack b7 b6)
13: (put-down b7)
14: (unstack b6 b11)
15: (put-down b6)
16: (unstack b11 b8)
17: (put-down b11)
18: (unstack b8 b3)
19: (put-down b8)
20: (unstack b3 b10)
21: (put-down b3)
22: (unstack b10 b1)
23: (put-down b10)
24: (pick-up b11)
25: (stack b11 b1)
26: (pick-up b10)
27: (stack b10 b6)
28: (pick-up b5)
29: (stack b5 b10)
30: (unstack b9 b2)
31: (put-down b9)
32: (pick-up b2)
33: (stack b2 b5)
34: (pick-up b9)
35: (stack b9 b2)
36: (unstack b11 b1)
37: (put-down b11)
38: (pick-up b1)
39: (stack b1 b9)
40: (pick-up b11)
41: (stack b11 b1)
42: (pick-up b4)
43: (stack b4 b11)
44: (pick-up b7)
45: (stack b7 b4)


