
Compact plan:
0: (up f0 f33)
1: (board f33 p0)
2: (down f33 f27)
3: (depart f27 p0)
4: (down f27 f12)
5: (board f12 p1)
6: (up f12 f38)
7: (depart f38 p1)
8: (down f38 f0)
9: (board f0 p2)
10: (up f0 f34)
11: (depart f34 p2)
12: (up f34 f35)
13: (board f35 p3)
14: (down f35 f15)
15: (depart f15 p3)
16: (down f15 f3)
17: (board f3 p4)
18: (up f3 f32)
19: (depart f32 p4)
20: (down f32 f8)
21: (board f8 p5)
22: (up f8 f25)
23: (depart f25 p5)
24: (down f25 f8)
25: (board f8 p6)
26: (up f8 f15)
27: (depart f15 p6)
28: (down f15 f6)
29: (board f6 p7)
30: (up f6 f9)
31: (depart f9 p7)
32: (up f9 f38)
33: (board f38 p8)
34: (down f38 f19)
35: (depart f19 p8)
36: (down f19 f1)
37: (board f1 p9)
38: (up f1 f37)
39: (depart f37 p9)
40: (down f37 f0)
41: (board f0 p10)
42: (up f0 f31)
43: (depart f31 p10)
44: (down f31 f10)
45: (board f10 p11)
46: (up f10 f36)
47: (depart f36 p11)
48: (down f36 f15)
49: (board f15 p12)
50: (up f15 f34)
51: (depart f34 p12)
52: (down f34 f27)
53: (board f27 p13)
54: (down f27 f13)
55: (depart f13 p13)
56: (up f13 f20)
57: (board f20 p14)
58: (down f20 f18)
59: (depart f18 p14)
60: (down f18 f3)
61: (board f3 p15)
62: (up f3 f5)
63: (depart f5 p15)
64: (up f5 f30)
65: (board f30 p16)
66: (up f30 f41)
67: (depart f41 p16)
68: (down f41 f3)
69: (board f3 p17)
70: (up f3 f29)
71: (depart f29 p17)
72: (up f29 f32)
73: (board f32 p18)
74: (up f32 f36)
75: (depart f36 p18)
76: (down f36 f2)
77: (board f2 p19)
78: (up f2 f33)
79: (depart f33 p19)
80: (down f33 f26)
81: (board f26 p20)
82: (down f26 f8)
83: (depart f8 p20)


