
Compact plan:
0: (up f0 f8)
1: (board f8 p0)
2: (down f8 f1)
3: (depart f1 p0)
4: (up f1 f7)
5: (board f7 p1)
6: (up f7 f24)
7: (depart f24 p1)
8: (down f24 f16)
9: (board f16 p2)
10: (down f16 f7)
11: (depart f7 p2)
12: (up f7 f13)
13: (board f13 p3)
14: (down f13 f2)
15: (depart f2 p3)
16: (up f2 f9)
17: (board f9 p4)
18: (up f9 f19)
19: (depart f19 p4)
20: (up f19 f20)
21: (board f20 p5)
22: (down f20 f4)
23: (depart f4 p5)
24: (down f4 f1)
25: (board f1 p6)
26: (up f1 f19)
27: (depart f19 p6)
28: (up f19 f22)
29: (board f22 p7)
30: (down f22 f21)
31: (depart f21 p7)
32: (down f21 f12)
33: (board f12 p8)
34: (up f12 f26)
35: (depart f26 p8)
36: (down f26 f22)
37: (board f22 p9)
38: (down f22 f19)
39: (depart f19 p9)
40: (down f19 f2)
41: (board f2 p10)
42: (up f2 f17)
43: (depart f17 p10)
44: (down f17 f16)
45: (board f16 p11)
46: (up f16 f23)
47: (depart f23 p11)
48: (down f23 f14)
49: (board f14 p12)
50: (down f14 f9)
51: (depart f9 p12)
52: (down f9 f3)
53: (board f3 p13)
54: (up f3 f9)
55: (depart f9 p13)


