Command : ./interpreter_t-rex_binary_haribo -P -b8192 -i f.cnf 
[0.000] This is T-REX interpreter, prototype version 04/2018.
[0.000] Reading problem encoding from file "f.cnf".
[0.031] Parsed head comment information.
[1.271] Processed problem encoding.
[2.207] Calculated possible fact changes of composite elements.
[2.337] Initialized instantiation procedure.
[2.337] 
[2.337] *************************************
[2.337] * * *   M a k e s p a n     0   * * *
[2.337] *************************************
[2.710] Instantiated 417,041 initial clauses.
[2.710] The encoding contains a total of 210,936 distinct variables.
[2.710] Attempting solve with solver <glucose4> ...
c 134 assumptions
[2.712] Executed solver; result: UNSAT.
[2.712] 
[2.712] *************************************
[2.712] * * *   M a k e s p a n     1   * * *
[2.712] *************************************
[3.438] Computed next depth properties: array size of 264.
[3.851] Instantiated 8,250 transitional clauses.
[5.058] Instantiated 872,097 universal clauses.
[5.058] Instantiated and added clauses for a total of 1,297,388 clauses.
[5.058] The encoding contains a total of 423,082 distinct variables.
[5.058] Attempting solve with solver <glucose4> ...
c 264 assumptions
[5.058] Executed solver; result: UNSAT.
[5.058] 
[5.058] *************************************
[5.058] * * *   M a k e s p a n     2   * * *
[5.058] *************************************
[6.449] Computed next depth properties: array size of 394.
[7.664] Instantiated 1,418,573 transitional clauses.
[10.060] Instantiated 6,841,370 universal clauses.
[10.060] Instantiated and added clauses for a total of 9,557,331 clauses.
[10.060] The encoding contains a total of 1,476,434 distinct variables.
[10.060] Attempting solve with solver <glucose4> ...
c 394 assumptions
[10.061] Executed solver; result: UNSAT.
[10.061] 
[10.061] *************************************
[10.061] * * *   M a k e s p a n     3   * * *
[10.061] *************************************
[12.121] Computed next depth properties: array size of 654.
[14.087] Instantiated 3,351,067 transitional clauses.
[16.753] Instantiated 1,779,790 universal clauses.
[16.753] Instantiated and added clauses for a total of 14,688,188 clauses.
[16.753] The encoding contains a total of 1,699,934 distinct variables.
[16.753] Attempting solve with solver <glucose4> ...
c 654 assumptions
[16.755] Executed solver; result: UNSAT.
[16.755] 
[16.755] *************************************
[16.755] * * *   M a k e s p a n     4   * * *
[16.755] *************************************
[19.707] Computed next depth properties: array size of 914.
[21.528] Instantiated 16,130 transitional clauses.
[25.398] Instantiated 2,466,860 universal clauses.
[25.398] Instantiated and added clauses for a total of 17,171,178 clauses.
[25.398] The encoding contains a total of 2,083,277 distinct variables.
[25.398] Attempting solve with solver <glucose4> ...
c 914 assumptions
[25.400] Executed solver; result: UNSAT.
[25.400] 
[25.400] *************************************
[25.400] * * *   M a k e s p a n     5   * * *
[25.400] *************************************
[29.762] Computed next depth properties: array size of 1174.
[33.127] Instantiated 2,853,842 transitional clauses.
[39.518] Instantiated 16,957,404 universal clauses.
[39.518] Instantiated and added clauses for a total of 36,982,424 clauses.
[39.518] The encoding contains a total of 4,241,558 distinct variables.
[39.519] Attempting solve with solver <glucose4> ...
c 1174 assumptions
c last restart ## conflicts  :  120 10269 
[59.423] Executed solver; result: SAT.
[59.423] Solver returned SAT; a solution has been found at makespan 5.
712
solution 201969 1
1847 84875 1878 84929 11 1908 1846 84621 1877 85082 27 85239 45 1858 117847 1882 118039 66 1857 174874 1890 175480 82 1838 33890 1869 34567 86 1899 1837 33961 1868 34723 103 1855 145936 1887 147145 120 1918 1856 175024 1889 176097 135 1842 63243 1873 64136 143 1844 72113 1875 73223 159 1853 129251 1885 130820 182 1907 1847 84777 1878 86623 195 119121 210 1832 2021 1863 4384 215 1839 46300 1870 48583 232 1893 1833 2095 1864 4693 241 1916 1854 145768 1886 148221 268 1900 1840 46602 1871 49047 273 1898 1838 33809 1869 35953 282 1901 1839 46297 1870 49353 302 1900 1841 46454 1872 49508 318 1902 1840 46609 1871 49663 337 1915 1855 145934 1887 149147 351 1901 1839 46302 1870 49969 358 1899 1837 33978 1868 36571 372 149638 386 1850 100908 1881 104178 400 1911 1848 100670 1879 104331 417 1900 1841 46458 1872 50740 427 37220 443 1917 1857 174875 1890 178868 461 1902 1840 46618 1871 51203 468 1901 1839 46314 1870 51355 484 1836 18193 1867 22095 501 1894 1832 1943 1863 6848 511 1918 1856 175056 1889 179331 537 1893 1834 2273 1865 7159 540 1900 1841 46469 1872 51664 560 179837 582 1895 1832 1967 1863 7464 584 1909 1850 100825 1881 106180 613 1914 1851 129296 1883 134979 632 1902 1840 46628 1871 52435 639 1916 1854 145790 1886 151917 661 1901 1839 46328 1870 52741 668 1915 1855 145967 1887 152227 687 1900 1840 46638 1871 53051 692 1911 1849 100533 1880 107256 708 1893 1833 2126 1864 8389 714 1910 1848 100696 1879 107565 740 1909 1849 100545 1880 107718 756 1901 1839 46333 1870 53511 765 1900 1841 46495 1872 53666 781 1902 1840 46650 1871 53821 800 1905 1845 72005 1876 77843 814 1859 162467 1888 168395 833 1901 1839 46343 1870 53973 840 1900 1841 46500 1872 54128 856 1912 1852 129024 1884 136978 875 1910 1848 100701 1879 108951 890 1902 1839 46347 1870 54589 901 1917 1857 174911 1890 182102 922 1900 1841 46504 1872 54898 926 1918 1856 175095 1889 182411 953 1902 1840 46660 1871 55053 957 1909 1849 100557 1880 109874 973 1901 1841 46508 1872 55206 983 1902 1839 46357 1870 55359 993 1910 1848 100717 1879 110029 1011 1917 1857 174943 1890 183334 1028 1909 1849 100567 1880 110336 1032 1900 1841 46512 1872 55976 1043 1898 1838 33837 1869 40881 1052 1897 1835 17980 1866 26713 1069 1916 1854 145816 1886 155767 1095 1918 1856 175104 1889 184259 1115 1896 1836 18182 1867 26869 1116 1902 1839 46362 1870 56899 1128 1897 1835 18031 1866 27175 1138 1896 1836 18187 1867 27331 1149 1897 1835 18034 1866 27483 1160 1896 1836 18189 1867 27639 1179 1897 1835 18036 1866 27791 1191 1900 1841 46522 1872 57670 1211 1896 1836 18191 1867 28101 1222 1902 1840 46682 1871 57825 1234 1897 1835 18039 1866 28407 1243 1901 1841 46530 1872 58132 1261 1896 1836 18195 1867 28563 1279 1897 1835 18043 1866 28715 1295 1896 1836 18198 1867 28871 1314 1902 1840 46686 1871 58595 1326 1897 1835 18045 1866 29177 1335 1896 1836 18201 1867 29333 1354 1901 1841 46536 1872 58902 1367 1902 1840 46693 1871 59057 1384 1897 1835 18048 1866 29639 1394 1901 1841 46540 1872 59210 1410 1902 1840 46697 1871 59365 1421 1899 1837 34043 1868 43347 1430 1898 1838 33917 1869 43499 1440 187431 1457 1901 1839 46390 1870 59979 1463 1899 1837 34072 1868 43809 1477 1913 1853 129200 1885 142986 1490 1900 1840 46702 1871 60443 1496 1898 1838 33921 1869 44269 1505 1908 1846 84637 1877 97710 1522 188382 1541 1910 1850 100877 1881 114958 1554 1861 198117 1892 201969 1577 1914 1851 129402 1883 143757 1590 1860 191039 1891 197041 1606 115549 1618 1899 1837 34078 1868 44887 1626 173396 1649 128067 1661 1915 1855 146003 1887 161159 1671 1911 1848 100769 1879 116189 1683 161605 1701 1909 1849 100621 1880 116342 1713 45639 1719 62568 1729 1910 1850 100931 1881 116806 1747 1906 1844 72062 1875 83849 1759 1907 1847 84899 1878 99867 1776 1911 1849 100627 1880 117266 1791 174692 1812 1894 1832 1984 1863 17782 1814 65075 83688 129256 
[59.799] Exiting.
