
Compact plan:
0: (up f0 f15)
1: (board f15 p0)
2: (down f15 f14)
3: (depart f14 p0)
4: (up f14 f36)
5: (board f36 p1)
6: (down f36 f10)
7: (depart f10 p1)
8: (up f10 f31)
9: (board f31 p2)
10: (down f31 f10)
11: (depart f10 p2)
12: (up f10 f16)
13: (board f16 p3)
14: (down f16 f4)
15: (depart f4 p3)
16: (up f4 f7)
17: (board f7 p4)
18: (up f7 f29)
19: (depart f29 p4)
20: (down f29 f16)
21: (board f16 p5)
22: (up f16 f27)
23: (depart f27 p5)
24: (up f27 f33)
25: (board f33 p6)
26: (down f33 f4)
27: (depart f4 p6)
28: (board f4 p7)
29: (up f4 f24)
30: (depart f24 p7)
31: (down f24 f23)
32: (board f23 p8)
33: (up f23 f33)
34: (depart f33 p8)
35: (down f33 f20)
36: (board f20 p9)
37: (down f20 f14)
38: (depart f14 p9)
39: (down f14 f3)
40: (board f3 p10)
41: (up f3 f22)
42: (depart f22 p10)
43: (down f22 f20)
44: (board f20 p11)
45: (up f20 f28)
46: (depart f28 p11)
47: (up f28 f35)
48: (board f35 p12)
49: (down f35 f7)
50: (depart f7 p12)
51: (down f7 f2)
52: (board f2 p13)
53: (down f2 f0)
54: (depart f0 p13)
55: (up f0 f21)
56: (board f21 p14)
57: (up f21 f29)
58: (depart f29 p14)
59: (down f29 f14)
60: (board f14 p15)
61: (up f14 f15)
62: (depart f15 p15)
63: (down f15 f5)
64: (board f5 p16)
65: (up f5 f12)
66: (depart f12 p16)
67: (down f12 f3)
68: (board f3 p17)
69: (up f3 f15)
70: (depart f15 p17)
71: (up f15 f23)
72: (board f23 p18)
73: (down f23 f19)
74: (depart f19 p18)


