
Compact plan:
0: (up f0 f3)
1: (board f3 p0)
2: (down f3 f0)
3: (depart f0 p0)
4: (up f0 f4)
5: (board f4 p1)
6: (down f4 f2)
7: (depart f2 p1)
8: (up f2 f13)
9: (board f13 p2)
10: (up f13 f14)
11: (depart f14 p2)
12: (down f14 f10)
13: (board f10 p3)
14: (up f10 f14)
15: (depart f14 p3)
16: (up f14 f19)
17: (board f19 p4)
18: (down f19 f10)
19: (depart f10 p4)
20: (down f10 f3)
21: (board f3 p5)
22: (up f3 f11)
23: (depart f11 p5)
24: (down f11 f2)
25: (board f2 p6)
26: (up f2 f6)
27: (depart f6 p6)
28: (up f6 f14)
29: (board f14 p7)
30: (down f14 f5)
31: (depart f5 p7)
32: (up f5 f15)
33: (board f15 p8)
34: (down f15 f4)
35: (depart f4 p8)
36: (down f4 f0)
37: (board f0 p9)
38: (up f0 f5)
39: (depart f5 p9)


