Satellite 01 T-REX -i {-P,-b8192}
Satellite 02 T-REX -i {-P,-b8192}
Satellite 03 T-REX -i {-P,-b8192}
Satellite 04 T-REX -i {-P,-b8192}
Satellite 05 T-REX -i {-P,-b8192}
Satellite 06 T-REX -i {-P,-b8192}
Satellite 07 T-REX -i {-P,-b8192}
Satellite 08 T-REX -i {-P,-b8192}
Satellite 09 T-REX -i {-P,-b8192}
Satellite 10 T-REX -i {-P,-b8192}
Satellite 11 T-REX -i {-P,-b8192}
Satellite 12 T-REX -i {-P,-b8192}
Satellite 13 T-REX -i {-P,-b8192}
Satellite 14 T-REX -i {-P,-b8192}
Satellite 15 T-REX -i {-P,-b8192}
Satellite 16 T-REX -i {-P,-b8192}
Satellite 17 T-REX -i {-P,-b8192}
Satellite 18 T-REX -i {-P,-b8192}
Satellite 19 T-REX -i {-P,-b8192}
Satellite 20 T-REX -i {-P,-b8192}
