Gripper 01 T-REX -i {-P,-b8192}
Gripper 02 T-REX -i {-P,-b8192}
Gripper 03 T-REX -i {-P,-b8192}
Gripper 04 T-REX -i {-P,-b8192}
Gripper 05 T-REX -i {-P,-b8192}
Gripper 06 T-REX -i {-P,-b8192}
Gripper 07 T-REX -i {-P,-b8192}
Gripper 08 T-REX -i {-P,-b8192}
Gripper 09 T-REX -i {-P,-b8192}
Gripper 10 T-REX -i {-P,-b8192}
Gripper 11 T-REX -i {-P,-b8192}
Gripper 12 T-REX -i {-P,-b8192}
Gripper 13 T-REX -i {-P,-b8192}
Gripper 14 T-REX -i {-P,-b8192}
Gripper 15 T-REX -i {-P,-b8192}
Gripper 16 T-REX -i {-P,-b8192}
Gripper 17 T-REX -i {-P,-b8192}
Gripper 18 T-REX -i {-P,-b8192}
Gripper 19 T-REX -i {-P,-b8192}
Gripper 20 T-REX -i {-P,-b8192}
