Command : ./interpreter_t-rex_binary_haribo -P -b8192 -i f.cnf 
[0.000] This is T-REX interpreter, prototype version 04/2018.
[0.000] Reading problem encoding from file "f.cnf".
[0.001] Parsed head comment information.
[0.016] Processed problem encoding.
[0.017] Calculated possible fact changes of composite elements.
[0.019] Initialized instantiation procedure.
[0.019] 
[0.019] *************************************
[0.019] * * *   M a k e s p a n     0   * * *
[0.019] *************************************
[0.023] Instantiated 4,391 initial clauses.
[0.023] The encoding contains a total of 2,549 distinct variables.
[0.023] Attempting solve with solver <glucose4> ...
c 55 assumptions
[0.023] Executed solver; result: UNSAT.
[0.023] 
[0.023] *************************************
[0.023] * * *   M a k e s p a n     1   * * *
[0.023] *************************************
[0.029] Computed next depth properties: array size of 208.
[0.031] Instantiated 1,008 transitional clauses.
[0.043] Instantiated 8,836 universal clauses.
[0.043] Instantiated and added clauses for a total of 14,235 clauses.
[0.043] The encoding contains a total of 6,801 distinct variables.
[0.043] Attempting solve with solver <glucose4> ...
c 208 assumptions
[0.043] Executed solver; result: UNSAT.
[0.043] 
[0.043] *************************************
[0.043] * * *   M a k e s p a n     2   * * *
[0.043] *************************************
[0.060] Computed next depth properties: array size of 658.
[0.065] Instantiated 3,060 transitional clauses.
[0.093] Instantiated 37,222 universal clauses.
[0.093] Instantiated and added clauses for a total of 54,517 clauses.
[0.093] The encoding contains a total of 15,965 distinct variables.
[0.093] Attempting solve with solver <glucose4> ...
c 658 assumptions
c last restart ## conflicts  :  39 813 
[0.106] Executed solver; result: SAT.
[0.106] Solver returned SAT; a solution has been found at makespan 2.
657
solution 1230 1
2 112 418 419 114 771 416 110 956 1082 1083 1084 958 959 5 119 429 430 121 777 425 117 961 992 1145 993 963 964 7 127 437 438 124 781 433 125 961 1004 1147 1005 963 964 8 128 442 443 132 783 440 129 956 1092 1148 1093 958 959 10 136 448 449 138 787 454 134 956 998 1150 999 958 959 12 144 456 457 142 791 462 140 956 982 1152 983 958 959 14 150 464 465 148 795 470 146 956 1116 1154 1117 958 959 16 154 474 475 156 799 472 152 956 1124 1156 1125 958 959 18 160 480 481 162 803 486 158 956 1042 1158 1043 958 959 20 168 488 489 166 807 494 164 956 1022 1160 1023 958 959 22 174 496 497 172 811 502 170 956 957 1162 960 958 959 24 176 504 505 180 815 510 177 956 978 1164 979 958 959 27 185 517 518 187 821 513 183 961 1130 1167 1131 963 964 28 190 522 523 192 823 520 188 956 1046 1168 1047 958 959 30 196 530 531 198 827 528 194 956 1078 1170 1079 958 959 32 204 536 537 202 831 542 200 956 1050 1172 1051 958 959 34 210 544 545 208 836 835 206 956 966 1174 967 958 959 36 216 550 551 214 841 556 212 956 1026 1176 1027 958 959 38 222 558 559 220 845 564 218 956 1104 1178 1105 958 959 41 227 571 572 229 851 567 225 961 1110 1181 1111 963 964 42 232 576 577 234 853 574 230 956 1058 1182 1059 958 959 44 240 584 585 236 857 582 237 956 1038 1184 1039 958 959 46 244 590 591 246 861 596 242 956 1132 1186 1133 958 959 48 250 598 599 252 865 604 248 956 1096 1188 1097 958 959 50 258 606 607 256 870 869 254 956 1120 1190 1121 958 959 52 262 612 613 264 875 618 260 956 1006 1192 1007 958 959 54 270 620 621 268 879 626 266 956 1066 1194 1067 958 959 56 274 630 631 276 883 628 272 956 1136 1196 1137 958 959 58 280 638 639 282 887 636 278 956 1140 1198 1141 958 959 60 288 646 647 286 891 644 284 956 1112 1200 1113 958 959 62 294 654 655 292 895 652 290 956 1010 1202 1011 958 959 64 296 660 661 300 899 666 297 956 1062 1204 1063 958 959 66 304 670 671 306 903 668 302 956 1074 1206 1075 958 959 68 312 678 679 310 907 676 308 956 970 1208 971 958 959 70 316 686 687 318 911 684 314 956 994 1210 995 958 959 72 322 692 693 324 915 698 320 956 1018 1212 1019 958 959 74 328 702 703 330 919 700 326 956 974 1214 975 958 959 76 334 708 709 336 923 714 332 956 1100 1216 1101 958 959 78 340 716 717 342 927 722 338 956 1034 1218 1035 958 959 80 348 724 725 346 932 931 344 956 1054 1220 1055 958 959 82 352 732 733 354 937 730 350 956 1088 1222 1089 958 959 84 360 740 741 356 941 738 357 956 986 1224 987 958 959 86 362 746 747 366 945 752 363 956 1070 1226 1071 958 959 88 372 754 755 370 949 760 368 956 1030 1228 1031 958 959 90 378 764 765 376 953 762 374 956 1014 1230 1015 958 959 92 382 380 94 386 384 96 390 388 98 394 392 100 398 396 103 403 401 104 406 404 106 408 409 108 414 412 
[0.109] Exiting.
